TP2/Mediciones/Viejas/1127/Pin4-Vref1127V.csv

#Digilent WaveForms Oscilloscope Acquisition
#Device Name: Discovery2
#Serial Number: SN:210321B0E03A
#Date Time: 2021-06-22 11:08:33.601
#Sample rate: 1e+08Hz
#Samples: 8192
#Trigger: Source: Channel 1 Type: Edge Condition: Rising Level: 3 V Hyst.: Auto HoldOff: 100 ns
#Channel 1: Range: 5 V/div Offset: 0 V Attenuation: 1 X
#Power Supplies: ON
#Positive Supply: ON
#Voltage: 1.128 V
#Negative Supply: OFF
#Voltage: -1 V

-4.095007692307692e-05,-0.003274399618577049
-4.094007692307692e-05,-0.006943065898319641
-4.093007692307692e-05,-0.003274399618583722
-4.092007692307693e-05,-0.01794906473754074
-4.091007692307692e-05,-0.01061173217806223
-4.090007692307692e-05,-0.0252863972970326
-4.089007692307692e-05,-0.006943065898319641
-4.088007692307693e-05,-0.01794906473754241
-4.087007692307692e-05,-0.02161773101729001
-4.086007692307692e-05,-0.003274399618577049
-4.085007692307692e-05,-0.006943065898319641
-4.084007692307692e-05,-0.0106117321780589
-4.083007692307692e-05,-0.003274399618577049
-4.082007692307692e-05,-0.01428039845780483
-4.081007692307692e-05,0.004062932940908135
-4.080007692307692e-05,-0.01794906473754241
-4.079007692307692e-05,-0.006943065898324646
-4.078007692307692e-05,-0.01061173217806223
-4.077007692307692e-05,0.004062932940908135
-4.076007692307692e-05,0.01140026550038665
-4.075007692307692e-05,-0.003274399618570374
-4.074007692307692e-05,-0.01061173217806223
-4.073007692307692e-05,-0.003274399618577049
-4.072007692307692e-05,-0.003274399618577049
-4.071007692307693e-05,0.0003942666611638748
-4.070007692307692e-05,-0.006943065898319641
-4.069007692307692e-05,0.0003942666611655432
-4.068007692307692e-05,0.004062932940908135
-4.067007692307692e-05,-0.006943065898321309
-4.066007692307692e-05,-0.01061173217806223
-4.065007692307692e-05,-0.01061173217806223
-4.064007692307692e-05,-0.003274399618577049
-4.063007692307692e-05,-0.01428039845779648
-4.062007692307692e-05,0.004062932940899794
-4.061007692307692e-05,-0.003274399618577049
-4.060007692307692e-05,-0.01061173217806223
-4.059007692307692e-05,0.0003942666611638749
-4.058007692307692e-05,-0.00327439961857538
-4.057007692307692e-05,0.007731599220650727
-4.056007692307692e-05,0.0003942666611655432
-4.055007692307692e-05,-0.006943065898319641
-4.054007692307693e-05,0.004062932940903131
-4.053007692307692e-05,-0.01061173217806223
-4.052007692307692e-05,-0.01061173217806223
-4.051007692307692e-05,0.004062932940908135
-4.050007692307692e-05,-0.01061173217806223
-4.049007692307692e-05,-0.01061173217806223
-4.048007692307692e-05,0.01506893178013591
-4.047007692307692e-05,0.004062932940908135
-4.046007692307692e-05,0.0003942666611588699
-4.045007692307692e-05,-0.01428039845780483
-4.044007692307692e-05,0.004062932940908135
-4.043007692307692e-05,0.004062932940908135
-4.042007692307692e-05,0.0003942666611638749
-4.041007692307692e-05,-0.00327439961857538
-4.040007692307692e-05,0.01140026550039332
-4.039007692307692e-05,-0.01428039845780483
-4.038007692307692e-05,0.01506893178013591
-4.037007692307693e-05,-0.0179490647375324
-4.036007692307692e-05,0.007731599220650727
-4.035007692307692e-05,-0.003274399618577049
-4.034007692307692e-05,-0.003274399618577049
-4.033007692307692e-05,-0.006943065898321309
-4.032007692307692e-05,-0.01061173217806223
-4.031007692307692e-05,-0.01061173217806223
-4.030007692307692e-05,-0.003274399618577049
-4.029007692307692e-05,-0.01428039845780483
-4.028007692307692e-05,-0.01428039845780483
-4.027007692307692e-05,0.0003942666611655432
-4.026007692307692e-05,-0.006943065898319641
-4.025007692307692e-05,0.004062932940911472
-4.024007692307692e-05,0.01140026550038998
-4.023007692307692e-05,0.0187375980598785
-4.022007692307692e-05,-0.006943065898319641
-4.021007692307692e-05,0.0003942666611655432
-4.020007692307693e-05,-0.00327439961857538
-4.019007692307692e-05,0.007731599220650727
-4.018007692307692e-05,0.0003942666611655432
-4.017007692307692e-05,0.007731599220650727
-4.016007692307693e-05,-0.003274399618572045
-4.015007692307692e-05,0.01140026550039332
-4.014007692307692e-05,-0.003274399618577049
-4.013007692307692e-05,-0.01061173217806223
-4.012007692307692e-05,0.0003942666611755531
-4.011007692307692e-05,0.0224062643396211
-4.010007692307692e-05,0.007731599220650727
-4.009007692307692e-05,0.01140026550039332
-4.008007692307692e-05,-0.003274399618572044
-4.007007692307692e-05,0.007731599220645724
-4.006007692307692e-05,0.0003942666611655432
-4.005007692307692e-05,-0.003274399618577049
-4.004007692307692e-05,0.0003942666611655432
-4.003007692307693e-05,0.0003942666611655432
-4.002007692307692e-05,0.0003942666611655432
-4.001007692307692e-05,0.0003942666611655432
-4.000007692307692e-05,0.004062932940908135
-3.999007692307693e-05,0.01140026550038998
-3.998007692307692e-05,0.01140026550039332
-3.997007692307692e-05,-0.003274399618577049
-3.996007692307692e-05,-0.01061173217806223
-3.995007692307692e-05,0.0003942666611705482
-3.994007692307692e-05,0.01140026550039332
-3.993007692307692e-05,-0.003274399618577049
-3.992007692307692e-05,-0.003274399618577049
-3.991007692307692e-05,-0.003274399618580386
-3.990007692307692e-05,-0.0106117321780589
-3.989007692307692e-05,-0.01428039845780483
-3.988007692307692e-05,0.004062932940908135
-3.987007692307692e-05,0.0003942666611688798
-3.986007692307692e-05,0.007731599220647391
-3.985007692307692e-05,-0.003274399618577049
-3.984007692307692e-05,0.007731599220650727
-3.983007692307692e-05,0.0003942666611655432
-3.982007692307693e-05,-0.00327439961857538
-3.981007692307692e-05,0.0003942666611655432
-3.980007692307692e-05,0.0003942666611655432
-3.979007692307692e-05,-0.01061173217806223
-3.978007692307692e-05,-0.003274399618565371
-3.977007692307692e-05,0.0224062643396211
-3.976007692307692e-05,0.004062932940908135
-3.975007692307692e-05,-0.003274399618577049
-3.974007692307692e-05,0.004062932940904799
-3.973007692307692e-05,-0.003274399618573712
-3.972007692307692e-05,-0.006943065898319641
-3.971007692307692e-05,-0.01794906473754742
-3.970007692307692e-05,-0.2527437066412018
-3.969007692307692e-05,-0.5352310101811245
-3.968007692307692e-05,0.7194528574907135
-3.967007692307692e-05,0.9909341621916654
-3.966007692307692e-05,0.7671455191273673
-3.965007692307693e-05,1.203716806416537
-3.964007692307692e-05,0.436965553950534
-3.963007692307692e-05,0.4149535562720785
-3.962007692307692e-05,0.4919955481466729
-3.961007692307692e-05,0.5433568760630241
-3.960007692307692e-05,0.4443028865100192
-3.959007692307692e-05,0.3929415585936229
-3.958007692307692e-05,0.418622222551821
-3.957007692307692e-05,0.3122309004392725
-3.956007692307692e-05,0.2828815702013585
-3.955007692307692e-05,0.2645382388026322
-3.954007692307692e-05,0.2278515760052063
-3.953007692307692e-05,0.2021709120470148
-3.952007692307692e-05,0.2168455771659718
-3.951007692307692e-05,0.158146916690097
-3.950007692307692e-05,0.2021709120470081
-3.949007692307692e-05,0.1948335794875229
-3.948007692307693e-05,0.1654842492495955
-3.947007692307692e-05,0.1691529155293248
-3.946007692307692e-05,0.1287975864521563
-3.945007692307692e-05,0.1104542550534433
-3.944007692307692e-05,0.1544782504103427
-3.943007692307692e-05,0.1287975864521563
-3.942007692307692e-05,0.09944825621421553
-3.941007692307692e-05,0.1251289201724137
-3.940007692307692e-05,0.1067855887736957
-3.939007692307692e-05,0.09577958993447294
-3.938007692307692e-05,0.1214602538926711
-3.937007692307692e-05,0.09211092365473035
-3.936007692307692e-05,0.08844225737499109
-3.935007692307692e-05,0.09577958993446961
-3.934007692307692e-05,0.08110492481550256
-3.933007692307692e-05,0.08844225737498776
-3.932007692307692e-05,0.07009892597627479
-3.931007692307693e-05,0.05175559457757017
-3.930007692307692e-05,0.09211092365473035
-3.929007692307692e-05,0.05175559457756183
-3.928007692307692e-05,0.04074959573833405
-3.927007692307692e-05,0.07743625853574329
-3.926007692307692e-05,0.04074959573833405
-3.925007692307692e-05,0.07376759225601738
-3.924007692307692e-05,0.07376759225601738
-3.923007692307692e-05,0.0370809294585998
-3.922007692307692e-05,0.05542426085730442
-3.921007692307692e-05,0.04441826201807665
-3.920007692307692e-05,0.04441826201807665
-3.919007692307692e-05,0.04441826201807665
-3.918007692307692e-05,0.04441826201807665
-3.917007692307692e-05,0.03341226317884887
-3.916007692307692e-05,0.0664302596965322
-3.915007692307692e-05,0.05909292713704702
-3.914007692307693e-05,0.05175559457756517
-3.913007692307692e-05,0.04441826201807665
-3.912007692307692e-05,0.02974359689910628
-3.911007692307692e-05,0.04074959573833405
-3.910007692307693e-05,0.02974359689911128
-3.909007692307692e-05,0.03708092945859146
-3.908007692307692e-05,0.04808692829781924
-3.907007692307692e-05,0.03708092945859146
-3.906007692307692e-05,0.04808692829780756
-3.905007692307692e-05,0.0224062643396211
-3.904007692307692e-05,0.04441826201807665
-3.903007692307692e-05,0.02607493061936369
-3.902007692307692e-05,0.02974359689910127
-3.901007692307692e-05,0.01873759805988351
-3.900007692307692e-05,0.02974359689910628
-3.899007692307692e-05,0.03708092945859146
-3.898007692307692e-05,0.05175559457754348
-3.897007692307693e-05,0.01140026550041167
-3.896007692307692e-05,0.02974359689910628
-3.895007692307692e-05,0.02607493061936369
-3.894007692307692e-05,0.04074959573833405
-3.893007692307693e-05,0.03341226317885221
-3.892007692307692e-05,0.007731599220650727
-3.891007692307692e-05,0.03341226317884887
-3.890007692307692e-05,0.04808692829781924
-3.889007692307692e-05,0.02974359689909794
-3.888007692307692e-05,0.01140026550039332
-3.887007692307692e-05,0.0187375980598785
-3.886007692307692e-05,0.07743625853575997
-3.885007692307692e-05,0.3269055655584748
-3.884007692307692e-05,0.8075008482043173
-3.883007692307692e-05,1.519222106474599
-3.882007692307692e-05,2.230943364744661
-3.881007692307692e-05,2.792249305545527
-3.880007692307692e-05,3.338880581226676
-3.879007692307692e-05,3.731427873159382
-3.878007692307692e-05,3.977228513902135
-3.877007692307692e-05,4.131312497651324
-3.876007692307693e-05,4.19734849068666
-3.875007692307692e-05,4.259715817442315
-3.874007692307692e-05,4.252378484882829
-3.873007692307692e-05,4.270721816281542
-3.872007692307692e-05,4.24870981860309
-3.871007692307692e-05,4.256047151162572
-3.870007692307692e-05,4.212023155805661
-3.869007692307692e-05,4.237703819763859
-3.868007692307692e-05,4.248709818603079
-3.867007692307692e-05,4.230366487204382
-3.866007692307692e-05,4.219360488365146
-3.865007692307692e-05,4.245041152323344
-3.864007692307692e-05,4.259715817442301
-3.863007692307692e-05,4.230366487204387
-3.862007692307692e-05,4.256047151162572
-3.861007692307692e-05,4.248709818603086
-3.860007692307692e-05,4.230366487204374
-3.859007692307693e-05,4.241372486043597
-3.858007692307692e-05,4.252378484882829
-3.857007692307692e-05,4.226697820924631
-3.856007692307692e-05,4.219360488365146
-3.855007692307692e-05,4.245041152323329
-3.854007692307692e-05,4.212023155805661
-3.853007692307692e-05,4.215691822085404
-3.852007692307692e-05,4.19734849068669
-3.851007692307692e-05,4.171667826728485
-3.850007692307692e-05,4.156993161609529
-3.849007692307692e-05,4.120306498812096
-3.848007692307692e-05,4.09829450113364
-3.847007692307692e-05,4.043264506937462
-3.846007692307692e-05,3.95521651622372
-3.845007692307692e-05,3.801132532474491
-3.844007692307692e-05,3.566337890570965
-3.843007692307692e-05,3.250832590513102
-3.842007692307693e-05,2.92432129161616
-3.841007692307692e-05,2.634496655516346
-3.840007692307692e-05,2.38502734849385
-3.839007692307692e-05,2.150232706590324
-3.838007692307692e-05,1.981474057722092
-3.837007692307692e-05,1.820052741413491
-3.836007692307692e-05,1.673306090223788
-3.835007692307692e-05,1.548571436712539
-3.834007692307692e-05,1.423836783201256
-3.833007692307692e-05,1.346794791326697
-3.832007692307692e-05,1.25140946805339
-3.831007692307692e-05,1.189042141297765
-3.830007692307692e-05,1.093656818024435
-3.829007692307692e-05,1.042295490108085
-3.828007692307692e-05,0.976259497072695
-3.827007692307692e-05,0.9175608365968135
-3.826007692307692e-05,0.8698681749601598
-3.825007692307693e-05,0.8258441796032687
-3.824007692307692e-05,0.7891575168058229
-3.823007692307692e-05,0.7524708540083969
-3.822007692307692e-05,0.6974408598122581
-3.821007692307693e-05,0.6680915295743306
-3.820007692307692e-05,0.6350735330566339
-3.819007692307692e-05,0.5983868702592081
-3.818007692307692e-05,0.5580315411820396
-3.817007692307692e-05,0.5250135446643346
-3.816007692307692e-05,0.4773208830277025
-3.815007692307692e-05,0.436965553950534
-3.814007692307692e-05,0.4406342202302766
-3.813007692307692e-05,0.3929415585936179
-3.812007692307692e-05,0.3819355597544001
-3.811007692307692e-05,0.3415802306772266
-3.810007692307692e-05,0.3342428981177414
-3.809007692307692e-05,0.3012249016000581
-3.808007692307693e-05,0.304893567879799
-3.807007692307692e-05,0.2755442376418599
-3.806007692307692e-05,0.2535322399634044
-3.805007692307692e-05,0.2498635736836618
-3.804007692307693e-05,0.2241829097254753
-3.803007692307692e-05,0.2241829097254636
-3.802007692307692e-05,0.2278515760052063
-3.801007692307692e-05,0.2095082446064933
-3.800007692307692e-05,0.1874962469280327
-3.799007692307692e-05,0.17649024808881
-3.798007692307692e-05,0.1654842492495822
-3.797007692307692e-05,0.1618155829698396
-3.796007692307692e-05,0.1508095841306152
-3.795007692307692e-05,0.1581469166900937
-3.794007692307692e-05,0.158146916690097
-3.793007692307692e-05,0.1361349190116415
-3.792007692307692e-05,0.1324662527318922
-3.791007692307693e-05,0.1177915876129352
-3.790007692307692e-05,0.1141229213331859
-3.789007692307692e-05,0.1287975864521563
-3.788007692307692e-05,0.1141229213331859
-3.787007692307693e-05,0.110454255053445
-3.786007692307692e-05,0.1177915876129285
-3.785007692307692e-05,0.1361349190116415
-3.784007692307692e-05,0.1251289201724137
-3.783007692307692e-05,0.1251289201724037
-3.782007692307692e-05,0.1031169224939581
-3.781007692307692e-05,0.09577958993447294
-3.780007692307692e-05,0.07376759225601738
-3.779007692307692e-05,0.07743625853577499
-3.778007692307692e-05,0.1104542550534283
-3.777007692307692e-05,0.08844225737498776
-3.776007692307692e-05,0.09211092365473035
-3.775007692307692e-05,0.07376759225601572
-3.774007692307692e-05,0.07009892597627645
-3.773007692307692e-05,0.0664302596965322
-3.772007692307692e-05,0.07376759225601738
-3.771007692307692e-05,0.07376759225601738
-3.770007692307693e-05,0.06276159341679462
-3.769007692307692e-05,0.05175559457756183
-3.768007692307692e-05,0.07009892597627479
-3.767007692307692e-05,0.05175559457756183
-3.766007692307692e-05,0.04441826201807832
-3.765007692307692e-05,0.04808692829781924
-3.764007692307692e-05,0.06276159341678961
-3.763007692307692e-05,0.05909292713704702
-3.762007692307692e-05,0.02974359689911129
-3.761007692307692e-05,0.04074959573832905
-3.760007692307692e-05,0.04808692829781924
-3.759007692307692e-05,0.04074959573833405
-3.758007692307692e-05,0.02607493061919352
-3.757007692307692e-05,-0.3481290299142106
-3.756007692307692e-05,-0.5278936776217678
-3.755007692307692e-05,1.610938763468164
-3.754007692307692e-05,0.8735368412399025
-3.753007692307693e-05,0.899217505198089
-3.752007692307692e-05,1.196379473857251
-3.751007692307692e-05,0.4993328807061581
-3.750007692307692e-05,1.229397470374934
-3.749007692307692e-05,0.5360195435037575
-3.748007692307692e-05,0.9175608365968135
-3.747007692307692e-05,0.679097528413545
-3.746007692307692e-05,0.5837122051402377
-3.745007692307692e-05,0.8001635156448388
-3.744007692307692e-05,0.3342428981179533
-3.743007692307692e-05,0.6203988679376635
-3.742007692307692e-05,0.4332968876707914
-3.741007692307692e-05,0.4369655539505223
-3.740007692307692e-05,0.4112848899923475
-3.739007692307692e-05,0.2975562353203155
-3.738007692307692e-05,0.3745982271949099
-3.737007692307692e-05,0.257200906243147
-3.736007692307693e-05,0.2902189027608153
-3.735007692307692e-05,0.2425262411241766
-3.734007692307692e-05,0.2755442376418599
-3.733007692307692e-05,0.2498635736836618
-3.732007692307692e-05,0.191164913207817
-3.731007692307692e-05,0.2718755713621174
-3.730007692307692e-05,0.1911649132077803
-3.729007692307692e-05,0.2021709120470081
-3.728007692307692e-05,0.158146916690077
-3.727007692307692e-05,0.1141229213331859
-3.726007692307692e-05,0.1434722515711266
-3.725007692307692e-05,0.06276159341678961
-3.724007692307692e-05,0.06643025969653053
-3.723007692307692e-05,0.06276159341679127
-3.722007692307692e-05,0.04808692829781924
-3.721007692307692e-05,0.0224062643396211
-3.720007692307692e-05,0.02607493061936369
-3.719007692307693e-05,-0.01061173217804556
-3.718007692307692e-05,-0.01061173217806223
-3.717007692307692e-05,-0.003274399618577049
-3.716007692307692e-05,0.0003942666611655432
-3.715007692307693e-05,0.007731599220647391
-3.714007692307692e-05,0.007731599220650727
-3.713007692307692e-05,-0.01428039845780483
-3.712007692307692e-05,0.02974359689910628
-3.711007692307692e-05,-0.003274399618572044
-3.710007692307692e-05,0.007731599220650727
-3.709007692307692e-05,-0.003274399618577049
-3.708007692307692e-05,0.0003942666611655432
-3.707007692307692e-05,0.02240626433961109
-3.706007692307692e-05,0.0003942666611755526
-3.705007692307692e-05,0.0003942666611655432
-3.704007692307692e-05,-0.01061173217806223
-3.703007692307692e-05,0.0187375980598785
-3.702007692307693e-05,0.0003942666611738838
-3.701007692307692e-05,0.007731599220650727
-3.700007692307692e-05,0.004062932940908135
-3.699007692307692e-05,-0.01061173217806223
-3.698007692307693e-05,-0.003274399618580386
-3.697007692307692e-05,0.0003942666611655432
-3.696007692307692e-05,0.004062932940908135
-3.695007692307692e-05,0.01140026550039332
-3.694007692307692e-05,0.004062932940918145
-3.693007692307692e-05,0.02607493061936369
-3.692007692307692e-05,0.004062932940908135
-3.691007692307692e-05,0.0224062643396211
-3.690007692307692e-05,0.01140026550038665
-3.689007692307692e-05,-0.003274399618570374
-3.688007692307692e-05,0.004062932940908135
-3.687007692307692e-05,0.0003942666611655432
-3.686007692307692e-05,0.01140026550039165
-3.685007692307693e-05,0.007731599220652396
-3.684007692307692e-05,0.007731599220650727
-3.683007692307692e-05,0.01506893178013591
-3.682007692307692e-05,0.01506893178013591
-3.681007692307693e-05,0.0003942666611722167
-3.680007692307692e-05,-0.003274399618577049
-3.679007692307692e-05,0.004062932940908135
-3.678007692307692e-05,0.004062932940908135
-3.677007692307692e-05,0.02240626433961443
-3.676007692307692e-05,0.007731599220650727
-3.675007692307692e-05,0.0187375980598785
-3.674007692307692e-05,0.01506893178013591
-3.673007692307692e-05,-0.003274399618577049
-3.672007692307692e-05,-0.003274399618577049
-3.671007692307692e-05,-0.01428039845780483
-3.670007692307692e-05,0.01506893178013591
-3.669007692307692e-05,0.0003942666611705482
-3.668007692307692e-05,0.01140026550038832
-3.667007692307692e-05,0.004062932940908135
-3.666007692307692e-05,0.004062932940908135
-3.665007692307692e-05,0.01506893178013591
-3.664007692307693e-05,0.01140026550039499
-3.663007692307692e-05,0.0003942666611655432
-3.662007692307692e-05,0.0003942666611655432
-3.661007692307692e-05,-0.02161773101729001
-3.660007692307692e-05,0.004062932940908135
-3.659007692307692e-05,0.004062932940908135
-3.658007692307692e-05,0.007731599220650727
-3.657007692307692e-05,0.007731599220650727
-3.656007692307692e-05,0.01140026550039332
-3.655007692307692e-05,0.01140026550039332
-3.654007692307692e-05,0.02607493061936369
-3.653007692307692e-05,-0.006943065898319641
-3.652007692307692e-05,0.01140026550039666
-3.651007692307692e-05,0.01873759805987516
-3.650007692307692e-05,0.0003942666611655432
-3.649007692307692e-05,0.007731599220650727
-3.648007692307692e-05,-0.006943065898319641
-3.647007692307693e-05,-0.01061173217806057
-3.646007692307692e-05,0.004062932940908135
-3.645007692307692e-05,-0.003274399618577049
-3.644007692307692e-05,0.007731599220650727
-3.643007692307692e-05,0.01140026550038665
-3.642007692307692e-05,-0.003274399618577049
-3.641007692307692e-05,0.01140026550039332
