TP2/Mediciones/1127/Vcsnubber-Vref1127V.csv

#Digilent WaveForms Oscilloscope Acquisition
#Device Name: Discovery2
#Serial Number: SN:210321B0E03A
#Date Time: 2021-06-21 14:58:53.034
#Sample rate: 1e+08Hz
#Samples: 8192
#Trigger: Source: Channel 1 Type: Edge Condition: Rising Level: 12 V Hyst.: Auto HoldOff: 100 ns
#Channel 1: Range: 5 V/div Offset: 0 V Attenuation: 1 X
#Power Supplies: ON
#Positive Supply: ON
#Voltage: 1.128 V
#Negative Supply: OFF
#Voltage: -1 V

-4.045631578947369e-05,10.71289980350953
-4.044631578947368e-05,10.66153847559314
-4.043631578947368e-05,10.60650848139698
-4.042631578947369e-05,10.55514715348063
-4.041631578947369e-05,10.49644849300472
-4.040631578947368e-05,10.44508716508833
-4.039631578947368e-05,10.39739450345167
-4.038631578947369e-05,10.33869584297582
-4.037631578947369e-05,10.27632851622017
-4.036631578947369e-05,10.22863585458351
-4.035631578947368e-05,10.18094319294686
-4.034631578947368e-05,10.11857586619121
-4.033631578947369e-05,10.07088320455458
-4.032631578947369e-05,10.03419654175716
-4.031631578947368e-05,9.971829215001531
-4.030631578947368e-05,9.927805219644593
-4.029631578947369e-05,9.869106559168765
-4.028631578947369e-05,9.832419896371313
-4.027631578947368e-05,9.777389902175173
-4.026631578947368e-05,9.726028574258754
-4.025631578947369e-05,9.674667246342404
-4.024631578947369e-05,9.63064325098547
-4.023631578947368e-05,9.575613256789332
-4.022631578947368e-05,9.520583262593192
-4.021631578947369e-05,9.487565266075523
-4.020631578947369e-05,9.414191940480658
-4.019631578947368e-05,9.392179942802201
-4.018631578947368e-05,9.33348128232632
-4.017631578947368e-05,9.296794619528873
-4.016631578947369e-05,9.24910195789224
-4.015631578947369e-05,9.197740629975844
-4.014631578947368e-05,9.153716634618933
-4.013631578947368e-05,9.109692639261997
-4.012631578947369e-05,9.054662645065909
-4.011631578947369e-05,9.003301317149488
-4.010631578947368e-05,8.973951986911546
-4.009631578947368e-05,8.922590658995139
-4.008631578947369e-05,8.900578661316706
-4.007631578947369e-05,8.830874002001584
-4.006631578947368e-05,8.797856005483903
-4.005631578947368e-05,8.739157345008021
-4.004631578947369e-05,8.69880201593087
-4.003631578947369e-05,8.647440688014456
-4.002631578947368e-05,8.596079360098059
-4.001631578947368e-05,8.563061363580376
-4.000631578947368e-05,8.537380699622146
-3.999631578947369e-05,8.467676040307069
-3.998631578947369e-05,8.456670041467842
-3.997631578947368e-05,8.405308713551445
-3.996631578947368e-05,8.353947385635035
-3.995631578947369e-05,8.320929389117365
-3.994631578947369e-05,8.291580058879424
-3.993631578947368e-05,8.221875399564315
-3.992631578947368e-05,8.188857403046619
-3.991631578947369e-05,8.163176739088446
-3.990631578947369e-05,8.11548407745178
-3.989631578947368e-05,8.053116750696155
-3.988631578947368e-05,8.031104753017701
-3.987631578947369e-05,7.983412091381067
-3.986631578947369e-05,7.94672542858362
-3.985631578947368e-05,7.895364100667223
-3.984631578947368e-05,7.869683436709025
-3.983631578947368e-05,7.807316109953391
-3.982631578947369e-05,7.785304112274946
-3.981631578947369e-05,7.766960780876232
-3.980631578947368e-05,7.704593454120609
-3.979631578947368e-05,7.660569458763689
-3.978631578947369e-05,7.642226127364984
-3.977631578947369e-05,7.598202132008073
-3.976631578947368e-05,7.543172137811935
-3.975631578947368e-05,7.499148142455014
-3.974631578947369e-05,7.477136144776577
-3.973631578947369e-05,7.444118148258885
-3.972631578947368e-05,7.403762819181716
-3.971631578947368e-05,7.374413488943775
-3.970631578947369e-05,7.326720827307143
-3.969631578947369e-05,7.271690833110982
-3.968631578947368e-05,7.246010169152784
-3.967631578947368e-05,7.212992172635101
-3.966631578947369e-05,7.179974176117433
-3.965631578947369e-05,7.15429351215922
-3.964631578947369e-05,7.102932184242824
-3.963631578947368e-05,7.073582854004883
-3.962631578947368e-05,7.040564857487182
-3.961631578947369e-05,7.003878194689773
-3.960631578947369e-05,6.98553486329106
-3.959631578947368e-05,6.923167536535436
-3.958631578947368e-05,6.901155538856957
-3.957631578947369e-05,6.849794210940607
-3.956631578947369e-05,6.824113546982386
-3.955631578947368e-05,6.780089551625475
-3.954631578947368e-05,6.772752219065961
-3.953631578947369e-05,6.710384892310395
-3.952631578947369e-05,6.699378893471138
-3.951631578947368e-05,6.655354898114227
-3.950631578947368e-05,6.622336901596544
-3.949631578947369e-05,6.596656237638357
-3.948631578947369e-05,6.556300908561177
-3.947631578947369e-05,6.537957577162464
-3.946631578947368e-05,6.482927582966325
-3.945631578947368e-05,6.460915585287853
-3.944631578947369e-05,6.424228922490443
-3.943631578947369e-05,6.402216924811988
-3.942631578947368e-05,6.369198928294305
-3.941631578947368e-05,6.336180931776605
-3.940631578947369e-05,6.299494268979212
-3.939631578947369e-05,6.255470273622285
-3.938631578947368e-05,6.244464274783057
-3.937631578947368e-05,6.211446278265359
-3.936631578947369e-05,6.178428281747705
-3.935631578947369e-05,6.145410285230007
-3.934631578947368e-05,6.127066953831294
-3.933631578947368e-05,6.086711624754125
-3.932631578947369e-05,6.057362294516198
-3.931631578947369e-05,6.039018963117472
-3.930631578947369e-05,5.987657635201075
-3.929631578947368e-05,5.947302306123907
-3.928631578947368e-05,5.928958974725179
-3.927631578947369e-05,5.895940978207511
-3.926631578947369e-05,5.88126631308854
-3.925631578947368e-05,5.844579650291115
-3.924631578947368e-05,5.829904985172127
-3.923631578947369e-05,5.793218322374734
-3.922631578947369e-05,5.763868992136778
-3.921631578947368e-05,5.719844996779866
-3.920631578947368e-05,5.697832999101403
-3.919631578947369e-05,5.679489667702706
-3.918631578947369e-05,5.642803004905272
-3.917631578947368e-05,5.620791007226816
-3.916631578947368e-05,5.580435678149648
-3.915631578947369e-05,5.554755014191461
-3.914631578947369e-05,5.525405683953509
-3.913631578947368e-05,5.492387687435826
-3.912631578947368e-05,5.47037568975737
-3.911631578947368e-05,5.437357693239683
-3.910631578947369e-05,5.430020360680201
-3.909631578947369e-05,5.374990366484062
-3.908631578947368e-05,5.352978368805607
-3.907631578947368e-05,5.327297704847407
-3.906631578947369e-05,5.323629038567668
-3.905631578947369e-05,5.286942375770241
-3.904631578947368e-05,5.261261711812042
-3.903631578947368e-05,5.235581047853827
-3.902631578947369e-05,5.198894385056435
-3.901631578947369e-05,5.184219719937448
-3.900631578947368e-05,5.147533057140022
-3.899631578947368e-05,5.129189725741309
-3.898631578947369e-05,5.114515060622345
-3.897631578947369e-05,5.063153732705942
-3.896631578947368e-05,5.055816400146457
-3.895631578947368e-05,5.030135736188259
-3.894631578947368e-05,5.008123738509788
-3.893631578947369e-05,4.97510574199212
-3.892631578947369e-05,4.942087745474437
-3.891631578947368e-05,4.923744414075724
-3.890631578947368e-05,4.890726417558025
-3.889631578947369e-05,4.857708421040357
-3.888631578947369e-05,4.850371088480872
-3.887631578947368e-05,4.821021758242932
-3.886631578947368e-05,4.810015759403688
-3.885631578947369e-05,4.776997762886035
-3.884631578947369e-05,4.773329096606277
-3.883631578947368e-05,4.725636434969624
-3.882631578947368e-05,4.710961769850654
-3.881631578947369e-05,4.677943773332985
-3.880631578947369e-05,4.663269108214
-3.879631578947368e-05,4.648594443095029
-3.878631578947368e-05,4.615576446577346
-3.877631578947368e-05,4.59723311517862
-3.876631578947369e-05,4.567883784940692
-3.875631578947369e-05,4.549540453541979
-3.874631578947368e-05,4.516522457024296
-3.873631578947368e-05,4.490841793066091
-3.872631578947369e-05,4.476167127947128
-3.871631578947369e-05,4.439480465149702
-3.870631578947368e-05,4.435811798869959
-3.869631578947368e-05,4.388119137233077
-3.868631578947369e-05,3.885511856908799
-3.867631578947369e-05,2.843610633461675
-3.866631578947368e-05,4.127643831371581
-3.865631578947368e-05,3.951547849943937
-3.864631578947369e-05,4.806347093123572
-3.863631578947369e-05,4.810015759403703
-3.862631578947368e-05,4.428474466310473
-3.861631578947368e-05,4.021252509259046
-3.860631578947369e-05,4.373444472114175
-3.859631578947369e-05,4.120306498812096
-3.858631578947369e-05,4.373444472114335
-3.857631578947368e-05,4.311077145358711
-3.856631578947368e-05,4.175336493008227
-3.855631578947369e-05,4.156993161609522
-3.854631578947369e-05,4.215691822085404
-3.853631578947368e-05,4.039595840657759
-3.852631578947368e-05,4.03592717437805
-3.851631578947369e-05,4.109300499972835
-3.850631578947369e-05,4.013915176699561
-3.849631578947368e-05,3.914861187146511
-3.848631578947368e-05,4.094625834853818
-3.847631578947369e-05,3.918529853426334
-3.846631578947369e-05,3.900186522027541
-3.845631578947368e-05,3.995571845300848
-3.844631578947368e-05,3.881843190628828
-3.843631578947369e-05,3.81213853131375
-3.842631578947369e-05,3.95521651622368
-3.841631578947369e-05,3.797463866194748
-3.840631578947368e-05,3.786457867355521
-3.839631578947368e-05,3.874505858069294
-3.838631578947369e-05,3.768114535956808
-3.837631578947369e-05,3.735096539439124
-3.836631578947368e-05,3.797463866194748
-3.835631578947368e-05,3.698409876641695
-3.834631578947369e-05,3.691072544082217
-3.833631578947369e-05,3.720421874320154
-3.832631578947368e-05,3.636042549886074
-3.831631578947368e-05,3.628705217326604
-3.830631578947369e-05,3.661723213844257
-3.829631578947369e-05,3.584681221969678
-3.828631578947368e-05,3.588349888249421
-3.827631578947368e-05,3.588349888249421
-3.826631578947369e-05,3.544325892892529
-3.825631578947369e-05,3.507639230095084
-3.824631578947369e-05,3.547994559172252
-3.823631578947368e-05,3.496633231255856
-3.822631578947368e-05,3.485627232416613
-3.821631578947369e-05,3.452609235898945
-3.820631578947369e-05,3.463615234738172
-3.819631578947368e-05,3.430597238220489
-3.818631578947368e-05,3.441603237059707
-3.817631578947369e-05,3.419591239381272
-3.816631578947369e-05,3.412253906821776
-3.815631578947368e-05,3.401247907982548
-3.814631578947368e-05,3.390241909143316
-3.813631578947369e-05,3.379235910304098
-3.812631578947369e-05,3.37556724402435
-3.811631578947368e-05,3.386573242863578
-3.810631578947368e-05,3.364561245185123
-3.809631578947369e-05,3.375567244024345
-3.808631578947369e-05,3.379235910304093
-3.807631578947368e-05,3.364561245185123
-3.806631578947368e-05,3.434265904500232
-3.805631578947368e-05,3.514976562654605
-3.804631578947369e-05,3.595687220808906
-3.803631578947369e-05,3.749771204558095
-3.802631578947368e-05,3.911192520866769
-3.801631578947368e-05,4.065276504616
-3.800631578947369e-05,4.160661827889221
-3.799631578947369e-05,4.212023155805661
-3.798631578947368e-05,4.406462468632018
-3.797631578947368e-05,4.765991764046923
-3.796631578947369e-05,5.052147733866585
-3.795631578947369e-05,5.096171729223625
-3.794631578947368e-05,5.246587046693072
-3.793631578947368e-05,5.547417681631964
-3.792631578947369e-05,5.859254315409943
-3.791631578947369e-05,5.972982970082105
-3.790631578947368e-05,6.035350296837729
-3.789631578947368e-05,6.306831601538681
-3.788631578947368e-05,6.633342900435857
-3.787631578947369e-05,6.820444880702643
-3.786631578947369e-05,6.864468876059555
-3.785631578947368e-05,7.124944181921279
-3.784631578947368e-05,7.455124147098177
-3.783631578947369e-05,7.598202132008073
-3.782631578947369e-05,7.678912790162411
-3.781631578947368e-05,7.97607475882156
-3.780631578947368e-05,8.273236727480771
-3.779631578947369e-05,8.405308713551385
-3.778631578947369e-05,8.508031369384238
-3.777631578947368e-05,8.830874002001584
-3.776631578947368e-05,9.084011975303824
-3.775631578947369e-05,9.161053967178383
-3.774631578947369e-05,9.329812616046578
-3.773631578947368e-05,9.674667246342381
-3.772631578947368e-05,9.872775225448482
-3.771631578947369e-05,9.968160548721746
-3.770631578947369e-05,10.19194919178609
-3.769631578947369e-05,10.50378582556421
-3.768631578947368e-05,10.62118314651597
-3.767631578947368e-05,10.74958646630711
-3.766631578947369e-05,11.09077243032302
-3.765631578947369e-05,11.28521174314938
-3.764631578947368e-05,11.36959106758346
-3.763631578947368e-05,11.67042170252247
-3.762631578947369e-05,11.93823434094344
-3.761631578947369e-05,12.00427033397893
-3.760631578947368e-05,12.25373964100142
-3.759631578947368e-05,12.54723294338083
-3.758631578947369e-05,12.63894960037435
-3.757631578947369e-05,12.82238291436152
-3.756631578947368e-05,13.16723754465733
-3.755631578947368e-05,13.28463486560909
-3.754631578947369e-05,13.40936951912028
-3.753631578947369e-05,13.76889881453511
-3.752631578947369e-05,13.88262746920713
-3.751631578947368e-05,14.02203678783735
-3.750631578947368e-05,14.3375420878953
-3.749631578947369e-05,14.52831273444183
-3.748631578947369e-05,14.64204138911385
-3.747631578947368e-05,14.94287202405274
-3.746631578947368e-05,15.12263667176019
-3.745631578947369e-05,15.26204599039029
-3.744631578947369e-05,15.54820196021027
-3.743631578947368e-05,15.74264127303663
-3.742631578947368e-05,15.867375926548
-3.741631578947369e-05,16.13518856496896
-3.740631578947369e-05,16.34063387663467
-3.739631578947368e-05,16.48004319526489
-3.738631578947368e-05,16.72584383600764
-3.737631578947369e-05,16.94963247907184
-3.736631578947369e-05,17.07803579886293
-3.735631578947369e-05,17.32750510588543
-3.734631578947368e-05,17.5402877501105
-3.733631578947368e-05,17.6870344013003
-3.732631578947369e-05,17.90348571180501
-3.731631578947369e-05,18.11993702230983
-3.730631578947368e-05,18.29603300373747
-3.729631578947368e-05,18.49414098284368
-3.728631578947369e-05,18.73260429102673
-3.727631578947369e-05,18.88301960849629
-3.726631578947368e-05,19.0994709190011
-3.725631578947368e-05,19.29391023182754
-3.724631578947369e-05,19.47000621325502
-3.723631578947369e-05,19.68278885748017
-3.722631578947368e-05,19.8919028354255
-3.721631578947368e-05,20.07166748313288
-3.720631578947369e-05,20.26243812967941
-3.719631578947369e-05,20.46421477506534
-3.718631578947368e-05,20.6329734239335
-3.717631578947368e-05,20.82007540420037
-3.716631578947368e-05,21.02185204958629
-3.715631578947369e-05,21.18694203217463
-3.714631578947369e-05,21.37404401244151
-3.713631578947368e-05,21.57215199154761
-3.712631578947368e-05,21.74091064041585
-3.711631578947369e-05,21.93534995324204
-3.710631578947369e-05,22.10043993583054
-3.709631578947368e-05,22.25085525329999
-3.708631578947368e-05,22.40860790332899
-3.707631578947369e-05,22.57002921963752
-3.706631578947369e-05,22.70943853826781
-3.705631578947368e-05,22.87819718713597
-3.704631578947368e-05,23.02127517204593
-3.703631578947369e-05,23.12766649415842
-3.702631578947369e-05,23.26340714650894
-3.701631578947368e-05,23.3808044674607
-3.700631578947368e-05,23.48719578957324
-3.699631578947368e-05,23.59725577796557
-3.698631578947369e-05,23.71465309891728
-3.697631578947369e-05,23.79169509079187
-3.696631578947368e-05,23.86506841638673
-3.695631578947368e-05,23.92743574314238
-3.694631578947369e-05,23.99347173617769
-3.693631578947369e-05,24.05950772921308
-3.692631578947368e-05,24.10720039084974
-3.691631578947368e-05,24.15122438620666
-3.690631578947369e-05,24.1915797152838
-3.689631578947369e-05,24.20992304668253
-3.688631578947368e-05,24.23193504436098
-3.687631578947368e-05,24.24294104320021
-3.686631578947369e-05,24.25761570831918
-3.685631578947369e-05,24.29063370483687
-3.684631578947368e-05,24.30163970367609
-3.683631578947368e-05,24.30163970367609
-3.682631578947368e-05,24.30897703623557
-3.681631578947369e-05,24.29063370483687
-3.680631578947369e-05,24.2759590397179
-3.679631578947368e-05,24.26128437459893
-3.678631578947368e-05,24.2686217071584
-3.677631578947369e-05,24.25394704203944
-3.676631578947369e-05,24.26495304087867
-3.675631578947368e-05,24.23927237692047
-3.674631578947368e-05,24.23560371064055
-3.673631578947369e-05,23.85406241754767
-3.672631578947369e-05,21.97937394859903
-3.671631578947368e-05,24.43004302346709
-3.670631578947368e-05,23.34044913838353
-3.669631578947369e-05,24.62081367001312
-3.668631578947369e-05,23.83205041986904
-3.667631578947368e-05,24.36400703043172
-3.666631578947368e-05,23.87607441522595
-3.665631578947369e-05,24.62815100257284
-3.664631578947369e-05,23.83571908614879
-3.663631578947369e-05,24.47773568510374
-3.662631578947368e-05,24.12554372224845
-3.661631578947368e-05,24.34199503275311
-3.660631578947369e-05,24.00814640129669
-3.659631578947369e-05,24.44471768858606
-3.658631578947368e-05,24.03749573153463
-3.657631578947368e-05,24.22826637808122
-3.656631578947369e-05,24.17323638388513
-3.655631578947369e-05,24.20258571412304
-3.654631578947368e-05,24.0264897326954
-3.653631578947368e-05,24.30163970367609
-3.652631578947369e-05,24.04116439781449
-3.651631578947369e-05,24.11086905712948
-3.650631578947368e-05,24.17690505016484
-3.649631578947368e-05,24.11086905712948
-3.648631578947369e-05,24.07418239433207
-3.647631578947369e-05,24.26862170715841
-3.646631578947369e-05,24.10720039084974
-3.645631578947368e-05,24.15489305248639
-3.644631578947368e-05,24.21359171296223
-3.643631578947369e-05,24.12187505596871
-3.642631578947369e-05,24.09252572573077
-3.641631578947368e-05,24.16223038504588
-3.640631578947368e-05,24.04483306409411
-3.639631578947369e-05,24.04483306409411
-3.638631578947369e-05,24.05583906293334
-3.637631578947368e-05,24.0008090687372
-3.636631578947368e-05,23.97879707105875
-3.635631578947369e-05,23.97879707105875
-3.634631578947369e-05,23.92743574314235
-3.633631578947368e-05,23.92376707686261
-3.632631578947368e-05,23.93844174198158
-3.631631578947369e-05,23.91642974430313
-3.630631578947369e-05,23.90175507918415
-3.629631578947369e-05,23.89074908034492
-3.628631578947368e-05,23.89808641290441
-3.627631578947368e-05,23.86139975010699
-3.626631578947369e-05,23.8797430815057
-3.625631578947369e-05,23.87607441522595
-3.624631578947368e-05,23.84305641870827
-3.623631578947368e-05,23.85773108382723
-3.622631578947369e-05,23.83205041986905
-3.621631578947369e-05,23.83571908614879
-3.620631578947368e-05,23.82471308730956
-3.619631578947368e-05,23.82838175358928
-3.618631578947369e-05,23.79536375707163
-3.617631578947369e-05,23.83571908614879
-3.616631578947368e-05,23.80636975591084
-3.615631578947368e-05,23.78802642451213
-3.614631578947369e-05,23.81370708847032
-3.613631578947369e-05,23.79169509079187
-3.612631578947368e-05,23.75867709427419
-3.611631578947368e-05,23.78802642451213
-3.610631578947368e-05,23.78068909195263
-3.609631578947369e-05,23.75500842799445
-3.608631578947369e-05,23.75500842799445
-3.607631578947368e-05,23.74400242915522
-3.606631578947368e-05,23.74400242915522
-3.605631578947369e-05,23.74033376287548
-3.604631578947369e-05,23.73666509659574
-3.603631578947368e-05,23.71832176519702
-3.602631578947368e-05,23.71465309891728
-3.601631578947369e-05,23.71098443263754
-3.600631578947369e-05,23.69630976751857
-3.599631578947368e-05,23.68897243495908
-3.598631578947368e-05,23.67062910356037
-3.597631578947369e-05,23.67429776984011
-3.596631578947369e-05,23.6816351023996
-3.595631578947368e-05,23.66696043728063
-3.594631578947368e-05,23.67062910356037
-3.593631578947368e-05,23.63761110704268
-3.592631578947369e-05,23.62660510820346
-3.591631578947369e-05,23.61926777564397
-3.590631578947368e-05,23.62660510820346
-3.589631578947368e-05,23.62293644192371
-3.588631578947369e-05,23.60826177680475
-3.587631578947369e-05,23.61193044308449
-3.586631578947368e-05,23.61193044308449
-3.585631578947368e-05,23.60092444424525
-3.584631578947369e-05,23.59358711168578
-3.583631578947369e-05,23.58624977912629
-3.582631578947368e-05,23.58258111284655
-3.581631578947368e-05,23.58258111284655
-3.580631578947369e-05,23.56790644772758
-3.579631578947369e-05,23.56056911516809
-3.578631578947368e-05,23.55690044888835
-3.577631578947368e-05,23.55323178260861
-3.576631578947368e-05,23.53121978493015
-3.575631578947369e-05,23.53855711748963
-3.574631578947369e-05,23.52388245237066
-3.573631578947368e-05,23.51654511981118
-3.572631578947368e-05,23.52021378609091
-3.571631578947369e-05,23.50187045469221
-3.570631578947369e-05,23.50553912097195
-3.569631578947368e-05,23.4835271232935
-3.568631578947368e-05,23.50553912097194
