TP2/Mediciones/1127/Vcsnubber-Vref1127V.csv

#Digilent WaveForms Oscilloscope Acquisition
#Device Name: Discovery2
#Serial Number: SN:210321B0E03A
#Date Time: 2021-06-22 11:22:26.826
#Sample rate: 5e+07Hz
#Samples: 8192
#Trigger: Source: Channel 1 Type: Edge Condition: Rising Level: 24 V Hyst.: Auto HoldOff: 100 ns
#Channel 1: Range: 5 V/div Offset: -6 V Attenuation: 1 X
#Power Supplies: ON
#Positive Supply: ON
#Voltage: 1.128 V
#Negative Supply: OFF
#Voltage: -1 V

-8.191166666666666e-05,6.229390424124214
-8.189166666666666e-05,22.59164203177617
-8.187166666666666e-05,22.59164203177617
-8.185166666666667e-05,22.59164203177617
-8.183166666666666e-05,22.56963003409772
-8.181166666666666e-05,22.56229270153823
-8.179166666666666e-05,22.54028070385978
-8.177166666666667e-05,22.52927470502055
-8.175166666666667e-05,22.51460003990158
-8.173166666666666e-05,22.50726270734209
-8.171166666666666e-05,22.49258804222313
-8.169166666666666e-05,22.48891937594338
-8.167166666666667e-05,22.47424471082441
-8.165166666666666e-05,22.45957004570544
-8.163166666666666e-05,22.45223271314595
-8.161166666666666e-05,22.43388938174724
-8.159166666666667e-05,22.42655204918776
-8.157166666666666e-05,22.4045400515093
-8.155166666666666e-05,22.4045400515093
-8.153166666666666e-05,22.37519072127136
-8.151166666666667e-05,22.37152205499162
-8.149166666666666e-05,22.34951005731316
-8.147166666666666e-05,22.33116672591445
-8.145166666666666e-05,22.33116672591445
-8.143166666666667e-05,22.32016072707522
-8.141166666666667e-05,22.29814872939676
-8.139166666666666e-05,22.28714273055754
-8.137166666666666e-05,22.26146206659934
-8.135166666666666e-05,22.25045606775977
-8.133166666666667e-05,21.50204814669262
-8.131166666666666e-05,21.88725810606559
-8.129166666666666e-05,22.60998536317489
-8.127166666666666e-05,22.22477540380193
-8.125166666666667e-05,22.26146206659933
-8.123166666666666e-05,22.33116672591445
-8.121166666666666e-05,22.2834740642778
-8.119166666666666e-05,22.20276340612345
-8.117166666666667e-05,22.17341407588553
-8.115166666666666e-05,22.16240807704629
-8.113166666666666e-05,22.09637208401092
-8.111166666666666e-05,22.04501075609453
-8.109166666666667e-05,22.04134208981478
-8.107166666666666e-05,22.01199275957684
-8.105166666666666e-05,21.96796876421993
-8.103166666666666e-05,21.94962543282122
-8.101166666666666e-05,21.93128210142249
-8.099166666666667e-05,21.89092677234534
-8.097166666666666e-05,21.8615774421074
-8.095166666666666e-05,21.82855944558971
-8.093166666666666e-05,21.76619211883408
-8.091166666666667e-05,21.74418012115564
-8.089166666666666e-05,21.69648745951898
-8.087166666666666e-05,21.65613213044181
-8.085166666666666e-05,21.60110213624566
-8.083166666666667e-05,21.56441547344827
-8.081166666666666e-05,21.5167228118116
-8.079166666666666e-05,21.46903015017494
-8.077166666666666e-05,21.42133748853828
-8.075166666666667e-05,21.36997616062191
-8.073166666666666e-05,21.31127750014601
-8.071166666666666e-05,21.25991617222962
-8.069166666666666e-05,21.20488617803348
-8.067166666666666e-05,21.13885018499808
-8.065166666666667e-05,21.09115752336145
-8.063166666666666e-05,21.03612752916531
-8.061166666666666e-05,20.98109753496918
-8.059166666666666e-05,20.926067540773
-8.057166666666667e-05,20.85636288145793
-8.055166666666666e-05,20.79032688842256
-8.053166666666666e-05,20.73162822794668
-8.051166666666666e-05,20.68026690003025
-8.049166666666667e-05,20.61789957327469
-8.047166666666666e-05,20.55553224651904
-8.045166666666666e-05,20.48215892092418
-8.043166666666666e-05,20.43079759300779
-8.041166666666667e-05,20.36109293369271
-8.039166666666666e-05,20.29505694065731
-8.037166666666666e-05,20.21434628250297
-8.035166666666666e-05,20.15931628830683
-8.033166666666667e-05,20.09694896155124
-8.031166666666667e-05,20.02357563595636
-8.029166666666666e-05,19.95020231036151
-8.027166666666666e-05,19.89884098244511
-8.025166666666666e-05,19.83280498940971
-8.023166666666667e-05,19.75943166381489
-8.021166666666666e-05,19.6823896719403
-8.019166666666666e-05,19.61635367890493
-8.017166666666666e-05,19.55765501842902
-8.015166666666667e-05,19.48061302655449
-8.013166666666666e-05,19.42191436607857
-8.011166666666666e-05,19.33753504164449
-8.009166666666666e-05,19.28617371372805
-8.007166666666667e-05,19.19445705673458
-8.005166666666666e-05,19.13575839625865
-8.003166666666666e-05,19.06605373694354
-8.001166666666666e-05,18.98901174506895
-7.999166666666667e-05,18.91563841947413
-7.997166666666667e-05,18.84593376015899
-7.995166666666666e-05,18.77989776712362
-7.993166666666666e-05,18.71386177408825
-7.991166666666666e-05,18.64415711477311
-7.989166666666667e-05,18.57078378917829
-7.987166666666666e-05,18.50107912986319
-7.985166666666666e-05,18.42403713798859
-7.983166666666666e-05,18.35066381239371
-7.981166666666667e-05,18.28829648563814
-7.979166666666666e-05,18.21492316004326
-7.977166666666666e-05,18.1488871670079
-7.975166666666666e-05,18.07918250769275
-7.973166666666667e-05,17.99847184953848
-7.971166666666666e-05,17.94344185534231
-7.969166666666666e-05,17.86273119718797
-7.967166666666666e-05,17.79669520415261
-7.965166666666667e-05,17.7159845459983
-7.963166666666667e-05,17.66829188436162
-7.961166666666666e-05,17.59491855876676
-7.959166666666666e-05,17.5288825657314
-7.957166666666666e-05,17.45184057385678
-7.955166666666667e-05,17.40047924594041
-7.953166666666666e-05,17.32710592034555
-7.951166666666666e-05,17.2537325947507
-7.949166666666666e-05,17.17302193659635
-7.947166666666667e-05,17.13266660751922
-7.945166666666666e-05,17.04461861680537
-7.943166666666666e-05,16.99692595516872
-7.941166666666666e-05,16.9345586284126
-7.939166666666667e-05,15.83762741077056
-7.937166666666666e-05,16.58603533183755
-7.935166666666666e-05,16.77313731210442
-7.933166666666666e-05,16.64840265859318
-7.931166666666667e-05,16.56035466787939
-7.929166666666667e-05,16.64473399231343
-7.927166666666666e-05,16.60437866323626
-7.925166666666666e-05,16.39526468529094
-7.923166666666666e-05,16.34023469109478
-7.921166666666667e-05,16.29621069573789
-7.919166666666666e-05,16.14212671198869
-7.917166666666666e-05,16.00271739335848
-7.915166666666666e-05,15.94401873288253
-7.913166666666667e-05,15.80460941425244
-7.911166666666666e-05,15.61383876770576
-7.909166666666666e-05,15.43040545371863
-7.907166666666666e-05,15.24697213973141
-7.905166666666667e-05,15.04519549434576
-7.903166666666666e-05,14.8764368454775
-7.901166666666666e-05,14.71868419544857
-7.899166666666666e-05,14.56093154541964
-7.897166666666667e-05,14.41785356050974
-7.895166666666666e-05,14.25276357792126
-7.893166666666666e-05,14.11702292557079
-7.891166666666666e-05,13.9629389418216
-7.889166666666666e-05,13.82719828947105
-7.887166666666667e-05,13.67678297200167
-7.885166666666666e-05,13.52636765453223
-7.883166666666666e-05,13.39062700218175
-7.881166666666666e-05,13.24388035099199
-7.879166666666667e-05,13.11180836492132
-7.877166666666666e-05,12.97606771257084
-7.875166666666666e-05,12.85500172533933
-7.873166666666666e-05,12.71926107298879
-7.871166666666667e-05,12.57618308807896
-7.869166666666666e-05,12.45511710084739
-7.867166666666666e-05,12.34138844617537
-7.865166666666666e-05,12.2056477938249
-7.863166666666667e-05,12.08458180659345
-7.861166666666666e-05,11.94517248796317
-7.859166666666666e-05,11.83878116585064
-7.857166666666666e-05,11.71771517861913
-7.855166666666666e-05,11.60031785766731
-7.853166666666667e-05,11.47925187043586
-7.851166666666666e-05,11.35818588320436
-7.849166666666666e-05,11.24812589481208
-7.847166666666666e-05,11.13439724014001
-7.845166666666667e-05,11.0169999191883
-7.843166666666666e-05,10.90693993079602
-7.841166666666666e-05,10.80054860868348
-7.839166666666666e-05,10.68681995401142
-7.837166666666667e-05,10.58042863189898
-7.835166666666666e-05,10.46669997722691
-7.833166666666666e-05,10.36764598767386
-7.831166666666666e-05,10.26125466556132
-7.829166666666667e-05,10.14752601088935
-7.827166666666666e-05,10.05947802017548
-7.825166666666666e-05,9.960424030622431
-7.823166666666666e-05,9.839358043390924
-7.821166666666667e-05,9.751310052677143
-7.819166666666667e-05,9.659593395683537
-7.817166666666666e-05,9.567876738689971
-7.815166666666666e-05,9.457816750297695
-7.813166666666666e-05,9.377106092143315
-7.811166666666667e-05,9.28172076887005
-7.809166666666666e-05,9.178998113037258
-7.807166666666666e-05,9.094618788603178
-7.805166666666666e-05,9.002902131609568
-7.803166666666667e-05,8.903848142056608
-7.801166666666666e-05,8.819468817622484
-7.799166666666666e-05,8.724083494349177
-7.797166666666666e-05,8.63603550363532
-7.795166666666667e-05,8.562662178040537
-7.793166666666666e-05,8.463608188487452
-7.791166666666666e-05,8.382897530333114
-7.789166666666666e-05,8.30585553845852
-7.787166666666667e-05,8.214138881464997
-7.785166666666667e-05,8.140765555870104
-7.783166666666666e-05,8.052717565156282
-7.781166666666666e-05,7.972006907001945
-7.779166666666666e-05,7.883958916288094
-7.777166666666667e-05,7.821591589532499
-7.775166666666666e-05,7.737212265098419
-7.773166666666666e-05,7.660170273223825
-7.771166666666666e-05,7.586796947628936
-7.769166666666667e-05,7.506086289474672
-7.767166666666666e-05,7.429044297600042
-7.765166666666666e-05,7.352002305725447
-7.763166666666666e-05,7.285966312690042
-7.761166666666667e-05,7.201586988256039
-7.759166666666666e-05,7.139219661500377
-7.757166666666666e-05,7.043834338227069
-7.755166666666666e-05,6.992473010310673
-7.753166666666667e-05,6.933774349834818
-7.751166666666667e-05,6.853063691680454
-7.749166666666666e-05,6.783359032365345
-7.747166666666666e-05,6.713654373050236
-7.745166666666666e-05,6.643949713735098
-7.743166666666667e-05,6.581582386979503
-7.741166666666666e-05,6.522883726503621
-7.739166666666666e-05,6.464185066027739
-7.737166666666666e-05,6.379805741593639
-7.735166666666667e-05,6.332113079957027
-7.733166666666666e-05,6.26607708692164
-7.731166666666666e-05,6.200041093886273
-7.729166666666666e-05,6.141342433410362
-7.727166666666667e-05,6.075306440375055
-7.725166666666666e-05,6.023945112458629
-7.723166666666666e-05,5.95424045314352
-7.721166666666666e-05,5.910216457786608
-7.719166666666667e-05,5.833174465912048
-7.717166666666666e-05,5.781813137995617
-7.715166666666666e-05,5.723114477519736
-7.713166666666666e-05,5.664415817043855
-7.711166666666666e-05,5.616723155407168
-7.709166666666667e-05,5.547018496092091
-7.707166666666666e-05,5.502994500735181
-7.705166666666666e-05,5.436958507699813
-7.703166666666666e-05,5.378259847223912
-7.701166666666667e-05,5.334235851867041
-7.699166666666666e-05,5.275537191391139
-7.697166666666666e-05,5.216838530915259
-7.695166666666666e-05,5.172814535558325
-7.693166666666667e-05,5.125121873921715
-7.691166666666666e-05,5.070091879725554
-7.689166666666666e-05,5.018730551809158
-7.687166666666666e-05,4.960031891333276
-7.685166666666667e-05,4.927013894815609
-7.683166666666666e-05,4.87932123317894
-7.681166666666666e-05,4.831628571542286
-7.679166666666666e-05,4.776598577346148
-7.677166666666666e-05,4.728905915709468
-7.675166666666667e-05,4.673875921513355
-7.673166666666666e-05,4.637189258715929
-7.671166666666666e-05,4.589496597079275
-7.669166666666666e-05,4.538135269162809
-7.667166666666667e-05,4.38405128541369
-7.665166666666666e-05,3.525583375953923
-7.663166666666666e-05,4.501448606365453
-7.661166666666666e-05,4.637189258715802
-7.659166666666667e-05,4.358370621455619
-7.657166666666666e-05,4.41340061565163
-7.655166666666666e-05,4.259316631902442
-7.653166666666666e-05,4.240973300503729
-7.651166666666667e-05,4.211623970265801
-7.649166666666666e-05,4.119907313272224
-7.647166666666666e-05,4.046533987677371
-7.645166666666666e-05,4.064877319076084
-7.643166666666667e-05,4.013515991159711
-7.641166666666667e-05,3.936473999285094
-7.639166666666666e-05,3.910793335326896
-7.637166666666666e-05,3.896118670207925
-7.635166666666666e-05,3.819076678333317
-7.633166666666667e-05,3.78972734809539
-7.631166666666666e-05,3.767715350416935
-7.629166666666666e-05,3.720022688780281
-7.627166666666666e-05,3.668661360863876
-7.625166666666667e-05,3.65031802946518
-7.623166666666666e-05,3.620968699227231
-7.621166666666666e-05,3.569607371310834
-7.619166666666666e-05,3.532920708513409
-7.617166666666667e-05,3.521914709674186
-7.615166666666666e-05,3.503571378275468
-7.613166666666666e-05,3.474222048037527
-7.611166666666666e-05,3.466884715478042
-7.609166666666667e-05,3.45954738291856
-7.607166666666667e-05,3.448541384079329
-7.605166666666666e-05,3.507240044555211
-7.603166666666666e-05,3.694342024822082
-7.601166666666666e-05,4.002509992320567
-7.599166666666667e-05,4.237304634223986
-7.597166666666666e-05,4.508785938924938
-7.595166666666666e-05,5.103109876243238
-7.593166666666666e-05,5.330567185587546
-7.591166666666667e-05,5.917553790345826
-7.589166666666666e-05,6.122999102011678
-7.587166666666666e-05,6.695311041651523
-7.585166666666666e-05,6.944780348674283
-7.583166666666667e-05,7.524429620873085
-7.581166666666666e-05,7.773898927895845
-7.579166666666666e-05,8.316861537297749
-7.577166666666666e-05,8.592011508278443
-7.575166666666667e-05,9.109293453721914
-7.573166666666667e-05,9.428467420059754
-7.571166666666666e-05,9.887050705027578
-7.569166666666666e-05,10.28693532951952
-7.567166666666666e-05,10.65380195749399
-7.565166666666667e-05,11.12705990758057
-7.563166666666666e-05,11.43889654135869
-7.561166666666666e-05,11.91582315772523
-7.559166666666666e-05,12.29002711825915
-7.557166666666667e-05,12.67156841135203
-7.555166666666666e-05,13.12648303004029
-7.553166666666666e-05,13.49334965801455
-7.551166666666666e-05,13.86388495226876
-7.549166666666667e-05,14.31513090467668
-7.547166666666666e-05,14.70034086404986
-7.545166666666666e-05,15.06720749202412
-7.543166666666666e-05,15.496441446754
-7.541166666666667e-05,15.86330807472809
-7.539166666666667e-05,16.25952403294046
-7.537166666666666e-05,16.66307732371214
-7.535166666666666e-05,17.05195594936486
-7.533166666666666e-05,17.43349724245827
-7.531166666666667e-05,17.83338186695003
-7.529166666666666e-05,18.22226049260275
-7.527166666666666e-05,18.589127120577
-7.525166666666666e-05,18.97066841367041
-7.523166666666667e-05,19.35954703932277
-7.521166666666666e-05,19.73008233357695
-7.519166666666666e-05,20.08961162899173
-7.517166666666666e-05,20.47482158836486
-7.515166666666667e-05,20.84535688261854
-7.513166666666666e-05,21.19388017919425
-7.511166666666666e-05,21.56074680716851
-7.509166666666666e-05,21.92761343514277
-7.507166666666667e-05,22.24311873520048
-7.505166666666666e-05,22.551286702699
-7.503166666666666e-05,22.85578600391764
-7.501166666666666e-05,23.12359864233885
-7.499166666666666e-05,23.36206195052221
-7.497166666666667e-05,23.57484459474719
-7.495166666666666e-05,23.76194657501406
-7.493166666666666e-05,23.93437389016196
-7.491166666666666e-05,24.05177121111377
-7.489166666666667e-05,24.14715653438699
-7.487166666666666e-05,24.23520452510085
-7.485166666666666e-05,24.27189118789828
-7.483166666666666e-05,24.27922852045778
-7.481166666666667e-05,24.31958384953492
-7.479166666666666e-05,24.31591518325519
-7.477166666666666e-05,24.29757185185648
-7.475166666666666e-05,24.28656585301725
-7.473166666666667e-05,24.27555985417803
-7.471166666666666e-05,24.25721652277931
-7.469166666666666e-05,22.92549066323275
-7.467166666666666e-05,23.94537988900119
-7.465166666666666e-05,24.14348786810737
-7.463166666666667e-05,24.31224651697545
-7.461166666666666e-05,24.23520452510085
-7.459166666666666e-05,24.22786719254137
-7.457166666666666e-05,24.28656585301722
-7.455166666666667e-05,24.22786719254137
-7.453166666666666e-05,24.14348786810729
-7.451166666666666e-05,24.17283719834523
-7.449166666666666e-05,24.16183119950599
-7.447166666666667e-05,24.12514453670859
-7.445166666666666e-05,24.161831199506
-7.443166666666666e-05,24.15816253322626
-7.441166666666666e-05,24.10313253903012
-7.439166666666667e-05,24.02609054715556
-7.437166666666666e-05,24.00040988319733
-7.435166666666666e-05,23.96739188667965
-7.433166666666666e-05,23.91236189248351
-7.431166666666667e-05,23.8940185610848
-7.429166666666667e-05,23.89401856108479
-7.427166666666666e-05,23.86466923084685
-7.425166666666666e-05,23.84632589944814
-7.423166666666666e-05,23.83165123432917
-7.421166666666667e-05,23.82798256804943
-7.419166666666666e-05,23.791295905252
-7.417166666666666e-05,23.78762723897226
-7.415166666666666e-05,23.76194657501405
-7.413166666666667e-05,23.73626591105587
-7.411166666666666e-05,23.72525991221664
-7.409166666666666e-05,23.70324791453818
-7.407166666666666e-05,23.68490458313946
-7.405166666666667e-05,23.67389858430024
-7.403166666666666e-05,23.65922391918127
-7.401166666666666e-05,23.62987458894333
-7.399166666666666e-05,23.62620592266359
-7.397166666666667e-05,23.59685659242566
-7.395166666666667e-05,23.57484459474719
-7.393166666666666e-05,23.56383859590796
-7.391166666666666e-05,23.54549526450925
-7.389166666666666e-05,23.53448926567
-7.387166666666667e-05,23.50513993543208
-7.385166666666666e-05,23.49046527031311
-7.383166666666666e-05,23.47579060519414
-7.381166666666666e-05,23.47212193891439
-7.379166666666667e-05,23.45744727379543
-7.377166666666666e-05,23.44277260867646
-7.375166666666666e-05,23.41342327843851
-7.373166666666666e-05,23.39141128076006
-7.371166666666667e-05,23.38774261448032
-7.369166666666666e-05,23.36573061680186
-7.367166666666666e-05,23.34004995284366
-7.365166666666666e-05,23.34004995284366
-7.363166666666667e-05,23.31436928888548
-7.361166666666667e-05,23.30336329004624
-7.359166666666666e-05,23.28501995864752
-7.357166666666666e-05,23.28501995864752
-7.355166666666666e-05,23.26300796096906
-7.353166666666667e-05,23.23732729701087
-7.351166666666666e-05,23.22632129817164
-7.349166666666666e-05,23.21531529933242
-7.347166666666666e-05,23.20064063421343
-7.345166666666667e-05,23.178628636535
-7.343166666666666e-05,23.16762263769576
-7.341166666666666e-05,23.15661663885653
-7.339166666666666e-05,23.14194197373756
-7.337166666666667e-05,23.1272673086186
-7.335166666666666e-05,23.10525531094014
-7.333166666666666e-05,23.10892397721988
-7.331166666666666e-05,23.08324331326168
-7.329166666666667e-05,23.06489998186298
-7.327166666666667e-05,23.06856864814271
-7.325166666666666e-05,23.05756264930348
-7.323166666666666e-05,23.03555065162503
-7.321166666666666e-05,23.02821331906553
-7.319166666666667e-05,23.00620132138709
-7.317166666666666e-05,22.99519532254786
-7.315166666666666e-05,22.98785798998838
-7.313166666666666e-05,22.96584599230991
-7.311166666666667e-05,22.94750266091121
-7.309166666666666e-05,22.93649666207198
-7.307166666666666e-05,22.92549066323275
-7.305166666666666e-05,22.91815333067326
-7.303166666666667e-05,22.89980999927456
-7.301166666666666e-05,22.88513533415558
-7.299166666666666e-05,22.87412933531635
-7.297166666666666e-05,22.8777980015961
-7.295166666666667e-05,22.85578600391765
-7.293166666666666e-05,22.84111133879867
-7.291166666666666e-05,22.8264366736797
-7.289166666666666e-05,22.81909934112021
-7.287166666666666e-05,22.81176200856072
-7.285166666666667e-05,22.8007560097215
-7.283166666666666e-05,22.77507534576331
-7.281166666666666e-05,22.75673201436459
-7.279166666666666e-05,22.75673201436459
-7.277166666666667e-05,22.74572601552536
-7.275166666666666e-05,22.72004535156717
-7.273166666666666e-05,22.71270801900768
-7.271166666666666e-05,22.70903935272792
-7.269166666666667e-05,22.68702735504949
-7.267166666666666e-05,22.68335868876974
-7.265166666666666e-05,22.66868402365077
-7.263166666666666e-05,22.65400935853179
-7.261166666666667e-05,22.62832869457361
-7.259166666666666e-05,22.63566602713308
-7.257166666666666e-05,22.63199736085334
-7.255166666666666e-05,22.60998536317489
-7.253166666666666e-05,22.60998536317488
-7.251166666666667e-05,22.6026480306154
-7.249166666666666e-05,22.56963003409772
-7.247166666666666e-05,22.551286702699
-7.245166666666666e-05,22.551286702699
-7.243166666666667e-05,22.54761803641927
-7.241166666666666e-05,22.53294337130029
-7.239166666666666e-05,22.52193737246107
-7.237166666666666e-05,22.51460003990157
