TP2/Mediciones/1127/Vds-Vref1127V.csv

#Digilent WaveForms Oscilloscope Acquisition
#Device Name: Discovery2
#Serial Number: SN:210321B0E03A
#Date Time: 2021-06-22 11:05:43.917
#Sample rate: 1e+08Hz
#Samples: 8192
#Trigger: Source: Channel 1 Type: Edge Condition: Rising Level: 2.92 V Hyst.: Auto HoldOff: 100 ns
#Channel 1: Range: 5 V/div Offset: 0 V Attenuation: 1 X
#Power Supplies: ON
#Positive Supply: ON
#Voltage: 1.128 V
#Negative Supply: OFF
#Voltage: -1 V

-4.095885714285714e-05,10.88899578493718
-4.094885714285714e-05,10.85230912213975
-4.093885714285714e-05,10.84130312330051
-4.092885714285714e-05,10.81562245934234
-4.091885714285714e-05,10.8046164605031
-4.090885714285714e-05,10.77526713026516
-4.089885714285714e-05,10.7532551325867
-4.088885714285714e-05,10.52212915696303
-4.087885714285714e-05,8.871229331078753
-4.086885714285714e-05,10.41940650113013
-4.085885714285714e-05,10.63952647791468
-4.084885714285714e-05,10.61751448023626
-4.083885714285714e-05,10.69822513839056
-4.082885714285714e-05,10.67988180699185
-4.081885714285714e-05,10.85230912213975
-4.080885714285714e-05,10.72390580234885
-4.079885714285714e-05,10.91467644889529
-4.078885714285714e-05,10.84130312330053
-4.077885714285714e-05,10.84864045586001
-4.076885714285714e-05,10.92568244773441
-4.075885714285714e-05,10.50745449184414
-4.074885714285714e-05,8.904247327596437
-4.073885714285714e-05,6.996540862130288
-4.072885714285714e-05,5.529074350233252
-4.071885714285714e-05,4.564215118661388
-4.070885714285714e-05,3.804801198754233
-4.069885714285714e-05,3.386573242863578
-4.068885714285714e-05,2.792249305545278
-4.067885714285714e-05,2.469406672927715
-4.066885714285714e-05,1.996148722841136
-4.065885714285714e-05,1.588926765789708
-4.064885714285714e-05,1.324782793648241
-4.063885714285714e-05,0.8221755133234245
-4.062885714285714e-05,0.6424108656162009
-4.061885714285714e-05,0.2755442376418599
-4.060885714285714e-05,0.03708092945859146
-4.059885714285714e-05,0.1104542550533566
-4.058885714285714e-05,-0.08031639149308473
-4.057885714285714e-05,0.01140026550039332
-4.056885714285714e-05,-0.04362972869574556
-4.055885714285714e-05,-0.102328389171627
-4.054885714285714e-05,-0.03262372985654949
-4.053885714285714e-05,-0.1390150519690529
-4.052885714285714e-05,-0.1059970554513696
-4.051885714285714e-05,-0.1353463856893104
-4.050885714285714e-05,-0.1610270496475001
-4.049885714285714e-05,-0.1426837182487956
-4.048885714285714e-05,-0.1940450461651918
-4.047885714285714e-05,-0.1830390473259641
-4.046885714285714e-05,-0.1903763798854459
-4.045885714285714e-05,-0.1830390473259641
-4.044885714285714e-05,-0.2050510450044196
-4.043885714285714e-05,-0.1977137124449344
-4.042885714285714e-05,-0.2050510450044229
-4.041885714285714e-05,-0.2123883775639015
-4.040885714285714e-05,-0.2050510450044196
-4.039885714285714e-05,-0.2233943764031326
-4.038885714285714e-05,-0.2160570438436474
-4.037885714285714e-05,-0.1977137124449428
-4.036885714285714e-05,-0.2123883775639048
-4.035885714285714e-05,-0.2123883775639048
-4.034885714285714e-05,-0.21972571012339
-4.033885714285714e-05,-0.2344003752423453
-4.032885714285714e-05,-0.201382378724677
-4.031885714285714e-05,-0.2160570438436474
-4.030885714285714e-05,-0.2307317089626177
-4.029885714285714e-05,-0.2380690415220963
-4.028885714285714e-05,-0.2233943764031326
-4.027885714285714e-05,-0.2454063740815881
-4.026885714285714e-05,-0.2270630426828752
-4.025885714285714e-05,-0.2454063740815881
-4.024885714285714e-05,-0.2454063740815881
-4.023885714285714e-05,-0.2307317089626177
-4.022885714285714e-05,-0.2490750403613307
-4.021885714285714e-05,-0.2454063740815881
-4.020885714285714e-05,-0.2600810392005518
-4.019885714285714e-05,-0.2454063740815881
-4.018885714285714e-05,-0.2564123729208159
-4.017885714285714e-05,-0.2417377078018455
-4.016885714285714e-05,-0.2600810392005501
-4.015885714285714e-05,-0.2564123729208159
-4.014885714285714e-05,-0.238069041522103
-4.013885714285714e-05,-0.2527437066410733
-4.012885714285714e-05,-0.2600810392005551
-4.011885714285714e-05,-0.2527437066410733
-4.010885714285714e-05,-0.2637497054803011
-4.009885714285714e-05,-0.2600810392005585
-4.008885714285714e-05,-0.2747557043195238
-4.007885714285714e-05,-0.2637497054803061
-4.006885714285714e-05,-0.2674183717600437
-4.005885714285714e-05,-0.2710870380397863
-4.004885714285714e-05,-0.2674183717600453
-4.003885714285714e-05,-0.2710870380397846
-4.002885714285714e-05,-0.2637497054803011
-4.001885714285714e-05,-0.2747557043195288
-4.000885714285714e-05,-0.2637497054803011
-3.999885714285714e-05,-0.2820930368790057
-3.998885714285714e-05,-0.2967677019979844
-3.997885714285714e-05,-0.2637497054803011
-3.996885714285714e-05,-0.2857617031587567
-3.995885714285714e-05,-0.2637497054803044
-3.994885714285714e-05,-0.2710870380397863
-3.993885714285714e-05,-0.2747557043195288
-3.992885714285714e-05,-0.2637497054803011
-3.991885714285714e-05,-0.2820930368790041
-3.990885714285714e-05,-0.2600810392005685
-3.989885714285714e-05,-0.2784243705992714
-3.988885714285714e-05,-0.2710870380397863
-3.987885714285714e-05,-0.2857617031587483
-3.986885714285714e-05,-0.267418371760052
-3.985885714285714e-05,-0.282093036879014
-3.984885714285714e-05,-0.2894303694384992
-3.983885714285714e-05,-0.2857617031587567
-3.982885714285714e-05,-0.2857617031587567
-3.981885714285714e-05,-0.2784243705992714
-3.980885714285714e-05,-0.2674183717600437
-3.979885714285714e-05,-0.2637497054803011
-3.978885714285714e-05,-0.2637497054803144
-3.977885714285714e-05,-0.2930990357182418
-3.976885714285714e-05,-0.2857617031587567
-3.975885714285714e-05,-0.2747557043195288
-3.974885714285714e-05,-0.2747557043195322
-3.973885714285714e-05,-0.2820930368790107
-3.972885714285714e-05,-0.2784243705992714
-3.971885714285714e-05,-0.2894303694384992
-3.970885714285714e-05,-0.2820930368790107
-3.969885714285714e-05,-0.2747557043195322
-3.968885714285714e-05,-0.2857617031587567
-3.967885714285714e-05,-0.2747557043195288
-3.966885714285714e-05,-0.2674183717600437
-3.965885714285714e-05,-0.2820930368790074
-3.964885714285714e-05,-0.2564123729208159
-3.963885714285714e-05,-0.2784243705992714
-3.962885714285714e-05,-0.2784243705992714
-3.961885714285714e-05,-0.2784243705992664
-3.960885714285714e-05,-0.2674183717600437
-3.959885714285714e-05,-0.2894303694384992
-3.958885714285714e-05,-0.282093036879014
-3.957885714285714e-05,-0.267418371760047
-3.956885714285714e-05,-0.2747557043195255
-3.955885714285714e-05,-0.2784243705992714
-3.954885714285714e-05,-0.2784243705992714
-3.953885714285714e-05,-0.2857617031587517
-3.952885714285714e-05,-0.2747557043195338
-3.951885714285714e-05,-0.2894303694384992
-3.950885714285714e-05,-0.282093036879014
-3.949885714285714e-05,-0.2784243705992714
-3.948885714285714e-05,-0.2857617031587533
-3.947885714285714e-05,-0.2747557043195288
-3.946885714285714e-05,-0.2747557043195288
-3.945885714285714e-05,-0.2894303694384992
-3.944885714285714e-05,-0.2674183717600487
-3.943885714285714e-05,-0.2784243705992714
-3.942885714285714e-05,-0.282093036879014
-3.941885714285714e-05,-0.2857617031587567
-3.940885714285714e-05,-0.2600810392005668
-3.939885714285714e-05,-0.2784243705992714
-3.938885714285714e-05,-0.2490750403613307
-3.937885714285714e-05,-0.282093036879014
-3.936885714285714e-05,-0.2600810392005618
-3.935885714285714e-05,-0.2674183717600404
-3.934885714285714e-05,-0.2784243705992714
-3.933885714285714e-05,-0.2674183717600437
-3.932885714285714e-05,-0.2857617031587567
-3.931885714285714e-05,-0.2747557043195338
-3.930885714285714e-05,-0.2564123729208159
-3.929885714285714e-05,-0.2857617031587567
-3.928885714285714e-05,-0.2710870380397863
-3.927885714285714e-05,-0.267418371760047
-3.926885714285714e-05,-0.2747557043195288
-3.925885714285714e-05,-0.2527437066410733
-3.924885714285714e-05,-0.2747557043195288
-3.923885714285714e-05,-0.2710870380397813
-3.922885714285714e-05,-0.2600810392005585
-3.921885714285714e-05,-0.2637497054803011
-3.920885714285714e-05,-0.2930990357182418
-3.919885714285714e-05,-0.2820930368790091
-3.918885714285714e-05,-0.2710870380397913
-3.917885714285714e-05,-0.2784243705992714
-3.916885714285714e-05,-0.2747557043195288
-3.915885714285714e-05,-0.2747557043195288
-3.914885714285714e-05,-0.2600810392005651
-3.913885714285714e-05,-0.2674183717600437
-3.912885714285714e-05,-0.2710870380397863
-3.911885714285714e-05,-0.2710870380397863
-3.910885714285714e-05,-0.2747557043195272
-3.909885714285714e-05,-0.2637497054803011
-3.908885714285714e-05,-0.2564123729208159
-3.907885714285714e-05,-0.2490750403613307
-3.906885714285714e-05,-0.2564123729208126
-3.905885714285714e-05,-0.2490750403613307
-3.904885714285714e-05,-0.2674183717600437
-3.903885714285714e-05,-0.2600810392005585
-3.902885714285714e-05,-0.2637497054802994
-3.901885714285714e-05,-0.2600810392005601
-3.900885714285714e-05,-0.2637497054803011
-3.899885714285714e-05,-0.2600810392005585
-3.898885714285714e-05,-0.2417377078018522
-3.897885714285714e-05,-0.2564123729208093
-3.896885714285714e-05,-0.238069041522103
-3.895885714285714e-05,-0.2600810392005585
-3.894885714285714e-05,-0.2527437066410733
-3.893885714285714e-05,-0.2600810392005551
-3.892885714285714e-05,-0.2600810392005585
-3.891885714285714e-05,-0.2490750403613307
-3.890885714285714e-05,-0.2637497054803011
-3.889885714285714e-05,-0.267418371760042
-3.888885714285714e-05,-0.2637497054803011
-3.887885714285714e-05,-0.2490750403613307
-3.886885714285714e-05,-0.2600810392005585
-3.885885714285714e-05,-0.2527437066410733
-3.884885714285714e-05,-0.2527437066410733
-3.883885714285714e-05,-0.2600810392005585
-3.882885714285714e-05,-0.2527437066410733
-3.881885714285714e-05,-0.2784243705992615
-3.880885714285714e-05,-0.2564123729208259
-3.879885714285714e-05,-0.2600810392005585
-3.878885714285714e-05,-0.2637497054803011
-3.877885714285714e-05,-0.2454063740815881
-3.876885714285714e-05,-0.2344003752423653
-3.875885714285714e-05,-0.2674183717600437
-3.874885714285714e-05,-0.2600810392005585
-3.873885714285714e-05,-0.2527437066410733
-3.872885714285714e-05,-0.25274370664107
-3.871885714285714e-05,-0.2454063740815881
-3.870885714285714e-05,-0.2527437066410733
-3.869885714285714e-05,-0.2417377078018455
-3.868885714285714e-05,-0.2490750403613307
-3.867885714285714e-05,-0.2490750403613307
-3.866885714285714e-05,-0.2710870380397863
-3.865885714285714e-05,-0.238069041522103
-3.864885714285714e-05,-0.2380690415221079
-3.863885714285714e-05,-0.2490750403613257
-3.862885714285714e-05,-0.2454063740815881
-3.861885714285714e-05,-0.2454063740815881
-3.860885714285714e-05,-0.2454063740815881
-3.859885714285714e-05,-0.249075040361329
-3.858885714285714e-05,-0.2417377078018455
-3.857885714285714e-05,-0.2527437066410733
-3.856885714285714e-05,-0.2490750403613307
-3.855885714285714e-05,-0.2637497054802961
-3.854885714285714e-05,-0.2527437066410733
-3.853885714285714e-05,-0.2600810392005585
-3.852885714285714e-05,-0.238069041522103
-3.851885714285714e-05,-0.2344003752423603
-3.850885714285714e-05,-0.2344003752423603
-3.849885714285714e-05,-0.238069041522103
-3.848885714285714e-05,-0.2490750403613307
-3.847885714285714e-05,-0.2454063740815865
-3.846885714285714e-05,-0.2417377078018472
-3.845885714285714e-05,-0.238069041522103
-3.844885714285714e-05,-0.2344003752423603
-3.843885714285714e-05,-0.2270630426828752
-3.842885714285714e-05,-0.2417377078018389
-3.841885714285714e-05,-0.238069041522103
-3.840885714285714e-05,-0.2600810392005585
-3.839885714285714e-05,-0.238069041522103
-3.838885714285714e-05,-0.2307317089626194
-3.837885714285714e-05,-0.2344003752423603
-3.836885714285714e-05,-0.2307317089626177
-3.835885714285714e-05,-0.2527437066410733
-3.834885714285714e-05,-0.2380690415221046
-3.833885714285714e-05,-0.2417377078018455
-3.832885714285714e-05,-0.2454063740815881
-3.831885714285714e-05,-0.238069041522103
-3.830885714285714e-05,-0.2417377078018472
-3.829885714285714e-05,-0.2454063740815865
-3.828885714285714e-05,-0.2417377078018455
-3.827885714285714e-05,-0.2233943764031326
-3.826885714285714e-05,-0.2344003752423603
-3.825885714285714e-05,-0.2344003752423603
-3.824885714285714e-05,-0.238069041522103
-3.823885714285714e-05,-0.238069041522103
-3.822885714285714e-05,-0.238069041522103
-3.821885714285714e-05,-0.2417377078018439
-3.820885714285714e-05,-0.2417377078018455
-3.819885714285714e-05,-0.2307317089626177
-3.818885714285714e-05,-0.238069041522103
-3.817885714285714e-05,-0.2233943764031442
-3.816885714285714e-05,-0.2490750403613307
-3.815885714285714e-05,-0.2270630426828752
-3.814885714285714e-05,-0.3738096938725788
-3.813885714285714e-05,-1.268964266129694
-3.812885714285714e-05,-1.100205617261689
-3.811885714285714e-05,-0.4178336892294899
-3.810885714285714e-05,-0.03996106241600297
-3.809885714285714e-05,0.05542426085730442
-3.808885714285714e-05,0.2351889085646097
-3.807885714285714e-05,-0.3628036950333511
-3.806885714285714e-05,-0.3591350287536085
-3.805885714285714e-05,-0.0252863972970326
-3.804885714285714e-05,-0.2123883775638197
-3.803885714285714e-05,-0.08031639149317148
-3.802885714285714e-05,-0.1280090531298252
-3.801885714285714e-05,-0.1793703810462215
-3.800885714285714e-05,-0.1426837182488273
-3.799885714285714e-05,-0.2123883775639048
-3.798885714285714e-05,-0.1757017147664789
-3.797885714285714e-05,-0.2417377078018455
-3.796885714285714e-05,-0.2123883775638981
-3.795885714285714e-05,-0.1977137124449411
-3.794885714285714e-05,-0.2270630426828752
-3.793885714285714e-05,-0.2050510450044196
-3.792885714285714e-05,-0.2087197112841722
-3.791885714285714e-05,-0.2307317089626077
-3.790885714285714e-05,-0.1940450461651918
-3.789885714285714e-05,-0.2233943764031326
-3.788885714285714e-05,-0.2270630426828752
-3.787885714285714e-05,-0.2013823787246887
-3.786885714285714e-05,-0.2160570438436474
-3.785885714285714e-05,-0.2050510450044196
-3.784885714285714e-05,-0.1867077136057066
-3.783885714285714e-05,-0.2123883775638931
-3.782885714285714e-05,-0.1867077136057066
-3.781885714285714e-05,-0.201382378724677
-3.780885714285714e-05,-0.2160570438436474
-3.779885714285714e-05,-0.1903763798854659
-3.778885714285714e-05,-0.2270630426828585
-3.777885714285714e-05,-0.1977137124449344
-3.776885714285714e-05,-0.1977137124449344
-3.775885714285714e-05,-0.2197257101233683
-3.774885714285714e-05,-0.172033048486758
-3.773885714285714e-05,-0.1903763798854493
-3.772885714285714e-05,-0.1610270496475085
-3.771885714285714e-05,-0.1316777194095678
-3.770885714285714e-05,-0.03996106241604468
-3.769885714285714e-05,0.09944825621421553
-3.768885714285714e-05,0.2645382388026322
-3.767885714285714e-05,0.4406342202302766
-3.766885714285714e-05,0.6460795318959484
-3.765885714285714e-05,0.8368501784424764
-3.764885714285714e-05,1.042295490108062
-3.763885714285714e-05,1.255078134333132
-3.762885714285714e-05,1.471529444838042
-3.761885714285714e-05,1.684312089062919
-3.760885714285714e-05,1.908100732127314
-3.759885714285714e-05,2.139226707751097
-3.758885714285714e-05,2.374021349654742
-3.757885714285714e-05,2.638165321795969
-3.756885714285714e-05,2.872959963699615
-3.755885714285714e-05,3.137103935841082
-3.754885714285714e-05,3.426928571940747
-3.753885714285714e-05,3.694741210361834
-3.752885714285714e-05,3.826813196432689
-3.751885714285714e-05,4.072613837175442
-3.750885714285714e-05,4.248709818603086
-3.749885714285714e-05,4.487173126786457
-3.748885714285714e-05,4.710961769850654
-3.747885714285714e-05,4.84670242220113
-3.746885714285714e-05,4.795341094284733
-3.745885714285714e-05,4.637588444255901
-3.744885714285714e-05,4.857708421040257
-3.743885714285714e-05,5.374990366484062
-3.742885714285714e-05,5.697832999101411
-3.741885714285714e-05,5.624459673506582
-3.740885714285714e-05,5.675821001422932
-3.739885714285714e-05,6.024344297998502
-3.738885714285714e-05,6.530620244602979
-3.737885714285714e-05,6.548963576001692
-3.736885714285714e-05,6.486596249246096
-3.735885714285714e-05,6.805770215583673
-3.734885714285714e-05,7.264353500551497
-3.733885714285714e-05,7.389088154062746
-3.732885714285714e-05,7.31204616218828
-3.731885714285714e-05,7.594533465728331
-3.730885714285714e-05,8.067791415815126
-3.729885714285714e-05,8.199863401885858
-3.728885714285714e-05,8.148502073969601
-3.727885714285714e-05,8.453001375188098
-3.726885714285714e-05,8.852885999680041
-3.725885714285714e-05,8.940933990393862
-3.724885714285714e-05,8.96661465435222
-3.723885714285714e-05,9.318806617207191
-3.722885714285714e-05,9.656323914943668
-3.721885714285714e-05,9.68567324518161
-3.720885714285714e-05,9.810407898692857
-3.719885714285714e-05,10.20295519062514
-3.718885714285714e-05,10.40106316973142
-3.717885714285714e-05,10.4340811662491
-3.716885714285714e-05,10.69822513839056
-3.715885714285714e-05,11.03941110240647
-3.714885714285714e-05,11.11278442800148
-3.713885714285714e-05,11.25953107919118
-3.712885714285714e-05,11.60805437576673
-3.711885714285714e-05,11.80249368859312
-3.710885714285714e-05,11.86852968162845
-3.709885714285714e-05,12.14734831888889
-3.708885714285714e-05,12.43350428870881
-3.707885714285714e-05,12.4922029491848
-3.706885714285714e-05,12.72699759108811
-3.705885714285714e-05,13.01682222718788
-3.704885714285714e-05,13.13421954813965
-3.703885714285714e-05,13.33966485980523
-3.702885714285714e-05,13.64049549474399
-3.701885714285714e-05,13.7505554831364
-3.700885714285714e-05,13.93398879712353
-3.699885714285714e-05,14.22014476694345
-3.698885714285714e-05,14.34487942045464
-3.697885714285714e-05,14.53931873328106
-3.696885714285714e-05,14.80346270542253
-3.695885714285714e-05,14.9648840217312
-3.694885714285714e-05,15.13364267059948
-3.693885714285714e-05,15.40512397530031
-3.692885714285714e-05,15.5592079590495
-3.691885714285714e-05,15.73897260675689
-3.690885714285714e-05,15.99944791261867
-3.689885714285714e-05,16.13885723124876
-3.688885714285714e-05,16.33696521035493
-3.687885714285714e-05,16.58276585109768
-3.686885714285714e-05,16.73318116856722
-3.685885714285714e-05,16.92762048139339
-3.684885714285714e-05,17.15874645701727
-3.683885714285714e-05,17.33851110472466
-3.682885714285714e-05,17.53661908383075
-3.681885714285714e-05,17.74940172805573
-3.680885714285714e-05,17.92916637576321
-3.679885714285714e-05,18.1346116874288
-3.678885714285714e-05,18.34005699909438
-3.677885714285714e-05,18.49414098284367
-3.676885714285714e-05,18.71059229334838
-3.675885714285714e-05,18.91603760501397
-3.674885714285714e-05,19.07012158876316
-3.673885714285714e-05,19.27923556670857
-3.672885714285714e-05,19.46633754697527
-3.671885714285714e-05,19.65343952724223
-3.670885714285714e-05,19.85521617262807
-3.669885714285714e-05,20.05332415173426
-3.668885714285714e-05,20.24042613200096
-3.667885714285714e-05,20.44587144366663
-3.666885714285714e-05,20.60362409369556
-3.665885714285714e-05,20.80173207280166
-3.664885714285714e-05,20.98149672050897
-3.663885714285714e-05,21.18694203217463
-3.662885714285714e-05,21.36303801360228
-3.661885714285714e-05,21.53913399502992
-3.660885714285714e-05,21.72256730901714
-3.659885714285714e-05,21.91700662184341
-3.658885714285714e-05,22.09310260327105
-3.657885714285714e-05,22.23984925446076
-3.656885714285714e-05,22.44162589984666
-3.655885714285714e-05,22.57369788591727
-3.654885714285714e-05,22.73878786850575
-3.653885714285714e-05,22.91121518365365
-3.652885714285714e-05,23.0652991674029
-3.651885714285714e-05,23.19003382091403
-3.650885714285714e-05,23.3551238035025
-3.649885714285714e-05,23.47252112445427
-3.648885714285714e-05,23.60092444424526
-3.647885714285714e-05,23.74033376287541
-3.646885714285714e-05,23.85039375126776
-3.645885714285714e-05,23.95311640710055
-3.644885714285714e-05,24.0521703966536
-3.643885714285714e-05,24.15122438620669
-3.642885714285714e-05,24.23560371064073
-3.641885714285714e-05,24.30530836995583
-3.640885714285714e-05,24.38235036183043
-3.639885714285714e-05,24.46306101998479
-3.638885714285714e-05,24.50708501534168
-3.637885714285714e-05,24.55110901069859
-3.636885714285714e-05,24.58045834093653
-3.635885714285714e-05,24.62815100257318
-3.634885714285714e-05,24.63181966885293
-3.633885714285714e-05,24.63548833513267
-3.632885714285714e-05,24.65016300025164
