TP2/Mediciones/1127/Vgate-Vref1127V.csv

#Digilent WaveForms Oscilloscope Acquisition
#Device Name: Discovery2
#Serial Number: SN:210321B0E03A
#Date Time: 2021-06-21 15:00:25.350
#Sample rate: 1e+08Hz
#Samples: 8192
#Trigger: Source: Channel 1 Type: Edge Condition: Rising Level: 3.5 V Hyst.: Auto HoldOff: 100 ns
#Channel 1: Range: 5 V/div Offset: 0 V Attenuation: 1 X
#Power Supplies: ON
#Positive Supply: ON
#Voltage: 1.128 V
#Negative Supply: OFF
#Voltage: -1 V

-4.045244094488189e-05,-0.05830439381471593
-4.044244094488189e-05,-0.07297905893368629
-4.043244094488189e-05,-0.09132239033239425
-4.042244094488189e-05,-0.08031639149317649
-4.041244094488189e-05,-0.07297905893368629
-4.040244094488189e-05,-0.08031639149317148
-4.039244094488189e-05,-0.08031639149317148
-4.038244094488189e-05,-0.0839850577729124
-4.037244094488189e-05,-0.07664772521342889
-4.036244094488189e-05,-0.0693103926539437
-4.035244094488189e-05,-0.08031639149317148
-4.034244094488189e-05,-0.08398505777290739
-4.033244094488189e-05,-0.0693103926539437
-4.032244094488189e-05,-0.06197306009445852
-4.031244094488189e-05,-0.07664772521342889
-4.030244094488189e-05,-0.06931039265395371
-4.029244094488189e-05,-0.09132239033238926
-4.028244094488189e-05,-0.07297905893368629
-4.027244094488189e-05,-0.07297905893368629
-4.026244094488189e-05,-0.06931039265394204
-4.025244094488189e-05,-0.06564172637420278
-4.024244094488189e-05,-0.08398505777291407
-4.023244094488189e-05,-0.07297905893368629
-4.022244094488189e-05,-0.0693103926539437
-4.021244094488189e-05,-0.0693103926539437
-4.020244094488189e-05,-0.06564172637420111
-4.019244094488189e-05,-0.0693103926539437
-4.018244094488189e-05,-0.0693103926539437
-4.017244094488189e-05,-0.07297905893368296
-4.016244094488189e-05,-0.06564172637420111
-4.015244094488189e-05,-0.0693103926539437
-4.014244094488189e-05,-0.0693103926539437
-4.013244094488189e-05,-0.06197306009446352
-4.012244094488189e-05,-0.07297905893368128
-4.011244094488189e-05,-0.08031639149317148
-4.010244094488189e-05,-0.06564172637420111
-4.009244094488189e-05,-0.06564172637420612
-4.008244094488189e-05,-0.07664772521342388
-4.007244094488189e-05,-0.0693103926539437
-4.006244094488189e-05,-0.06564172637420111
-4.005244094488189e-05,-0.0693103926539437
-4.004244094488189e-05,-0.0693103926539437
-4.003244094488189e-05,-0.07297905893368629
-4.002244094488189e-05,-0.07297905893368629
-4.001244094488189e-05,-0.05830439381471593
-4.000244094488189e-05,-0.07297905893368463
-3.999244094488189e-05,-0.0693103926539437
-3.998244094488189e-05,-0.06197306009445852
-3.997244094488189e-05,-0.08031639149317148
-3.996244094488189e-05,-0.06931039265394037
-3.995244094488189e-05,-0.06197306009445852
-3.994244094488189e-05,-0.07664772521342889
-3.993244094488189e-05,-0.06197306009445852
-3.992244094488189e-05,-0.05830439381471593
-3.991244094488189e-05,-0.05830439381471593
-3.990244094488189e-05,-0.07664772521342889
-3.989244094488189e-05,-0.08031639149317148
-3.988244094488189e-05,-0.0693103926539437
-3.987244094488189e-05,-0.0693103926539437
-3.986244094488189e-05,-0.0693103926539437
-3.985244094488189e-05,-0.07297905893368629
-3.984244094488189e-05,-0.06197306009445852
-3.983244094488189e-05,-0.06197306009446186
-3.982244094488189e-05,-0.0693103926539437
-3.981244094488189e-05,-0.08398505777291407
-3.980244094488189e-05,-0.05463572753497334
-3.979244094488189e-05,-0.06197306009446686
-3.978244094488189e-05,-0.08031639149317148
-3.977244094488189e-05,-0.0693103926539437
-3.976244094488189e-05,-0.05830439381471593
-3.975244094488189e-05,-0.07297905893367629
-3.974244094488189e-05,-0.05096706125524075
-3.973244094488189e-05,-0.04362972869574556
-3.972244094488189e-05,-0.04729839497548816
-3.971244094488189e-05,-0.0693103926539437
-3.970244094488189e-05,-0.0693103926539437
-3.969244094488189e-05,-0.08031639149317148
-3.968244094488189e-05,-0.0693103926539437
-3.967244094488189e-05,-0.08765372405265667
-3.966244094488189e-05,-0.06931039265395204
-3.965244094488189e-05,-0.06197306009445852
-3.964244094488189e-05,-0.07297905893368629
-3.963244094488189e-05,-0.2344003752423603
-3.962244094488189e-05,-1.107542949820877
-3.961244094488189e-05,-0.623279000895075
-3.960244094488189e-05,-0.08031639149317148
-3.959244094488189e-05,0.3195682329987711
-3.958244094488189e-05,0.4039475574327923
-3.957244094488189e-05,0.2755442376419183
-3.956244094488189e-05,0.04808692829781924
-3.955244094488189e-05,0.04074959573833405
-3.954244094488189e-05,0.1287975864521479
-3.953244094488189e-05,0.1104542550534516
-3.952244094488189e-05,0.1104542550534433
-3.951244094488189e-05,0.1508095841306118
-3.950244094488189e-05,0.1067855887737007
-3.949244094488189e-05,0.0737675922560324
-3.948244094488189e-05,0.02974359689910628
-3.947244094488189e-05,-0.01061173217806223
-3.946244094488189e-05,-0.003274399618577049
-3.945244094488189e-05,-0.02528639729704094
-3.944244094488189e-05,-0.04362972869574556
-3.943244094488189e-05,-0.05830439381471593
-3.942244094488189e-05,-0.08398505777291407
-3.941244094488189e-05,-0.08031639149318816
-3.940244094488189e-05,-0.1170030542905807
-3.939244094488189e-05,-0.1133343880108548
-3.938244094488189e-05,-0.12067172057034
-3.937244094488189e-05,-0.1316777194095628
-3.936244094488189e-05,-0.120671720570345
-3.935244094488189e-05,-0.1243403868500826
-3.934244094488189e-05,-0.1280090531298252
-3.933244094488189e-05,-0.12067172057034
-3.932244094488189e-05,-0.1353463856893037
-3.931244094488189e-05,-0.1133343880108548
-3.930244094488189e-05,-0.1096657217311122
-3.929244094488189e-05,-0.1353463856893104
-3.928244094488189e-05,-0.1096657217311172
-3.927244094488189e-05,-0.12067172057034
-3.926244094488189e-05,-0.1243403868500826
-3.925244094488189e-05,-0.1316777194095678
-3.924244094488189e-05,-0.1243403868500793
-3.923244094488189e-05,-0.1170030542906007
-3.922244094488189e-05,-0.102328389171627
-3.921244094488189e-05,-0.1243403868500826
-3.920244094488189e-05,-0.1133343880108548
-3.919244094488189e-05,-0.1133343880108548
-3.918244094488189e-05,-0.1133343880108548
-3.917244094488189e-05,-0.09865972289188445
-3.916244094488189e-05,-0.1059970554513696
-3.915244094488189e-05,-0.1096657217311106
-3.914244094488189e-05,-0.1059970554513696
-3.913244094488189e-05,-0.1133343880108548
-3.912244094488189e-05,-0.1133343880108548
-3.911244094488189e-05,-0.1023283891716337
-3.910244094488189e-05,-0.1170030542905974
-3.909244094488189e-05,-0.09499105661214186
-3.908244094488189e-05,-0.09865972289188445
-3.907244094488189e-05,-0.1059970554513663
-3.906244094488189e-05,-0.09865972289188778
-3.905244094488189e-05,-0.1280090531298252
-3.904244094488189e-05,-0.1059970554513696
-3.903244094488189e-05,-0.105997055451378
-3.902244094488189e-05,-0.1243403868500742
-3.901244094488189e-05,-0.1133343880108548
-3.900244094488189e-05,-0.09499105661214186
-3.899244094488189e-05,-0.1133343880108548
-3.898244094488189e-05,-0.1133343880108548
-3.897244094488189e-05,-0.1059970554513696
-3.896244094488189e-05,-0.1243403868500826
-3.895244094488189e-05,-0.1133343880108548
-3.894244094488189e-05,-0.1133343880108548
-3.893244094488189e-05,-0.1133343880108548
-3.892244094488189e-05,-0.08765372405265667
-3.891244094488189e-05,-0.08031639149317148
-3.890244094488189e-05,-0.09499105661214687
-3.889244094488189e-05,-0.1059970554513696
-3.888244094488189e-05,-0.1096657217311122
-3.887244094488189e-05,-0.09132239033239926
-3.886244094488189e-05,-0.09132239033239593
-3.885244094488189e-05,-0.0839850577729174
-3.884244094488189e-05,-0.09499105661214186
-3.883244094488189e-05,-0.09865972289188445
-3.882244094488189e-05,-0.09865972289188445
-3.881244094488189e-05,-0.1059970554513663
-3.880244094488189e-05,-0.09865972289188445
-3.879244094488189e-05,-0.09132239033239926
-3.878244094488189e-05,-0.08031639149317148
-3.877244094488189e-05,-0.08031639149317982
-3.876244094488189e-05,-0.09865972289188445
-3.875244094488189e-05,-0.08031639149317148
-3.874244094488189e-05,-0.09865972289188445
-3.873244094488189e-05,-0.1023283891716204
-3.872244094488189e-05,-0.08765372405265667
-3.871244094488189e-05,-0.09132239033239926
-3.870244094488189e-05,-0.09132239033239926
-3.869244094488189e-05,-0.09499105661214352
-3.868244094488189e-05,-0.09865972289188278
-3.867244094488189e-05,-0.102328389171627
-3.866244094488189e-05,-0.09499105661214186
-3.865244094488189e-05,-0.09132239033239926
-3.864244094488189e-05,-0.08031639149317649
-3.863244094488189e-05,-0.1059970554513696
-3.862244094488189e-05,-0.09499105661214186
-3.861244094488189e-05,-0.1059970554513696
-3.860244094488189e-05,-0.08031639149318315
-3.859244094488189e-05,-0.09132239033239926
-3.858244094488189e-05,-0.09132239033239926
-3.857244094488189e-05,-0.09499105661214186
-3.856244094488189e-05,-0.08765372405265834
-3.855244094488189e-05,-0.09132239033239926
-3.854244094488189e-05,-0.1059970554513696
-3.853244094488189e-05,-0.09865972289188445
-3.852244094488189e-05,-0.0913223903323976
-3.851244094488189e-05,-0.08765372405265834
-3.850244094488189e-05,-0.09132239033239926
-3.849244094488189e-05,-0.102328389171627
-3.848244094488189e-05,-0.09499105661213852
-3.847244094488189e-05,-0.08765372405266
-3.846244094488189e-05,-0.09499105661214186
-3.845244094488189e-05,-0.09865972289188445
-3.844244094488189e-05,-0.102328389171627
-3.843244094488189e-05,-0.09865972289188611
-3.842244094488189e-05,-0.102328389171627
-3.841244094488189e-05,-0.102328389171627
-3.840244094488189e-05,-0.07297905893368629
-3.839244094488189e-05,-0.1023283891716237
-3.838244094488189e-05,-0.09499105661214186
-3.837244094488189e-05,-0.1059970554513696
-3.836244094488189e-05,-0.09865972289188445
-3.835244094488189e-05,-0.1096657217311039
-3.834244094488189e-05,-0.0913223903324076
-3.833244094488189e-05,-0.102328389171627
-3.832244094488189e-05,-0.09865972289188445
-3.831244094488189e-05,-0.1096657217311022
-3.830244094488189e-05,-0.08765372405266668
-3.829244094488189e-05,-0.09865972289188445
-3.828244094488189e-05,-0.102328389171627
-3.827244094488189e-05,-0.102328389171627
-3.826244094488189e-05,-0.09865972289188611
-3.825244094488189e-05,-0.1059970554513696
-3.824244094488189e-05,-0.1096657217311122
-3.823244094488189e-05,-0.1096657217311122
-3.822244094488189e-05,-0.09865972289188112
-3.821244094488189e-05,-0.09132239033239926
-3.820244094488189e-05,-0.1133343880108548
-3.819244094488189e-05,-0.102328389171627
-3.818244094488189e-05,-0.09499105661214019
-3.817244094488189e-05,-0.09132239033240093
-3.816244094488189e-05,-0.09499105661214186
-3.815244094488189e-05,-0.08031639149317148
-3.814244094488189e-05,-0.1133343880108415
-3.813244094488189e-05,-0.08398505777292742
-3.812244094488189e-05,-0.09865972289188445
-3.811244094488189e-05,-0.08765372405265667
-3.810244094488189e-05,-0.08765372405265667
-3.809244094488189e-05,-0.0913223903323976
-3.808244094488189e-05,-0.09499105661214186
-3.807244094488189e-05,-0.08031639149317148
-3.806244094488189e-05,-0.09865972289188445
-3.805244094488189e-05,-0.08031639149318483
-3.804244094488189e-05,-0.1096657217311122
-3.803244094488189e-05,-0.08765372405265667
-3.802244094488189e-05,-0.08031639149317148
-3.801244094488189e-05,-0.08765372405265
-3.800244094488189e-05,-0.07297905893369297
-3.799244094488189e-05,-0.102328389171627
-3.798244094488189e-05,-0.07664772521342889
-3.797244094488189e-05,-0.09865972289188611
-3.796244094488189e-05,-0.1023283891716254
-3.795244094488189e-05,-0.09132239033239926
-3.794244094488189e-05,-0.08765372405265667
-3.793244094488189e-05,-0.1059970554513696
-3.792244094488189e-05,-0.08398505777292407
-3.791244094488189e-05,-0.08031639149317148
-3.790244094488189e-05,-0.08765372405265667
-3.789244094488189e-05,-0.102328389171627
-3.788244094488189e-05,-0.08031639149317649
-3.787244094488189e-05,-0.09132239033239926
-3.786244094488189e-05,-0.09499105661214186
-3.785244094488189e-05,-0.08765372405265667
-3.784244094488189e-05,-0.08765372405266335
-3.783244094488189e-05,-0.102328389171627
-3.782244094488189e-05,-0.08765372405265667
-3.781244094488189e-05,-0.07297905893368629
-3.780244094488189e-05,-0.09499105661213685
-3.779244094488189e-05,-0.08398505777291908
-3.778244094488189e-05,-0.09499105661214186
-3.777244094488189e-05,-0.09132239033239926
-3.776244094488189e-05,-0.08765372405265667
-3.775244094488189e-05,-0.1023283891716204
-3.774244094488189e-05,-0.2967677019979844
-3.773244094488189e-05,-1.738553549936823
-3.772244094488189e-05,-0.1977137124449344
-3.771244094488189e-05,0.2535322399631992
-3.770244094488189e-05,0.4773208830277025
-3.769244094488189e-05,0.7488021877286544
-3.768244094488189e-05,1.045964156387804
-3.767244094488189e-05,1.493541442516507
-3.766244094488189e-05,1.728336084419926
-3.765244094488189e-05,2.183250703108008
-3.764244094488189e-05,2.575797995040465
-3.763244094488189e-05,2.876628629979591
-3.762244094488189e-05,3.390241909143087
-3.761244094488189e-05,3.65805454756453
-3.760244094488189e-05,3.881843190628828
-3.759244094488189e-05,3.925867185985739
-3.758244094488189e-05,3.900186522027552
-3.757244094488189e-05,3.980897180181878
-3.756244094488189e-05,3.892849189468056
-3.755244094488189e-05,3.940541851104709
-3.754244094488189e-05,3.98089718018186
-3.753244094488189e-05,3.947879183664194
-3.752244094488189e-05,3.999240511580591
-3.751244094488189e-05,3.96989118134265
-3.750244094488189e-05,3.984565846461646
-3.749244094488189e-05,4.039595840657759
-3.748244094488189e-05,4.006577844140076
-3.747244094488189e-05,4.120306498812096
-3.746244094488189e-05,4.179005159288067
-3.745244094488189e-05,4.377113138393987
-3.744244094488189e-05,4.586227116339405
-3.743244094488189e-05,4.725636434969624
-3.742244094488189e-05,4.93841907919477
-3.741244094488189e-05,5.103509061783035
-3.740244094488189e-05,5.2575930455323
-3.739244094488189e-05,5.444695025799172
-3.738244094488189e-05,5.598779009548361
-3.737244094488189e-05,5.745525660737997
-3.736244094488189e-05,5.939964973564422
-3.735244094488189e-05,6.046356295676957
-3.734244094488189e-05,6.211446278265374
-3.733244094488189e-05,6.354524263175411
-3.732244094488189e-05,6.523282912043494
-3.731244094488189e-05,6.681035562072426
-3.730244094488189e-05,6.813107548143159
-3.729244094488189e-05,6.941510867934226
-3.728244094488189e-05,7.110269516802232
-3.727244094488189e-05,7.223998171474329
-3.726244094488189e-05,7.348732824985577
-3.725244094488189e-05,7.488142143615843
-3.724244094488189e-05,7.590864799448541
-3.723244094488189e-05,7.708262120400351
-3.722244094488189e-05,7.847671439030569
-3.721244094488189e-05,7.939388096024135
-3.720244094488189e-05,8.071460082094807
-3.719244094488189e-05,8.17418273792766
-3.718244094488189e-05,8.276905393760453
-3.717244094488189e-05,8.375959383313504
-3.716244094488189e-05,8.471344706586857
-3.715244094488189e-05,8.574067362419603
-3.714244094488189e-05,8.665784019413168
-3.713244094488189e-05,8.761169342686475
-3.712244094488189e-05,8.84921733340034
-3.711244094488189e-05,8.93726532411408
-3.710244094488189e-05,9.039987979946913
-3.709244094488189e-05,9.124367304380993
-3.708244094488189e-05,9.18306596485691
-3.707244094488189e-05,9.260107956731433
-3.706244094488189e-05,9.34815594744529
-3.705244094488189e-05,9.40318594164143
-3.704244094488189e-05,9.483896599795766
-3.703244094488189e-05,9.560938591670325
-3.702244094488189e-05,9.637980583544955
-3.701244094488189e-05,9.682004578901866
-3.700244094488189e-05,9.75904657077646
-3.699244094488189e-05,9.832419896371334
-3.698244094488189e-05,9.880112558007966
-3.697244094488189e-05,9.953485883602818
-3.696244094488189e-05,10.00117854523947
-3.695244094488189e-05,10.07088320455461
-3.694244094488189e-05,10.12591319875069
-3.693244094488189e-05,10.16993719410763
-3.692244094488189e-05,10.23230452086326
-3.691244094488189e-05,10.27265984994045
-3.690244094488189e-05,10.33869584297576
-3.689244094488189e-05,10.36804517321373
-3.688244094488189e-05,10.42307516740987
-3.687244094488189e-05,10.47076782904652
-3.686244094488189e-05,10.50378582556419
-3.685244094488189e-05,10.55147848720086
-3.684244094488189e-05,10.59183381627803
-3.683244094488189e-05,10.64686381047417
-3.682244094488189e-05,10.67254447443238
-3.681244094488189e-05,10.70556247095005
-3.680244094488189e-05,10.7532551325867
-3.679244094488189e-05,10.78627312910439
-3.678244094488189e-05,10.81195379306261
-3.677244094488189e-05,10.87432111981821
-3.676244094488189e-05,10.90367045005615
-3.675244094488189e-05,10.94035711285358
-3.674244094488189e-05,10.97337510937127
-3.673244094488189e-05,11.00639310588893
-3.672244094488189e-05,11.03941110240662
-3.671244094488189e-05,11.06876043264457
-3.670244094488189e-05,11.09077243032302
-3.669244094488189e-05,11.13112775940017
-3.668244094488189e-05,11.16047708963813
-3.667244094488189e-05,11.18248908731659
-3.666244094488189e-05,11.20450108499504
-3.665244094488189e-05,11.23751908151271
-3.664244094488189e-05,11.25586241291144
-3.663244094488189e-05,11.26686841175067
-3.662244094488189e-05,11.30355507454809
-3.661244094488189e-05,11.32189840594682
-3.660244094488189e-05,11.35124773618475
-3.659244094488189e-05,11.37692840014294
-3.658244094488189e-05,11.38426573270243
-3.657244094488189e-05,11.40994639666064
-3.656244094488189e-05,11.43929572689855
-3.655244094488189e-05,11.44296439317831
-3.654244094488189e-05,11.46864505713651
-3.653244094488189e-05,11.50533171993393
-3.652244094488189e-05,11.51633771877316
-3.651244094488189e-05,11.5456870490111
-3.650244094488189e-05,11.55302438157059
-3.649244094488189e-05,11.54935571529085
-3.648244094488189e-05,11.57503637924903
-3.647244094488189e-05,11.5970483769275
-3.646244094488189e-05,11.60805437576673
-3.645244094488189e-05,11.61906037460595
-3.644244094488189e-05,11.64474103856415
-3.643244094488189e-05,11.64107237228441
-3.642244094488189e-05,11.65941570368312
-3.641244094488189e-05,11.68142770136158
-3.640244094488189e-05,11.67775903508185
-3.639244094488189e-05,11.71811436415899
-3.638244094488189e-05,11.70710836531978
-3.637244094488189e-05,11.72912036299823
-3.636244094488189e-05,11.75846969323616
-3.635244094488189e-05,11.73645769555773
-3.634244094488189e-05,11.76580702579566
-3.633244094488189e-05,11.78048169091463
-3.632244094488189e-05,11.78415035719437
-3.631244094488189e-05,11.80249368859308
-3.630244094488189e-05,11.81349968743231
-3.629244094488189e-05,11.80983102115257
-3.628244094488189e-05,11.8208370199918
-3.627244094488189e-05,11.83551168511077
-3.626244094488189e-05,11.84284901767025
-3.625244094488189e-05,11.84651768395
-3.624244094488189e-05,11.86119234906897
-3.623244094488189e-05,11.86852968162846
-3.622244094488189e-05,11.87586701418793
-3.621244094488189e-05,11.86852968162845
-3.620244094488189e-05,11.87953568046768
-3.619244094488189e-05,11.89787901186641
-3.618244094488189e-05,11.92722834210432
-3.617244094488189e-05,11.92355967582459
-3.616244094488189e-05,11.90888501070562
-3.615244094488189e-05,11.91989100954485
-3.614244094488189e-05,11.93823434094355
-3.613244094488189e-05,11.93089700838408
-3.612244094488189e-05,11.93823434094356
-3.611244094488189e-05,11.96024633862202
-3.610244094488189e-05,11.96024633862202
-3.609244094488189e-05,11.97125233746124
-3.608244094488189e-05,11.96024633862202
-3.607244094488189e-05,11.97125233746124
-3.606244094488189e-05,11.97858967002073
-3.605244094488189e-05,11.97492100374099
-3.604244094488189e-05,11.98592700258021
-3.603244094488189e-05,11.99693300141944
-3.602244094488189e-05,11.99693300141944
-3.601244094488189e-05,12.00060166769918
-3.600244094488189e-05,11.99693300141944
-3.599244094488189e-05,12.00427033397893
-3.598244094488189e-05,12.00060166769918
-3.597244094488189e-05,12.02628233165737
-3.596244094488189e-05,12.00427033397893
-3.595244094488189e-05,12.01527633281816
-3.594244094488189e-05,12.02261366537764
-3.593244094488189e-05,12.01527633281816
-3.592244094488189e-05,12.02261366537764
-3.591244094488189e-05,12.0189449990979
-3.590244094488189e-05,12.02628233165738
-3.589244094488189e-05,12.02628233165738
-3.588244094488189e-05,12.0189449990979
-3.587244094488189e-05,12.02628233165738
-3.586244094488189e-05,12.02628233165738
-3.585244094488189e-05,12.01527633281816
