TP2/Mediciones/1127/Vo-Vref1127V.csv

#Digilent WaveForms Oscilloscope Acquisition
#Device Name: Discovery2
#Serial Number: SN:210321B0E03A
#Date Time: 2021-06-22 11:07:11.323
#Sample rate: 1e+08Hz
#Samples: 8192
#Trigger: Source: Channel 1 Type: Edge Condition: Rising Level: 2.5 V Hyst.: Auto HoldOff: 100 ns
#Channel 1: Range: 5 V/div Offset: 0 V Attenuation: 1 X
#Power Supplies: ON
#Positive Supply: ON
#Voltage: 1.128 V
#Negative Supply: OFF
#Voltage: -1 V

-4.096e-05,2.931658624175497
-4.095e-05,2.938995956734982
-4.094e-05,2.924321291616011
-4.093e-05,2.924321291616011
-4.092e-05,2.909646626497041
-4.091e-05,2.927989957895754
-4.09e-05,2.931658624175497
-4.089e-05,2.927989957895756
-4.088e-05,2.931658624175497
-4.087e-05,2.935327290455239
-4.086e-05,2.931658624175497
-4.085e-05,2.927989957895756
-4.084e-05,2.931658624175497
-4.083e-05,2.924321291616011
-4.082e-05,2.931658624175497
-4.081e-05,2.931658624175497
-4.08e-05,2.931658624175497
-4.079e-05,2.946333289294467
-4.078e-05,2.931658624175497
-4.077e-05,2.931658624175493
-4.076e-05,2.924321291616015
-4.075e-05,2.913315292776784
-4.074e-05,2.924321291616011
-4.073e-05,2.920652625336269
-4.072e-05,2.92432129161601
-4.071e-05,2.913315292776784
-4.07e-05,2.920652625336269
-4.069e-05,2.916983959056526
-4.068e-05,2.920652625336274
-4.067e-05,2.931658624175497
-4.066e-05,2.942664623014724
-4.065e-05,2.924321291616011
-4.064e-05,2.931658624175495
-4.063e-05,2.927989957895756
-4.062e-05,2.935327290455239
-4.061e-05,2.935327290455239
-4.06e-05,2.927989957895761
-4.059e-05,2.942664623014718
-4.058e-05,2.938995956734982
-4.057e-05,2.920652625336269
-4.056e-05,2.916983959056526
-4.055e-05,2.938995956734971
-4.054e-05,2.931658624175497
-4.053e-05,2.927989957895754
-4.052e-05,2.916983959056526
-4.051e-05,2.931658624175495
-4.05e-05,2.927989957895754
-4.049e-05,2.924321291616011
-4.048e-05,2.916983959056526
-4.047e-05,2.920652625336271
-4.046e-05,2.924321291616011
-4.045e-05,2.920652625336269
-4.044e-05,2.927989957895754
-4.043e-05,2.931658624175493
-4.042e-05,2.924321291616015
-4.041e-05,2.913315292776784
-4.04e-05,2.920652625336269
-4.039e-05,2.916983959056526
-4.038e-05,2.924321291616008
-4.037e-05,2.916983959056526
-4.036e-05,2.927989957895754
-4.035e-05,2.935327290455239
-4.034e-05,2.905977960217303
-4.033e-05,2.916983959056526
-4.032e-05,2.916983959056526
-4.031e-05,2.913315292776784
-4.03e-05,2.924321291616013
-4.029e-05,2.927989957895754
-4.028e-05,2.924321291616011
-4.027e-05,2.913315292776784
-4.026e-05,2.927989957895752
-4.025e-05,2.924321291616013
-4.024e-05,2.909646626497041
-4.023e-05,2.931658624175497
-4.022e-05,2.909646626497041
-4.021e-05,2.902309293937559
-4.02e-05,2.909646626497041
-4.019e-05,2.902309293937556
-4.018e-05,2.920652625336269
-4.017e-05,2.913315292776787
-4.016e-05,2.909646626497041
-4.015e-05,2.913315292776784
-4.014e-05,2.916983959056526
-4.013e-05,2.916983959056528
-4.012e-05,2.920652625336269
-4.011e-05,2.905977960217299
-4.01e-05,2.909646626497041
-4.009e-05,2.924321291616008
-4.008e-05,2.91698395905653
-4.007e-05,2.898640627657813
-4.006e-05,2.916983959056526
-4.005e-05,2.894971961378078
-4.004e-05,2.909646626497035
-4.003e-05,2.913315292776784
-4.002e-05,2.909646626497041
-4.001e-05,2.916983959056526
-4e-05,2.924321291616008
-3.999e-05,2.891303295098328
-3.998e-05,2.909646626497041
-3.997e-05,2.920652625336269
-3.996e-05,2.916983959056523
-3.995e-05,2.909646626497041
-3.994e-05,2.916983959056526
-3.993e-05,2.905977960217299
-3.992e-05,2.913315292776784
-3.991e-05,2.913315292776784
-3.99e-05,2.916983959056526
-3.989e-05,2.920652625336269
-3.988e-05,2.909646626497045
-3.987e-05,2.916983959056523
-3.986e-05,2.898640627657813
-3.985e-05,2.902309293937556
-3.984e-05,2.920652625336269
-3.983e-05,2.916983959056528
-3.982e-05,2.916983959056526
-3.981e-05,2.913315292776784
-3.98e-05,2.920652625336269
-3.979e-05,2.916983959056528
-3.978e-05,2.920652625336269
-3.977e-05,2.909646626497041
-3.976e-05,2.898640627657813
-3.975e-05,2.920652625336269
-3.974e-05,2.920652625336269
-3.973e-05,2.916983959056526
-3.972e-05,2.909646626497041
-3.971e-05,2.924321291616005
-3.97e-05,2.909646626497048
-3.969e-05,2.920652625336269
-3.968e-05,2.913315292776784
-3.967e-05,2.916983959056526
-3.966e-05,2.916983959056526
-3.965e-05,2.927989957895754
-3.964e-05,2.909646626497041
-3.963e-05,2.916983959056526
-3.962e-05,2.920652625336267
-3.961e-05,2.916983959056526
-3.96e-05,2.913315292776784
-3.959e-05,2.913315292776784
-3.958e-05,2.913315292776785
-3.957e-05,2.916983959056525
-3.956e-05,2.909646626497041
-3.955e-05,2.927989957895754
-3.954e-05,2.909646626497038
-3.953e-05,2.902309293937559
-3.952e-05,2.916983959056526
-3.951e-05,2.935327290455239
-3.95e-05,2.898640627657813
-3.949e-05,2.931658624175482
-3.948e-05,2.924321291616011
-3.947e-05,2.935327290455239
-3.946e-05,2.902309293937556
-3.945e-05,2.916983959056526
-3.944e-05,2.916983959056526
-3.943e-05,2.924321291616011
-3.942e-05,2.927989957895754
-3.941e-05,2.909646626497053
-3.94e-05,2.935327290455239
-3.939e-05,2.916983959056526
-3.938e-05,2.916983959056526
-3.937e-05,2.920652625336269
-3.936e-05,2.920652625336269
-3.935e-05,2.924321291616011
-3.934e-05,2.927989957895754
-3.933e-05,2.924321291616011
-3.932e-05,2.920652625336271
-3.931e-05,2.935327290455239
-3.93e-05,2.935327290455239
-3.929e-05,2.931658624175497
-3.928e-05,2.927989957895747
-3.927e-05,2.913315292776784
-3.926e-05,2.927989957895754
-3.925e-05,2.924321291616011
-3.924e-05,2.9316586241755
-3.923e-05,2.938995956734982
-3.922e-05,2.916983959056526
-3.921e-05,2.931658624175497
-3.92e-05,2.935327290455241
-3.919e-05,2.93899595673498
-3.918e-05,2.935327290455239
-3.917e-05,2.931658624175497
-3.916e-05,2.916983959056526
-3.915e-05,2.924321291616008
-3.914e-05,2.916983959056526
-3.913e-05,2.931658624175497
-3.912e-05,2.927989957895754
-3.911e-05,2.91331529277679
-3.91e-05,2.927989957895754
-3.909e-05,2.909646626497041
-3.908e-05,2.913315292776784
-3.907e-05,2.931658624175487
-3.906e-05,2.909646626497041
-3.905e-05,2.920652625336269
-3.904e-05,2.913315292776784
-3.903e-05,2.927989957895744
-3.902e-05,2.905977960217309
-3.901e-05,2.909646626497041
-3.9e-05,2.931658624175497
-3.899e-05,2.927989957895754
-3.898e-05,2.927989957895754
-3.897e-05,2.913315292776784
-3.896e-05,2.931658624175497
-3.895e-05,2.946333289294467
-3.894e-05,2.913315292776799
-3.893e-05,2.938995956734982
-3.892e-05,2.927989957895754
-3.891e-05,2.920652625336269
-3.89e-05,2.920652625336242
-3.889e-05,2.861953964860387
-3.888e-05,2.542779998522782
-3.887e-05,2.605147325278406
-3.886e-05,2.748225310188484
-3.885e-05,3.005031949770232
-3.884e-05,3.06373061024623
-3.883e-05,2.990357284651378
-3.882e-05,2.950001955574208
-3.881e-05,2.946333289294469
-3.88e-05,2.913315292776784
-3.879e-05,3.008700616050091
-3.878e-05,2.953670621853952
-3.877e-05,2.98301995209188
-3.876e-05,2.997694617210863
-3.875e-05,2.97935128581215
-3.874e-05,2.961007954413438
-3.873e-05,2.968345286972912
-3.872e-05,2.946333289294467
-3.871e-05,2.942664623014724
-3.87e-05,2.950001955574209
-3.869e-05,2.957339288133685
-3.868e-05,2.93532729045525
-3.867e-05,2.950001955574209
-3.866e-05,2.931658624175497
-3.865e-05,2.927989957895759
-3.864e-05,2.938995956734977
-3.863e-05,2.935327290455239
-3.862e-05,2.924321291616011
-3.861e-05,2.916983959056526
-3.86e-05,2.916983959056526
-3.859e-05,2.905977960217299
-3.858e-05,2.935327290455239
-3.857e-05,2.916983959056526
-3.856e-05,2.91331529277679
-3.855e-05,2.927989957895754
-3.854e-05,2.916983959056526
-3.853e-05,2.924321291616011
-3.852e-05,2.916983959056525
-3.851e-05,2.913315292776785
-3.85e-05,2.931658624175497
-3.849e-05,2.931658624175497
-3.848e-05,2.91698395905653
-3.847e-05,2.924321291616008
-3.846e-05,2.927989957895754
-3.845e-05,2.920652625336269
-3.844e-05,2.916983959056526
-3.843e-05,2.927989957895749
-3.842e-05,2.924321291616011
-3.841e-05,2.913315292776784
-3.84e-05,2.927989957895754
-3.839e-05,2.909646626497048
-3.838e-05,2.924321291616011
-3.837e-05,2.931658624175497
-3.836e-05,2.931658624175497
-3.835e-05,2.927989957895759
-3.834e-05,2.938995956734982
-3.833e-05,2.909646626497041
-3.832e-05,2.931658624175497
-3.831e-05,2.931658624175495
-3.83e-05,2.927989957895756
-3.829e-05,2.938995956734982
-3.828e-05,2.916983959056526
-3.827e-05,2.916983959056526
-3.826e-05,2.927989957895749
-3.825e-05,2.935327290455239
-3.824e-05,2.924321291616011
-3.823e-05,2.909646626497041
-3.822e-05,2.927989957895746
-3.821e-05,2.931658624175497
-3.82e-05,2.920652625336269
-3.819e-05,2.894971961378071
-3.818e-05,2.92798995789575
-3.817e-05,2.920652625336269
-3.816e-05,2.920652625336269
-3.815e-05,2.927989957895754
-3.814e-05,2.9316586241755
-3.813e-05,2.938995956734978
-3.812e-05,2.924321291616011
-3.811e-05,2.916983959056526
-3.81e-05,2.916983959056526
-3.809e-05,2.913315292776785
-3.808e-05,2.916983959056526
-3.807e-05,2.938995956734982
-3.806e-05,2.916983959056526
-3.805e-05,2.920652625336267
-3.804e-05,2.916983959056526
-3.803e-05,2.927989957895754
-3.802e-05,2.924321291616011
-3.801e-05,2.92432129161601
-3.8e-05,2.920652625336269
-3.799e-05,2.927989957895754
-3.798e-05,2.927989957895754
-3.797e-05,2.909646626497053
-3.796e-05,2.935327290455228
-3.795e-05,2.916983959056526
-3.794e-05,2.924321291616011
-3.793e-05,2.920652625336269
-3.792e-05,2.920652625336269
-3.791e-05,2.913315292776784
-3.79e-05,2.931658624175497
-3.789e-05,2.905977960217299
-3.788e-05,2.924321291616003
-3.787e-05,2.935327290455239
-3.786e-05,2.905977960217299
-3.785e-05,2.909646626497041
-3.784e-05,2.927989957895746
-3.783e-05,2.909646626497041
-3.782e-05,2.935327290455239
-3.781e-05,2.927989957895754
-3.78e-05,2.927989957895759
-3.779e-05,2.938995956734977
-3.778e-05,2.913315292776784
-3.777e-05,2.920652625336269
-3.776e-05,2.916983959056533
-3.775e-05,2.93165862417549
-3.774e-05,2.942664623014724
-3.773e-05,2.931658624175497
-3.772e-05,2.920652625336269
-3.771e-05,2.920652625336269
-3.77e-05,2.920652625336269
-3.769e-05,2.909646626497041
-3.768e-05,2.931658624175497
-3.767e-05,2.913315292776782
-3.766e-05,2.909646626497041
-3.765e-05,2.927989957895754
-3.764e-05,2.935327290455239
-3.763e-05,2.931658624175492
-3.762e-05,2.920652625336274
-3.761e-05,2.909646626497041
-3.76e-05,2.909646626497041
-3.759e-05,2.931658624175495
-3.758e-05,2.927989957895756
-3.757e-05,2.924321291616011
-3.756e-05,2.909646626497041
-3.755e-05,2.924321291616011
-3.754e-05,2.909646626497048
-3.753e-05,2.931658624175497
-3.752e-05,2.909646626497041
-3.751e-05,2.924321291616011
-3.75e-05,2.920652625336276
-3.749e-05,2.935327290455239
-3.748e-05,2.916983959056526
-3.747e-05,2.909646626497041
-3.746e-05,2.916983959056526
-3.745e-05,2.916983959056526
-3.744e-05,2.931658624175497
-3.743e-05,2.916983959056526
-3.742e-05,2.924321291616008
-3.741e-05,2.91698395905653
-3.74e-05,2.920652625336269
-3.739e-05,2.909646626497041
-3.738e-05,2.927989957895754
-3.737e-05,2.916983959056531
-3.736e-05,2.942664623014724
-3.735e-05,2.920652625336269
-3.734e-05,2.913315292776784
-3.733e-05,2.91331529277679
-3.732e-05,2.927989957895754
-3.731e-05,2.902309293937556
-3.73e-05,2.916983959056526
-3.729e-05,2.909646626497048
-3.728e-05,2.924321291616011
-3.727e-05,2.927989957895754
-3.726e-05,2.924321291616011
-3.725e-05,2.891303295098341
-3.724e-05,2.920652625336256
-3.723e-05,2.891303295098328
-3.722e-05,2.920652625336269
-3.721e-05,2.905977960217299
-3.72e-05,2.927989957895744
-3.719e-05,2.916983959056526
-3.718e-05,2.905977960217299
-3.717e-05,2.913315292776784
-3.716e-05,2.909646626497043
-3.715e-05,2.916983959056526
-3.714e-05,2.920652625336269
-3.713e-05,2.905977960217299
-3.712e-05,2.909646626497043
-3.711e-05,2.913315292776784
-3.71e-05,2.909646626497041
-3.709e-05,2.902309293937556
-3.708e-05,2.942664623014709
-3.707e-05,2.909646626497056
-3.706e-05,2.920652625336269
-3.705e-05,2.909646626497041
-3.704e-05,2.898640627657813
-3.703e-05,2.913315292776777
-3.702e-05,2.927989957895754
-3.701e-05,2.920652625336269
-3.7e-05,2.905977960217299
-3.699e-05,2.90964662649704
-3.698e-05,2.920652625336269
-3.697e-05,2.905977960217299
-3.696e-05,2.894971961378071
-3.695e-05,2.916983959056509
-3.694e-05,2.8802972962591
-3.693e-05,2.289642025220543
-3.692e-05,2.649171320635317
-3.691e-05,2.649171320635432
-3.69e-05,2.902309293937441
-3.689e-05,2.938995956734982
-3.688e-05,2.806923970664248
-3.687e-05,2.905977960217319
-3.686e-05,2.950001955574189
-3.685e-05,2.909646626497041
-3.684e-05,2.950001955574209
-3.683e-05,2.924321291616011
-3.682e-05,2.961007954413421
-3.681e-05,2.953670621853952
-3.68e-05,2.902309293937556
-3.679e-05,2.96467662069318
-3.678e-05,2.990357284651341
-3.677e-05,2.909646626497041
-3.676e-05,2.957339288133695
-3.675e-05,2.97935128581215
-3.674e-05,2.931658624175492
-3.673e-05,2.920652625336274
-3.672e-05,2.97935128581215
-3.671e-05,2.957339288133695
-3.67e-05,2.924321291616035
-3.669e-05,2.975682619532384
-3.668e-05,2.953670621853952
-3.667e-05,2.957339288133695
-3.666e-05,2.97935128581215
-3.665e-05,3.012369282329819
-3.664e-05,2.972013953252665
-3.663e-05,2.990357284651378
-3.662e-05,2.990357284651378
-3.661e-05,2.968345286972916
-3.66e-05,2.953670621853952
-3.659e-05,2.946333289294467
-3.658e-05,2.942664623014724
-3.657e-05,2.938995956734975
-3.656e-05,2.924321291616018
-3.655e-05,2.924321291616011
-3.654e-05,2.916983959056526
-3.653e-05,2.902309293937566
-3.652e-05,2.924321291616001
-3.651e-05,2.946333289294467
-3.65e-05,2.924321291616011
-3.649e-05,2.924321291616011
-3.648e-05,2.924321291616011
-3.647e-05,2.924321291616011
-3.646e-05,2.927989957895754
-3.645e-05,2.927989957895754
-3.644e-05,2.909646626497052
-3.643e-05,2.931658624175497
-3.642e-05,2.916983959056526
-3.641e-05,2.927989957895754
-3.64e-05,2.924321291616013
-3.639e-05,2.927989957895754
-3.638e-05,2.920652625336269
-3.637e-05,2.916983959056526
-3.636e-05,2.92798995789575
-3.635e-05,2.920652625336273
-3.634e-05,2.931658624175497
-3.633e-05,2.909646626497041
-3.632e-05,2.924321291616011
-3.631e-05,2.913315292776788
-3.63e-05,2.916983959056526
-3.629e-05,2.920652625336269
-3.628e-05,2.924321291616011
-3.627e-05,2.924321291616005
-3.626e-05,2.909646626497041
-3.625e-05,2.916983959056526
-3.624e-05,2.920652625336269
-3.623e-05,2.916983959056528
-3.622e-05,2.920652625336269
-3.621e-05,2.916983959056526
-3.62e-05,2.935327290455239
-3.619e-05,2.916983959056525
-3.618e-05,2.913315292776785
-3.617e-05,2.931658624175497
-3.616e-05,2.913315292776784
-3.615e-05,2.920652625336269
-3.614e-05,2.931658624175492
-3.613e-05,2.924321291616011
-3.612e-05,2.916983959056526
-3.611e-05,2.909646626497041
-3.61e-05,2.916983959056523
-3.609e-05,2.916983959056526
-3.608e-05,2.938995956734982
-3.607e-05,2.909646626497041
-3.606e-05,2.931658624175488
-3.605e-05,2.913315292776784
-3.604e-05,2.916983959056526
-3.603e-05,2.924321291616011
-3.602e-05,2.92798995789575
-3.601e-05,2.920652625336273
-3.6e-05,2.938995956734982
-3.599e-05,2.913315292776784
-3.598e-05,2.920652625336269
-3.597e-05,2.920652625336269
-3.596e-05,2.909646626497041
-3.595e-05,2.924321291616011
-3.594e-05,2.931658624175497
-3.593e-05,2.909646626497052
-3.592e-05,2.898640627657813
-3.591e-05,2.902309293937556
-3.59e-05,2.913315292776784
-3.589e-05,2.905977960217303
-3.588e-05,2.916983959056526
-3.587e-05,2.916983959056526
-3.586e-05,2.909646626497041
-3.585e-05,2.902309293937561
-3.584e-05,2.913315292776779
-3.583e-05,2.913315292776784
-3.582e-05,2.920652625336269
-3.581e-05,2.913315292776784
-3.58e-05,2.913315292776784
-3.579e-05,2.920652625336269
-3.578e-05,2.920652625336269
-3.577e-05,2.924321291616011
-3.576e-05,2.909646626497048
-3.575e-05,2.913315292776784
-3.574e-05,2.916983959056526
-3.573e-05,2.909646626497041
-3.572e-05,2.916983959056531
-3.571e-05,2.927989957895754
-3.57e-05,2.924321291616011
-3.569e-05,2.931658624175497
-3.568e-05,2.905977960217305
-3.567e-05,2.920652625336262
-3.566e-05,2.924321291616011
-3.565e-05,2.916983959056526
-3.564e-05,2.913315292776787
-3.563e-05,2.920652625336265
-3.562e-05,2.920652625336269
-3.561e-05,2.909646626497041
-3.56e-05,2.905977960217299
-3.559e-05,2.91331529277678
-3.558e-05,2.924321291616011
-3.557e-05,2.916983959056526
-3.556e-05,2.927989957895754
-3.555e-05,2.916983959056523
-3.554e-05,2.909646626497041
-3.553e-05,2.927989957895754
-3.552e-05,2.924321291616011
-3.551e-05,2.920652625336271
-3.55e-05,2.92432129161601
-3.549e-05,2.927989957895754
-3.548e-05,2.905977960217299
-3.547e-05,2.916983959056533
-3.546e-05,2.93165862417549
-3.545e-05,2.916983959056526
-3.544e-05,2.913315292776784
-3.543e-05,2.913315292776784
-3.542e-05,2.927989957895747
-3.541e-05,2.924321291616011
-3.54e-05,2.916983959056526
-3.539e-05,2.909646626497041
-3.538e-05,2.924321291616016
-3.537e-05,2.935327290455239
-3.536e-05,2.913315292776784
-3.535e-05,2.927989957895754
-3.534e-05,2.924321291616011
-3.533e-05,2.924321291616011
-3.532e-05,2.935327290455239
-3.531e-05,2.913315292776784
-3.53e-05,2.931658624175492
-3.529e-05,2.920652625336274
-3.528e-05,2.931658624175497
-3.527e-05,2.913315292776784
-3.526e-05,2.913315292776784
-3.525e-05,2.935327290455229
-3.524e-05,2.927989957895754
-3.523e-05,2.920652625336269
-3.522e-05,2.916983959056526
-3.521e-05,2.927989957895752
-3.52e-05,2.924321291616011
-3.519e-05,2.924321291616011
-3.518e-05,2.927989957895754
-3.517e-05,2.916983959056528
-3.516e-05,2.920652625336269
-3.515e-05,2.913315292776784
-3.514e-05,2.924321291616011
-3.513e-05,2.913315292776782
-3.512e-05,2.909646626497043
-3.511e-05,2.920652625336269
-3.51e-05,2.920652625336269
-3.509e-05,2.935327290455239
-3.508e-05,2.935327290455239
-3.507e-05,2.931658624175497
-3.506e-05,2.924321291616011
-3.505e-05,2.924321291616011
-3.504e-05,2.938995956734975
-3.503e-05,2.916983959056526
-3.502e-05,2.920652625336269
-3.501e-05,2.916983959056526
-3.5e-05,2.913315292776784
-3.499e-05,2.913315292776784
-3.498e-05,2.927989957895754
-3.497e-05,2.916983959056526
-3.496e-05,2.916983959056537
-3.495e-05,2.938995956734971
-3.494e-05,2.920652625336269
-3.493e-05,2.931658624175497
-3.492e-05,2.916983959056531
-3.491e-05,2.927989957895749
-3.49e-05,2.913315292776784
-3.489e-05,2.927989957895754
-3.488e-05,2.920652625336269
-3.487e-05,2.938995956734973
-3.486e-05,2.938995956734982
-3.485e-05,2.913315292776784
-3.484e-05,2.931658624175497
-3.483e-05,2.91331529277679
-3.482e-05,2.927989957895754
-3.481e-05,2.931658624175497
-3.48e-05,2.935327290455239
-3.479e-05,2.913315292776792
-3.478e-05,2.931658624175488
-3.477e-05,2.931658624175497
-3.476e-05,2.927989957895754
-3.475e-05,2.920652625336269
-3.474e-05,2.920652625336269
-3.473e-05,2.916983959056526
-3.472e-05,2.920652625336269
-3.471e-05,2.916983959056526
-3.47e-05,2.920652625336267
-3.469e-05,2.920652625336269
-3.468e-05,2.920652625336269
-3.467e-05,2.938995956734982
-3.466e-05,2.920652625336267
-3.465e-05,2.916983959056526
-3.464e-05,2.931658624175497
-3.463e-05,2.924321291616011
-3.462e-05,2.931658624175495
-3.461e-05,2.927989957895756
-3.46e-05,2.931658624175497
-3.459e-05,2.950001955574209
-3.458e-05,2.938995956734978
-3.457e-05,2.9316586241755
-3.456e-05,2.924321291616011
-3.455e-05,2.931658624175497
-3.454e-05,2.913315292776784
-3.453e-05,2.913315292776784
-3.452e-05,2.916983959056526
-3.451e-05,2.920652625336269
-3.45e-05,2.920652625336269
-3.449e-05,2.927989957895752
-3.448e-05,2.924321291616011
-3.447e-05,2.935327290455239
-3.446e-05,2.916983959056526
-3.445e-05,2.938995956734978
-3.444e-05,2.9316586241755
-3.443e-05,2.931658624175497
-3.442e-05,2.916983959056526
-3.441e-05,2.927989957895756
-3.44e-05,2.931658624175495
-3.439e-05,2.913315292776784
-3.438e-05,2.927989957895754
-3.437e-05,2.942664623014724
-3.436e-05,2.927989957895761
-3.435e-05,2.916983959056526
-3.434e-05,2.938995956734982
-3.433e-05,2.938995956734982
-3.432e-05,2.931658624175493
-3.431e-05,2.924321291616011
-3.43e-05,2.920652625336269
-3.429e-05,2.913315292776784
-3.428e-05,2.938995956734977
-3.427e-05,2.927989957895754
-3.426e-05,2.935327290455239
-3.425e-05,2.920652625336269
-3.424e-05,2.920652625336282
-3.423e-05,2.950001955574196
-3.422e-05,2.927989957895754
-3.421e-05,2.931658624175497
-3.42e-05,2.887634628818585
-3.419e-05,2.557454663641902
