TP2/Mediciones/1127/Vref-Vref1127V.csv

#Digilent WaveForms Oscilloscope Acquisition
#Device Name: Discovery2
#Serial Number: SN:210321B0E03A
#Date Time: 2021-06-21 15:00:57.874
#Sample rate: 1e+08Hz
#Samples: 8192
#Trigger: Source: Channel 1 Type: Edge Condition: Rising Level: 500 mV Hyst.: Auto HoldOff: 100 ns
#Channel 1: Range: 5 V/div Offset: 0 V Attenuation: 1 X
#Power Supplies: ON
#Positive Supply: ON
#Voltage: 1.128 V
#Negative Supply: OFF
#Voltage: -1 V

-4.045794642857143e-05,1.130343480821884
-4.044794642857143e-05,1.126674814542141
-4.043794642857142e-05,1.130343480821886
-4.042794642857143e-05,1.134012147101625
-4.041794642857143e-05,1.134012147101626
-4.040794642857143e-05,1.130343480821884
-4.039794642857142e-05,1.134012147101626
-4.038794642857143e-05,1.119337481982663
-4.037794642857143e-05,1.126674814542141
-4.036794642857143e-05,1.119337481982656
-4.035794642857143e-05,1.126674814542141
-4.034794642857142e-05,1.119337481982654
-4.033794642857143e-05,1.115668815702914
-4.032794642857143e-05,1.126674814542141
-4.031794642857143e-05,1.130343480821884
-4.030794642857142e-05,1.112000149423166
-4.029794642857143e-05,1.100994150583948
-4.028794642857143e-05,1.130343480821884
-4.027794642857143e-05,1.137680813381369
-4.026794642857142e-05,1.123006148262399
-4.025794642857143e-05,1.123006148262399
-4.024794642857143e-05,1.115668815702914
-4.023794642857143e-05,1.115668815702914
-4.022794642857142e-05,1.115668815702914
-4.021794642857143e-05,1.123006148262395
-4.020794642857143e-05,1.126674814542141
-4.019794642857143e-05,1.119337481982656
-4.018794642857143e-05,1.130343480821884
-4.017794642857142e-05,1.137680813381364
-4.016794642857143e-05,1.126674814542141
-4.015794642857143e-05,1.126674814542141
-4.014794642857143e-05,1.130343480821884
-4.013794642857142e-05,1.137680813381371
-4.012794642857143e-05,1.14134947966111
-4.011794642857143e-05,1.123006148262399
-4.010794642857143e-05,1.119337481982656
-4.009794642857142e-05,1.119337481982656
-4.008794642857143e-05,1.119337481982656
-4.007794642857143e-05,1.115668815702914
-4.006794642857143e-05,1.119337481982656
-4.005794642857142e-05,1.130343480821884
-4.004794642857143e-05,1.126674814542143
-4.003794642857143e-05,1.126674814542141
-4.002794642857143e-05,1.130343480821884
-4.001794642857142e-05,1.137680813381369
-4.000794642857142e-05,1.126674814542143
-3.999794642857143e-05,1.130343480821884
-3.998794642857143e-05,1.137680813381369
-3.997794642857143e-05,1.115668815702914
-3.996794642857142e-05,1.126674814542138
-3.995794642857143e-05,1.119337481982656
-3.994794642857143e-05,1.126674814542141
-3.993794642857143e-05,1.115668815702914
-3.992794642857142e-05,1.12667481454214
-3.991794642857143e-05,1.123006148262401
-3.990794642857143e-05,1.126674814542141
-3.989794642857143e-05,1.126674814542141
-3.988794642857142e-05,1.119337481982656
-3.987794642857143e-05,1.13401214710162
-3.986794642857143e-05,1.134012147101626
-3.985794642857143e-05,1.134012147101626
-3.984794642857142e-05,1.126674814542141
-3.983794642857142e-05,1.12667481454214
-3.982794642857143e-05,1.123006148262399
-3.981794642857143e-05,1.126674814542141
-3.980794642857143e-05,1.126674814542141
-3.979794642857142e-05,1.123006148262394
-3.978794642857143e-05,1.112000149423171
-3.977794642857143e-05,1.115668815702914
-3.976794642857143e-05,1.119337481982656
-3.975794642857142e-05,1.123006148262401
-3.974794642857143e-05,1.12667481454214
-3.973794642857143e-05,1.134012147101626
-3.972794642857143e-05,1.119337481982656
-3.971794642857142e-05,1.137680813381369
-3.970794642857143e-05,1.130343480821887
-3.969794642857143e-05,1.137680813381369
-3.968794642857143e-05,1.112000149423171
-3.967794642857142e-05,1.134012147101626
-3.966794642857143e-05,1.126674814542145
-3.965794642857143e-05,1.130343480821884
-3.964794642857143e-05,1.123006148262399
-3.963794642857143e-05,1.134012147101626
-3.962794642857142e-05,1.123006148262399
-3.961794642857143e-05,1.123006148262399
-3.960794642857143e-05,1.112000149423171
-3.959794642857143e-05,0.9359041679955264
-3.958794642857142e-05,-0.08398505777271054
-3.957794642857143e-05,0.3635922283554787
-3.956794642857143e-05,1.361469456445667
-3.955794642857143e-05,0.8845428400791302
-3.954794642857142e-05,1.937450062364932
-3.953794642857143e-05,1.229397470375256
-3.952794642857143e-05,1.064307487786517
-3.951794642857143e-05,1.123006148262399
-3.950794642857142e-05,1.112000149423171
-3.949794642857143e-05,1.394487452963222
-3.948794642857143e-05,1.06797615406626
-3.947794642857143e-05,1.299102129690043
-3.946794642857143e-05,1.229397470374934
-3.945794642857142e-05,1.137680813381376
-3.944794642857143e-05,1.15235547850034
-3.943794642857143e-05,1.170698809899053
-3.942794642857143e-05,1.108331483143428
-3.941794642857142e-05,1.145018145940886
-3.940794642857143e-05,1.214722805255932
-3.939794642857143e-05,1.056970155227032
-3.938794642857143e-05,1.196379473857251
-3.937794642857142e-05,1.15235547850032
-3.936794642857143e-05,1.108331483143448
-3.935794642857143e-05,1.178036142458538
-3.934794642857143e-05,1.126674814542141
-3.933794642857142e-05,1.134012147101626
-3.932794642857143e-05,1.185373475018
-3.931794642857143e-05,1.108331483143428
-3.930794642857143e-05,1.15235547850034
-3.929794642857143e-05,1.145018145940854
-3.928794642857142e-05,1.130343480821894
-3.927794642857143e-05,1.15235547850034
-3.926794642857143e-05,1.145018145940854
-3.925794642857143e-05,1.134012147101626
-3.924794642857142e-05,1.141349479661107
-3.923794642857143e-05,1.130343480821889
-3.922794642857143e-05,1.126674814542141
-3.921794642857143e-05,1.159692811059825
-3.920794642857142e-05,1.126674814542145
-3.919794642857143e-05,1.134012147101623
-3.918794642857143e-05,1.15235547850034
-3.917794642857143e-05,1.130343480821884
-3.916794642857142e-05,1.145018145940854
-3.915794642857143e-05,1.134012147101632
-3.914794642857143e-05,1.123006148262399
-3.913794642857143e-05,1.15235547850034
-3.912794642857143e-05,1.130343480821884
-3.911794642857142e-05,1.123006148262404
-3.910794642857143e-05,1.134012147101626
-3.909794642857143e-05,1.123006148262399
-3.908794642857143e-05,1.130343480821884
-3.907794642857142e-05,1.141349479661103
-3.906794642857143e-05,1.123006148262407
-3.905794642857143e-05,1.130343480821884
-3.904794642857143e-05,1.141349479661112
-3.903794642857142e-05,1.137680813381367
-3.902794642857143e-05,1.134012147101628
-3.901794642857143e-05,1.137680813381369
-3.900794642857143e-05,1.112000149423171
-3.899794642857142e-05,1.123006148262399
-3.898794642857143e-05,1.134012147101621
-3.897794642857143e-05,1.100994150583943
-3.896794642857143e-05,1.097325484304201
-3.895794642857142e-05,1.078982152905488
-3.894794642857142e-05,1.060638821506777
-3.893794642857143e-05,1.064307487786517
-3.892794642857143e-05,1.056970155227032
-3.891794642857143e-05,1.097325484304201
-3.890794642857142e-05,1.137680813381384
-3.889794642857143e-05,1.170698809899053
-3.888794642857143e-05,1.119337481982656
-3.887794642857143e-05,1.104662816863686
-3.886794642857142e-05,1.148686812220599
-3.885794642857143e-05,1.152355478500338
-3.884794642857143e-05,1.145018145940854
-3.883794642857143e-05,1.097325484304201
-3.882794642857142e-05,1.130343480821884
-3.881794642857143e-05,1.159692811059811
-3.880794642857143e-05,1.145018145940854
-3.879794642857143e-05,1.134012147101626
-3.878794642857142e-05,1.119337481982656
-3.877794642857142e-05,1.156024144780069
-3.876794642857143e-05,1.126674814542141
-3.875794642857143e-05,1.104662816863686
-3.874794642857143e-05,1.137680813381369
-3.873794642857142e-05,1.148686812220584
-3.872794642857143e-05,1.119337481982656
-3.871794642857143e-05,1.104662816863686
-3.870794642857143e-05,1.137680813381369
-3.869794642857142e-05,1.152355478500324
-3.868794642857143e-05,1.119337481982671
-3.867794642857143e-05,1.100994150583943
-3.866794642857143e-05,1.126674814542141
-3.865794642857142e-05,1.156024144780082
-3.864794642857143e-05,1.119337481982673
-3.863794642857143e-05,1.108331483143428
-3.862794642857143e-05,1.137680813381369
-3.861794642857142e-05,1.130343480821884
-3.860794642857143e-05,1.112000149423179
-3.859794642857143e-05,1.141349479661112
-3.858794642857143e-05,1.141349479661112
-3.857794642857143e-05,1.123006148262399
-3.856794642857142e-05,1.134012147101626
-3.855794642857143e-05,1.134012147101626
-3.854794642857143e-05,1.130343480821884
-3.853794642857143e-05,1.119337481982656
-3.852794642857142e-05,1.137680813381364
-3.851794642857143e-05,1.126674814542147
-3.850794642857143e-05,1.119337481982656
-3.849794642857143e-05,1.141349479661112
-3.848794642857142e-05,1.119337481982663
-3.847794642857143e-05,1.13401214710162
-3.846794642857143e-05,1.134012147101626
-3.845794642857143e-05,1.134012147101626
-3.844794642857142e-05,1.104662816863686
-3.843794642857143e-05,1.126674814542131
-3.842794642857143e-05,1.123006148262399
-3.841794642857143e-05,1.108331483143428
-3.840794642857143e-05,1.130343480821884
-3.839794642857142e-05,1.126674814542138
-3.838794642857143e-05,1.119337481982656
-3.837794642857143e-05,1.134012147101626
-3.836794642857143e-05,1.137680813381369
-3.835794642857142e-05,1.130343480821887
-3.834794642857143e-05,1.137680813381366
-3.833794642857143e-05,1.134012147101626
-3.832794642857143e-05,1.134012147101626
-3.831794642857142e-05,1.123006148262397
-3.830794642857143e-05,1.119337481982658
-3.829794642857143e-05,1.123006148262399
-3.828794642857143e-05,1.134012147101626
-3.827794642857142e-05,1.119337481982656
-3.826794642857143e-05,1.126674814542138
-3.825794642857143e-05,1.141349479661112
-3.824794642857143e-05,1.137680813381369
-3.823794642857143e-05,1.126674814542141
-3.822794642857142e-05,1.123006148262401
-3.821794642857143e-05,1.126674814542141
-3.820794642857143e-05,1.112000149423171
-3.819794642857143e-05,1.130343480821884
-3.818794642857142e-05,1.119337481982668
-3.817794642857143e-05,1.145018145940843
-3.816794642857143e-05,1.137680813381369
-3.815794642857143e-05,1.123006148262399
-3.814794642857142e-05,1.134012147101628
-3.813794642857143e-05,1.137680813381367
-3.812794642857143e-05,1.126674814542141
-3.811794642857143e-05,1.130343480821884
-3.810794642857142e-05,1.126674814542141
-3.809794642857143e-05,1.123006148262401
-3.808794642857143e-05,1.123006148262399
-3.807794642857143e-05,1.112000149423171
-3.806794642857143e-05,1.104662816863686
-3.805794642857142e-05,1.12667481454213
-3.804794642857143e-05,1.100994150583943
-3.803794642857143e-05,1.104662816863686
-3.802794642857143e-05,1.112000149423171
-3.801794642857142e-05,1.089988151744734
-3.800794642857143e-05,1.130343480821866
-3.799794642857143e-05,1.097325484304201
-3.798794642857143e-05,1.089988151744715
-3.797794642857142e-05,1.104662816863676
-3.796794642857143e-05,1.08265081918524
-3.795794642857143e-05,1.093656818024458
-3.794794642857143e-05,1.100994150583943
-3.793794642857142e-05,1.078982152905488
-3.792794642857143e-05,1.082650819185228
-3.791794642857143e-05,1.086319485464973
-3.790794642857143e-05,1.086319485464973
-3.789794642857142e-05,1.08265081918523
-3.788794642857142e-05,1.071644820346006
-3.787794642857143e-05,1.078982152905488
-3.786794642857143e-05,1.075313486625745
-3.785794642857143e-05,1.06797615406626
-3.784794642857142e-05,1.067976154066266
-3.783794642857143e-05,1.08265081918523
-3.782794642857143e-05,1.078982152905488
-3.781794642857143e-05,1.078982152905488
-3.780794642857142e-05,1.078982152905486
-3.779794642857143e-05,1.075313486625747
-3.778794642857143e-05,1.086319485464973
-3.777794642857143e-05,1.06797615406626
-3.776794642857142e-05,1.056970155227032
-3.775794642857143e-05,1.082650819185218
-3.774794642857143e-05,1.130343480821884
-3.773794642857143e-05,1.137680813381369
-3.772794642857142e-05,1.126674814542141
-3.771794642857143e-05,1.115668815702919
-3.770794642857143e-05,1.115668815702914
-3.769794642857143e-05,1.097325484304201
-3.768794642857143e-05,1.119337481982656
-3.767794642857142e-05,1.112000149423178
-3.766794642857143e-05,1.126674814542141
-3.765794642857143e-05,1.119337481982656
-3.764794642857143e-05,1.093656818024458
-3.763794642857142e-05,-0.1757017147665239
-3.762794642857143e-05,-0.2747557043194838
-3.761794642857143e-05,1.823721407693234
-3.760794642857143e-05,0.1911649132077803
-3.759794642857142e-05,1.636619427426362
-3.758794642857143e-05,0.7598081865682808
-3.757794642857143e-05,1.064307487786517
-3.756794642857143e-05,1.530228105313826
-3.755794642857142e-05,0.5690375400212673
-3.754794642857143e-05,1.768691413496549
-3.753794642857143e-05,0.8111695144842783
-3.752794642857143e-05,1.328451459927984
-3.751794642857143e-05,1.306439462249528
-3.750794642857142e-05,0.9542474993944648
-3.749794642857143e-05,1.449517447159489
-3.748794642857143e-05,1.001940161030893
-3.747794642857143e-05,1.321114127368499
-3.746794642857142e-05,1.112000149423226
-3.745794642857143e-05,1.233066136654621
-3.744794642857143e-05,1.203716806416736
-3.743794642857143e-05,1.134012147101626
-3.742794642857142e-05,1.299102129689933
-3.741794642857143e-05,1.056970155227142
-3.740794642857143e-05,1.306439462249528
-3.739794642857143e-05,1.16703014361931
-3.738794642857142e-05,1.203716806416736
-3.737794642857143e-05,1.332120126207668
-3.736794642857143e-05,1.178036142458538
-3.735794642857143e-05,1.328451459927984
-3.734794642857143e-05,1.240403469214162
-3.733794642857142e-05,1.229397470374954
-3.732794642857143e-05,1.273421465731845
-3.731794642857143e-05,1.189042141297765
-3.730794642857143e-05,1.214722805255964
-3.729794642857142e-05,1.189042141297771
-3.728794642857143e-05,1.200048140136988
-3.727794642857143e-05,1.145018145940854
-3.726794642857143e-05,1.170698809899053
-3.725794642857142e-05,1.145018145940844
-3.724794642857143e-05,1.123006148262409
-3.723794642857143e-05,1.159692811059825
-3.722794642857143e-05,1.119337481982656
-3.721794642857142e-05,1.145018145940854
-3.720794642857143e-05,1.137680813381373
-3.719794642857143e-05,1.112000149423171
-3.718794642857143e-05,1.159692811059825
-3.717794642857143e-05,1.115668815702914
-3.716794642857142e-05,1.130343480821892
-3.715794642857143e-05,1.148686812220597
-3.714794642857143e-05,1.126674814542141
-3.713794642857143e-05,1.137680813381369
-3.712794642857142e-05,1.141349479661107
-3.711794642857143e-05,1.130343480821889
-3.710794642857143e-05,1.130343480821884
-3.709794642857143e-05,1.148686812220597
-3.708794642857142e-05,1.119337481982665
-3.707794642857143e-05,1.137680813381361
-3.706794642857143e-05,1.137680813381369
-3.705794642857143e-05,1.134012147101626
-3.704794642857142e-05,1.148686812220597
-3.703794642857143e-05,1.130343480821892
-3.702794642857143e-05,1.123006148262399
-3.701794642857143e-05,1.130343480821884
-3.700794642857142e-05,1.123006148262399
-3.699794642857142e-05,1.141349479661118
-3.698794642857143e-05,1.156024144780082
-3.697794642857143e-05,1.141349479661112
-3.696794642857143e-05,1.130343480821884
-3.695794642857142e-05,1.123006148262404
-3.694794642857143e-05,1.134012147101621
-3.693794642857143e-05,1.134012147101626
-3.692794642857143e-05,1.130343480821884
-3.691794642857142e-05,1.14134947966111
-3.690794642857143e-05,1.137680813381371
-3.689794642857143e-05,1.141349479661112
-3.688794642857143e-05,1.134012147101626
-3.687794642857142e-05,1.126674814542141
-3.686794642857143e-05,1.130343480821882
-3.685794642857143e-05,1.123006148262399
-3.684794642857143e-05,1.156024144780082
-3.683794642857142e-05,1.126674814542141
-3.682794642857142e-05,1.130343480821891
-3.681794642857143e-05,1.145018145940854
-3.680794642857143e-05,1.126674814542141
-3.679794642857143e-05,1.141349479661112
-3.678794642857142e-05,1.137680813381371
-3.677794642857143e-05,1.141349479661112
-3.676794642857143e-05,1.130343480821884
-3.675794642857143e-05,1.134012147101626
-3.674794642857142e-05,1.130343480821884
-3.673794642857143e-05,1.130343480821884
-3.672794642857143e-05,1.134012147101626
-3.671794642857143e-05,1.126674814542141
-3.670794642857142e-05,1.137680813381369
-3.669794642857143e-05,1.14134947966111
-3.668794642857143e-05,1.130343480821884
-3.667794642857143e-05,1.115668815702914
-3.666794642857142e-05,1.15235547850034
-3.665794642857143e-05,1.137680813381376
-3.664794642857143e-05,1.130343480821884
-3.663794642857143e-05,1.126674814542141
-3.662794642857143e-05,1.126674814542141
-3.661794642857142e-05,1.126674814542141
-3.660794642857143e-05,1.126674814542141
-3.659794642857143e-05,1.130343480821884
-3.658794642857143e-05,1.123006148262399
-3.657794642857142e-05,1.134012147101626
-3.656794642857143e-05,1.134012147101626
-3.655794642857143e-05,1.119337481982656
-3.654794642857143e-05,1.134012147101626
-3.653794642857142e-05,1.137680813381369
-3.652794642857143e-05,1.130343480821887
-3.651794642857143e-05,1.141349479661112
-3.650794642857143e-05,1.123006148262399
-3.649794642857142e-05,1.115668815702914
-3.648794642857143e-05,1.134012147101618
-3.647794642857143e-05,1.134012147101626
-3.646794642857143e-05,1.130343480821884
-3.645794642857143e-05,1.119337481982656
-3.644794642857142e-05,1.14134947966111
-3.643794642857143e-05,1.137680813381369
-3.642794642857143e-05,1.145018145940854
-3.641794642857143e-05,1.119337481982656
-3.640794642857142e-05,1.126674814542145
-3.639794642857143e-05,1.134012147101623
-3.638794642857143e-05,1.130343480821884
-3.637794642857143e-05,1.148686812220597
-3.636794642857142e-05,1.13401214710162
-3.635794642857143e-05,1.119337481982663
-3.634794642857143e-05,1.130343480821884
-3.633794642857143e-05,1.137680813381369
-3.632794642857142e-05,1.123006148262399
-3.631794642857143e-05,1.148686812220585
-3.630794642857143e-05,1.137680813381369
-3.629794642857143e-05,1.126674814542141
-3.628794642857143e-05,1.134012147101626
-3.627794642857142e-05,1.130343480821884
-3.626794642857143e-05,1.130343480821884
-3.625794642857143e-05,1.137680813381369
-3.624794642857143e-05,1.130343480821884
-3.623794642857142e-05,1.137680813381363
-3.622794642857143e-05,1.123006148262405
-3.621794642857143e-05,1.141349479661112
-3.620794642857143e-05,1.123006148262399
-3.619794642857142e-05,1.130343480821884
-3.618794642857143e-05,1.130343480821884
-3.617794642857143e-05,1.130343480821884
-3.616794642857143e-05,1.130343480821884
-3.615794642857142e-05,1.134012147101626
-3.614794642857143e-05,1.137680813381367
-3.613794642857143e-05,1.130343480821884
-3.612794642857143e-05,1.126674814542141
-3.611794642857143e-05,1.130343480821884
-3.610794642857142e-05,1.137680813381366
-3.609794642857143e-05,1.130343480821884
-3.608794642857143e-05,1.130343480821884
-3.607794642857143e-05,1.134012147101626
-3.606794642857142e-05,1.134012147101635
-3.605794642857143e-05,1.152355478500331
-3.604794642857143e-05,1.134012147101626
-3.603794642857143e-05,1.141349479661112
-3.602794642857142e-05,1.14134947966111
-3.601794642857143e-05,1.137680813381371
-3.600794642857143e-05,1.134012147101626
-3.599794642857143e-05,1.126674814542141
-3.598794642857142e-05,1.141349479661112
-3.597794642857143e-05,1.145018145940853
-3.596794642857143e-05,1.141349479661112
-3.595794642857143e-05,1.130343480821884
-3.594794642857142e-05,1.130343480821884
-3.593794642857142e-05,1.123006148262405
-3.592794642857143e-05,1.137680813381369
-3.591794642857143e-05,1.137680813381369
-3.590794642857143e-05,1.134012147101626
-3.589794642857142e-05,1.141349479661108
-3.588794642857143e-05,1.134012147101626
-3.587794642857143e-05,1.130343480821884
-3.586794642857143e-05,1.156024144780082
-3.585794642857142e-05,1.137680813381364
-3.584794642857143e-05,1.126674814542147
-3.583794642857143e-05,1.130343480821884
-3.582794642857143e-05,1.137680813381369
-3.581794642857142e-05,1.126674814542141
-3.580794642857143e-05,1.137680813381364
-3.579794642857143e-05,1.145018145940854
-3.578794642857143e-05,1.137680813381369
-3.577794642857142e-05,1.156024144780082
-3.576794642857142e-05,1.134012147101626
-3.575794642857143e-05,1.134012147101626
-3.574794642857143e-05,1.134012147101626
-3.573794642857143e-05,1.130343480821884
-3.572794642857142e-05,1.126674814542141
-3.571794642857143e-05,1.126674814542141
-3.570794642857143e-05,1.141349479661112
-3.569794642857143e-05,1.130343480821884
