TP2/Mediciones/1127/Vsec-Vref1127V.csv

#Digilent WaveForms Oscilloscope Acquisition
#Device Name: Discovery2
#Serial Number: SN:210321B0E03A
#Date Time: 2021-06-21 15:01:14.990
#Sample rate: 1e+08Hz
#Samples: 8192
#Trigger: Source: Channel 1 Type: Edge Condition: Rising Level: 500 mV Hyst.: Auto HoldOff: 100 ns
#Channel 1: Range: 5 V/div Offset: 0 V Attenuation: 1 X
#Power Supplies: ON
#Positive Supply: ON
#Voltage: 1.128 V
#Negative Supply: OFF
#Voltage: -1 V

-4.045225e-05,-4.115849299210023
-4.044225e-05,-4.101174634091053
-4.043225e-05,-4.108511966650535
-4.042225e-05,-4.101174634091056
-4.041225e-05,-4.115849299210023
-4.040225e-05,-4.123186631769508
-4.039225e-05,-4.093837301531567
-4.038225e-05,-4.126855298049236
-4.037225e-05,-4.104843300370796
-4.036225e-05,-4.115849299210023
-4.035225e-05,-4.08283130269234
-4.034225e-05,-4.101174634091055
-4.033225e-05,-4.104843300370796
-4.032225e-05,-4.108511966650538
-4.031225e-05,-4.090168635251825
-4.030225e-05,-4.115849299210015
-4.029225e-05,-4.097505967811318
-4.028225e-05,-4.104843300370796
-4.027225e-05,-4.108511966650538
-4.026225e-05,-4.104843300370794
-4.025225e-05,-4.101174634091055
-4.024225e-05,-4.104843300370796
-4.023225e-05,-4.093837301531567
-4.022225e-05,-4.119517965489766
-4.021225e-05,-4.101174634091061
-4.020225e-05,-4.11218063293028
-4.019225e-05,-4.11218063293028
-4.018225e-05,-4.11218063293028
-4.017225e-05,-4.108511966650542
-4.016225e-05,-4.115849299210023
-4.015225e-05,-4.093837301531567
-4.014225e-05,-4.108511966650538
-4.013225e-05,-4.093837301531567
-4.012225e-05,-4.093837301531567
-4.011225e-05,-4.093837301531567
-4.010225e-05,-4.090168635251825
-4.009225e-05,-4.101174634091049
-4.008225e-05,-4.093837301531571
-4.007225e-05,-4.11218063293028
-4.006225e-05,-4.093837301531567
-4.005225e-05,-4.101174634091053
-4.004225e-05,-4.093837301531571
-4.003225e-05,-4.079162636412597
-4.002225e-05,-4.093837301531567
-4.001225e-05,-4.101174634091053
-4.000225e-05,-4.108511966650533
-3.999225e-05,-4.09750596781131
-3.998225e-05,-4.093837301531567
-3.997225e-05,-4.101174634091053
-3.996225e-05,-4.08283130269235
-3.995225e-05,-4.104843300370796
-3.994225e-05,-4.093837301531567
-3.993225e-05,-4.093837301531567
-3.992225e-05,-4.101174634091061
-3.991225e-05,-4.119517965489758
-3.990225e-05,-4.101174634091053
-3.989225e-05,-4.101174634091053
-3.988225e-05,-4.093837301531567
-3.987225e-05,-4.090168635251827
-3.986225e-05,-4.093837301531567
-3.985225e-05,-4.09750596781131
-3.984225e-05,-4.101174634091053
-3.983225e-05,-4.097505967811312
-3.982225e-05,-4.101174634091053
-3.981225e-05,-4.101174634091053
-3.980225e-05,-4.086499968972082
-3.979225e-05,-4.108511966650525
-3.978225e-05,-4.079162636412597
-3.977225e-05,-4.093837301531567
-3.976225e-05,-4.09750596781131
-3.975225e-05,-4.090168635251821
-3.974225e-05,-4.082831302692344
-3.973225e-05,-4.093837301531567
-3.972225e-05,-4.090168635251825
-3.971225e-05,-4.101174634091053
-3.970225e-05,-4.108511966650535
-3.969225e-05,-4.09750596781131
-3.968225e-05,-4.093837301531567
-3.967225e-05,-4.108511966650538
-3.966225e-05,-4.082831302692352
-3.965225e-05,-4.093837301531567
-3.964225e-05,-4.093837301531567
-3.963225e-05,-4.093837301531567
-3.962225e-05,-4.090168635251827
-3.961225e-05,-4.093837301531567
-3.960225e-05,-4.093837301531567
-3.959225e-05,-4.079162636412597
-3.958225e-05,-4.086499968972087
-3.957225e-05,-4.097505967811305
-3.956225e-05,-4.086499968972082
-3.955225e-05,-4.075493970132855
-3.954225e-05,-4.097505967811305
-3.953225e-05,-4.086499968972087
-3.952225e-05,-4.090168635251825
-3.951225e-05,-4.086499968972082
-3.950225e-05,-4.09750596781131
-3.949225e-05,-4.093837301531569
-3.948225e-05,-4.075493970132855
-3.947225e-05,-4.08283130269234
-3.946225e-05,-4.08283130269234
-3.945225e-05,-4.079162636412607
-3.944225e-05,-4.101174634091053
-3.943225e-05,-4.079162636412597
-3.942225e-05,-4.093837301531567
-3.941225e-05,-4.090168635251823
-3.940225e-05,-4.086499968972084
-3.939225e-05,-4.093837301531567
-3.938225e-05,-4.09750596781131
-3.937225e-05,-4.097505967811312
-3.936225e-05,-4.101174634091051
-3.935225e-05,-4.068156637573369
-3.934225e-05,-4.079162636412597
-3.933225e-05,-4.093837301531567
-3.932225e-05,-4.093837301531567
-3.931225e-05,-4.079162636412597
-3.930225e-05,-4.090168635251825
-3.929225e-05,-4.086499968972082
-3.928225e-05,-4.082831302692346
-3.927225e-05,-4.093837301531567
-3.926225e-05,-4.090168635251825
-3.925225e-05,-4.08283130269234
-3.924225e-05,-4.079162636412605
-3.923225e-05,-4.09383730153156
-3.922225e-05,-4.068156637573369
-3.921225e-05,-4.079162636412597
-3.920225e-05,-4.064487971293638
-3.919225e-05,-4.090168635251813
-3.918225e-05,-4.075493970132855
-3.917225e-05,-4.071825303853112
-3.916225e-05,-4.075493970132855
-3.915225e-05,-4.101174634091041
-3.914225e-05,-4.075493970132855
-3.913225e-05,-4.071825303853112
-3.912225e-05,-4.08283130269234
-3.911225e-05,-4.093837301531559
-3.910225e-05,-4.075493970132855
-3.909225e-05,-4.071825303853112
-3.908225e-05,-4.086499968972082
-3.907225e-05,-4.075493970132857
-3.906225e-05,-4.079162636412596
-3.905225e-05,-4.09750596781131
-3.904225e-05,-4.086499968972082
-3.903225e-05,-4.093837301531562
-3.902225e-05,-4.082831302692346
-3.901225e-05,-4.093837301531567
-3.900225e-05,-4.075493970132855
-3.899225e-05,-4.08283130269234
-3.898225e-05,-4.090168635251821
-3.897225e-05,-4.093837301531567
-3.896225e-05,-4.086499968972082
-3.895225e-05,-4.075493970132855
-3.894225e-05,-4.086499968972084
-3.893225e-05,-4.090168635251825
-3.892225e-05,-4.08283130269234
-3.891225e-05,-4.090168635251825
-3.890225e-05,-4.090168635251821
-3.889225e-05,-4.08283130269234
-3.888225e-05,-4.071825303853112
-3.887225e-05,-4.079162636412597
-3.886225e-05,-4.075493970132851
-3.885225e-05,-4.068156637573373
-3.884225e-05,-4.075493970132855
-3.883225e-05,-4.075493970132855
-3.882225e-05,-4.090168635251825
-3.881225e-05,-4.075493970132862
-3.880225e-05,-4.079162636412597
-3.879225e-05,-4.079162636412597
-3.878225e-05,-4.060819305013884
-3.877225e-05,-4.086499968972082
-3.876225e-05,-4.086499968972082
-3.875225e-05,-4.093837301531567
-3.874225e-05,-4.310288612036381
-3.873225e-05,-4.233246620161816
-3.872225e-05,-4.299282613197152
-3.871225e-05,-4.093837301531567
-3.870225e-05,-4.086499968972082
-3.869225e-05,-4.024132642216435
-3.868225e-05,-3.972771314300085
-3.867225e-05,-4.090168635251825
-3.866225e-05,-4.075493970132855
-3.865225e-05,-4.060819305013884
-3.864225e-05,-4.00212064453803
-3.863225e-05,-4.075493970132855
-3.862225e-05,-4.020463975936716
-3.861225e-05,-4.042475973615171
-3.860225e-05,-4.046144639894912
-3.859225e-05,-4.064487971293627
-3.858225e-05,-4.064487971293627
-3.857225e-05,-4.075493970132855
-3.856225e-05,-4.057150638734142
-3.855225e-05,-4.057150638734142
-3.854225e-05,-4.075493970132855
-3.853225e-05,-4.046144639894914
-3.852225e-05,-4.064487971293627
-3.851225e-05,-4.064487971293627
-3.850225e-05,-4.090168635251825
-3.849225e-05,-4.057150638734142
-3.848225e-05,-4.064487971293621
-3.847225e-05,-4.053481972454405
-3.846225e-05,-4.053481972454399
-3.845225e-05,-4.068156637573369
-3.844225e-05,-4.08283130269234
-3.843225e-05,-4.064487971293635
-3.842225e-05,-4.060819305013884
-3.841225e-05,-4.071825303853112
-3.840225e-05,-4.060819305013884
-3.839225e-05,-4.064487971293623
-3.838225e-05,-4.057150638734142
-3.837225e-05,-4.060819305013884
-3.836225e-05,-4.049813306174657
-3.835225e-05,-4.057150638734144
-3.834225e-05,-4.060819305013882
-3.833225e-05,-4.064487971293627
-3.832225e-05,-4.053481972454399
-3.831225e-05,-4.020463975936702
-3.830225e-05,-3.991114645698788
-3.829225e-05,-3.936084651502636
-3.828225e-05,-3.906735321264695
-3.827225e-05,-3.818687330550873
-3.826225e-05,-3.756320003795277
-3.825225e-05,-3.704958675878852
-3.824225e-05,-3.627916684004258
-3.823225e-05,-3.565549357248634
-3.822225e-05,-3.47750136653479
-3.821225e-05,-3.429808704898158
-3.820225e-05,-3.360104045583049
-3.819225e-05,-3.257381389750256
-3.818225e-05,-3.180339397875628
-3.817225e-05,-3.106966072280843
-3.816225e-05,-3.018918081566988
-3.815225e-05,-2.934538757132908
-3.814225e-05,-2.861165431538003
-3.813225e-05,-2.743768110586347
-3.812225e-05,-2.685069450110412
-3.811225e-05,-2.589684126837104
-3.810225e-05,-2.516310801242252
-3.809225e-05,-2.398913480290543
-3.808225e-05,-2.343883486094351
-3.807225e-05,-2.310865489576667
-3.806225e-05,-2.406250812849975
-3.805225e-05,-2.464949473325808
-3.804225e-05,-2.358558151213321
-3.803225e-05,-2.127432175589538
-3.802225e-05,-2.046721517435201
-3.801225e-05,-2.138438174428752
-3.800225e-05,-2.109088844190838
-3.799225e-05,-1.921986863923953
-3.798225e-05,-1.760565547615279
-3.797225e-05,-1.822932874370916
-3.796225e-05,-1.85228220460883
-3.795225e-05,-1.694529554579912
-3.794225e-05,-1.500090241753555
-3.793225e-05,-1.511096240592782
-3.792225e-05,-1.58080089990786
-3.791225e-05,-1.42304824987896
-3.790225e-05,-1.257958267290543
-3.789225e-05,-1.265295599850029
-3.788225e-05,-1.272632932409459
-3.787225e-05,-1.151566945178008
-3.786225e-05,-0.9938142951490769
-3.785225e-05,-1.001151627708562
-3.784225e-05,-0.9974829614287477
-3.783225e-05,-0.839730311399888
-3.782225e-05,-0.7113269916088973
-3.781225e-05,-0.777362984644264
-3.780225e-05,-0.6929836602101127
-3.779225e-05,-0.5352310101813247
-3.778225e-05,-0.4875383485445992
-3.777225e-05,-0.498544347383827
-3.776225e-05,-0.3811470264320641
-3.775225e-05,-0.2564123729208727
-3.774225e-05,-0.2930990357182418
-3.773225e-05,-0.201382378724677
-3.772225e-05,-0.05830439381471593
-3.771225e-05,-0.054635727534975
-3.770225e-05,-0.01794906473754742
-3.769225e-05,0.1324662527318989
-3.768225e-05,0.17649024808881
-3.767225e-05,0.1838275806483635
-3.766225e-05,0.3342428981177414
-3.765225e-05,0.4076162237125933
-3.764225e-05,0.3892728923138803
-3.763225e-05,0.5176762121049128
-3.762225e-05,0.6093928690983941
-3.761225e-05,0.6093928690984358
-3.760225e-05,0.7267901900501987
-3.759225e-05,0.814838180764021
-3.758225e-05,0.814838180764021
-3.757225e-05,0.9212295028765562
-3.756225e-05,1.012946159870121
-3.755225e-05,1.045964156387804
-3.754225e-05,1.119337481982623
-3.753225e-05,1.211054138976221
-3.752225e-05,1.240403469214162
-3.751225e-05,1.339457458767212
-3.750225e-05,1.405493451802598
-3.749225e-05,1.449517447159489
-3.748225e-05,1.530228105313826
-3.747225e-05,1.607270097188421
-3.746225e-05,1.658631425104854
-3.745225e-05,1.739342083259118
-3.744225e-05,1.812715408854006
-3.743225e-05,1.845733405371689
-3.742225e-05,1.944787394924754
-3.741225e-05,1.977805391442408
-3.740225e-05,2.07319071471573
-3.739225e-05,2.131889375191612
-3.738225e-05,2.194256701947236
-3.737225e-05,2.263961361262314
-3.736225e-05,2.322660021738226
-3.735225e-05,2.388696014773593
-3.734225e-05,2.458400674088702
-3.733225e-05,2.524436667124093
-3.732225e-05,2.575797995040465
-3.731225e-05,2.65283998691506
-3.730225e-05,2.722544646230169
-3.729225e-05,2.751893976468136
-3.728225e-05,2.810592636943964
-3.727225e-05,2.876628629979358
-3.726225e-05,2.935327290455239
-3.725225e-05,2.9903572846514
-3.724225e-05,3.03804994628801
-3.723225e-05,3.118760604442369
-3.722225e-05,3.129766603281597
-3.721225e-05,3.16278459979928
-3.720225e-05,3.195802596316948
-3.719225e-05,3.232489259114389
-3.718225e-05,3.258169923072587
-3.717225e-05,3.265507255632072
-3.716225e-05,3.298525252149761
-3.715225e-05,3.309531250988984
-3.714225e-05,3.342549247506667
-3.713225e-05,3.353555246345895
-3.712225e-05,3.379235910304095
-3.711225e-05,3.382904576583833
-3.710225e-05,3.397579241702806
-3.709225e-05,3.401247907982548
-3.708225e-05,3.430597238220496
-3.707225e-05,3.445271903339453
-3.706225e-05,3.448940569619202
-3.705225e-05,3.441603237059717
-3.704225e-05,3.467283901017915
-3.703225e-05,3.48929589869636
-3.702225e-05,3.500301897535599
-3.701225e-05,3.503970563815341
-3.700225e-05,3.496633231255856
-3.699225e-05,3.525982561493799
-3.698225e-05,3.529651227773539
-3.697225e-05,3.518645228934311
-3.696225e-05,3.533319894053282
-3.695225e-05,3.544325892892508
-3.694225e-05,3.540657226612768
-3.693225e-05,3.55900055801148
-3.692225e-05,3.555331891731737
-3.691225e-05,3.547994559172242
-3.690225e-05,3.525982561493807
-3.689225e-05,3.507639230095084
-3.688225e-05,3.48929589869637
-3.687225e-05,3.481958566136885
-3.686225e-05,3.474621233577404
-3.685225e-05,3.500301897535599
-3.684225e-05,3.500301897535599
-3.683225e-05,3.4746212335774
-3.682225e-05,3.481958566136882
-3.681225e-05,3.4746212335774
-3.680225e-05,3.448940569619202
-3.679225e-05,3.415922573101519
-3.678225e-05,3.041718612567819
-3.677225e-05,3.140772602120824
-3.676225e-05,3.588349888249421
-3.675225e-05,3.353555246345895
-3.674225e-05,3.393910575423138
-3.673225e-05,3.559000558011405
-3.672225e-05,3.401247907982548
-3.671225e-05,3.514976562654569
-3.670225e-05,3.529651227773539
-3.669225e-05,3.456277902178721
-3.668225e-05,3.551663225451995
-3.667225e-05,3.492964564976113
-3.666225e-05,3.503970563815341
-3.665225e-05,3.555331891731714
-3.664225e-05,3.485627232416628
-3.663225e-05,3.540657226612767
-3.662225e-05,3.525982561493797
-3.661225e-05,3.522313895214062
-3.660225e-05,3.540657226612767
-3.659225e-05,3.503970563815341
-3.658225e-05,3.536988560333024
-3.657225e-05,3.54065722661276
-3.656225e-05,3.525982561493803
-3.655225e-05,3.547994559172252
-3.654225e-05,3.544325892892509
-3.653225e-05,3.566337890570965
-3.652225e-05,3.573675223130447
-3.651225e-05,3.562669224291223
-3.650225e-05,3.57367522313045
-3.649225e-05,3.584681221969678
-3.648225e-05,3.562669224291233
-3.647225e-05,3.57367522313045
-3.646225e-05,3.551663225451995
-3.645225e-05,3.57367522313045
-3.644225e-05,3.577343889410186
-3.643225e-05,3.562669224291223
-3.642225e-05,3.55900055801148
-3.641225e-05,3.566337890570965
-3.640225e-05,3.544325892892511
-3.639225e-05,3.54799455917225
-3.638225e-05,3.536988560333024
-3.637225e-05,3.544325892892509
-3.636225e-05,3.547994559172256
-3.635225e-05,3.555331891731734
-3.634225e-05,3.547994559172252
-3.633225e-05,3.544325892892509
-3.632225e-05,3.547994559172252
-3.631225e-05,3.555331891731734
-3.630225e-05,3.55900055801148
-3.629225e-05,3.547994559172252
-3.628225e-05,3.581012555689935
-3.627225e-05,3.562669224291219
-3.626225e-05,3.555331891731737
-3.625225e-05,3.562669224291223
-3.624225e-05,3.544325892892509
-3.623225e-05,3.551663225451998
-3.622225e-05,3.559000558011476
-3.621225e-05,3.555331891731737
-3.620225e-05,3.570006556850708
-3.619225e-05,3.551663225452
-3.618225e-05,3.562669224291218
-3.617225e-05,3.555331891731737
-3.616225e-05,3.55900055801148
-3.615225e-05,3.544325892892509
-3.614225e-05,3.559000558011473
-3.613225e-05,3.566337890570965
-3.612225e-05,3.562669224291223
-3.611225e-05,3.562669224291223
-3.610225e-05,3.547994559172259
-3.609225e-05,3.562669224291223
-3.608225e-05,3.555331891731737
-3.607225e-05,3.551663225451995
-3.606225e-05,3.562669224291224
-3.605225e-05,3.566337890570964
-3.604225e-05,3.547994559172252
-3.603225e-05,3.566337890570965
-3.602225e-05,3.555331891731739
-3.601225e-05,3.559000558011478
-3.600225e-05,3.551663225451995
-3.599225e-05,3.57367522313045
-3.598225e-05,3.562669224291223
-3.597225e-05,3.540657226612777
-3.596225e-05,3.547994559172252
-3.595225e-05,3.555331891731737
-3.594225e-05,3.555331891731737
-3.593225e-05,3.547994559172254
-3.592225e-05,3.551663225451995
-3.591225e-05,3.570006556850708
-3.590225e-05,3.55900055801148
-3.589225e-05,3.547994559172264
-3.588225e-05,3.57367522313045
-3.587225e-05,3.551663225451995
-3.586225e-05,3.544325892892509
-3.585225e-05,3.566337890570954
-3.584225e-05,3.540657226612778
-3.583225e-05,3.540657226612767
-3.582225e-05,3.544325892892509
-3.581225e-05,3.555331891731737
-3.580225e-05,3.547994559172256
-3.579225e-05,3.544325892892509
-3.578225e-05,3.533319894053282
-3.577225e-05,3.536988560333024
-3.576225e-05,3.529651227773541
-3.575225e-05,3.533319894053282
-3.574225e-05,3.525982561493797
-3.573225e-05,3.522313895214054
-3.572225e-05,3.51864522893432
-3.571225e-05,3.536988560333024
-3.570225e-05,3.525982561493797
-3.569225e-05,3.525982561493797
-3.568225e-05,3.529651227773535
-3.567225e-05,3.522313895214058
-3.566225e-05,3.529651227773539
-3.565225e-05,3.518645228934311
-3.564225e-05,3.518645228934311
-3.563225e-05,3.518645228934311
-3.562225e-05,3.529651227773539
-3.561225e-05,3.518645228934311
-3.560225e-05,3.507639230095084
-3.559225e-05,3.489295898696379
-3.558225e-05,3.511307896374826
-3.557225e-05,3.503970563815341
-3.556225e-05,3.492964564976113
-3.555225e-05,3.522313895214049
-3.554225e-05,3.511307896374826
-3.553225e-05,3.511307896374826
-3.552225e-05,3.518645228934311
-3.551225e-05,3.507639230095082
-3.550225e-05,3.503970563815343
-3.549225e-05,3.514976562654569
-3.548225e-05,3.507639230095084
-3.547225e-05,3.500301897535597
-3.546225e-05,3.496633231255858
-3.545225e-05,3.496633231255856
-3.544225e-05,3.48929589869637
-3.543225e-05,3.507639230095084
-3.542225e-05,3.478289899857156
-3.541225e-05,3.470952567297658
-3.540225e-05,3.470952567297658
-3.539225e-05,3.48929589869637
-3.538225e-05,3.496633231255847
-3.537225e-05,3.478289899857143
-3.536225e-05,3.500301897535599
-3.535225e-05,3.4746212335774
-3.534225e-05,3.478289899857138
-3.533225e-05,3.46728390101792
-3.532225e-05,3.481958566136885
-3.531225e-05,3.478289899857143
-3.530225e-05,3.489295898696364
-3.529225e-05,3.474621233577407
-3.528225e-05,3.467283901017915
-3.527225e-05,3.45994656845843
-3.526225e-05,3.478289899857143
-3.525225e-05,3.456277902178698
-3.524225e-05,3.45994656845843
-3.523225e-05,3.448940569619202
-3.522225e-05,3.463615234738172
-3.521225e-05,3.474621233577397
-3.520225e-05,3.467283901017915
-3.519225e-05,3.448940569619202
-3.518225e-05,3.452609235898945
-3.517225e-05,3.430597238220496
-3.516225e-05,3.445271903339453
-3.515225e-05,3.456277902178687
-3.514225e-05,3.45994656845843
-3.513225e-05,3.445271903339453
-3.512225e-05,3.430597238220496
-3.511225e-05,3.44527190333946
-3.510225e-05,3.430597238220489
-3.509225e-05,3.44527190333946
-3.508225e-05,3.430597238220496
-3.507225e-05,3.44527190333946
-3.506225e-05,3.415922573101519
-3.505225e-05,3.437934570779974
-3.504225e-05,3.434265904500228
-3.503225e-05,3.426928571940747
-3.502225e-05,3.441603237059717
-3.501225e-05,3.426928571940747
-3.500225e-05,3.408585240542039
-3.499225e-05,3.419591239381257
-3.498225e-05,3.434265904500232
-3.497225e-05,3.415922573101519
-3.496225e-05,3.412253906821778
-3.495225e-05,3.415922573101517
-3.494225e-05,3.419591239381262
-3.493225e-05,3.393910575423063
-3.492225e-05,3.393910575423063
-3.491225e-05,3.3792359103041
-3.490225e-05,3.412253906821776
-3.489225e-05,3.393910575423063
-3.488225e-05,3.412253906821776
-3.487225e-05,3.397579241702804
-3.486225e-05,3.393910575423063
-3.485225e-05,3.397579241702806
-3.484225e-05,3.393910575423063
-3.483225e-05,3.38290457658384
-3.482225e-05,3.393910575423063
-3.481225e-05,3.386573242863578
-3.480225e-05,3.397579241702806
-3.479225e-05,3.371898577744614
-3.478225e-05,3.386573242863571
-3.477225e-05,3.382904576583835
-3.476225e-05,3.37556724402435
-3.475225e-05,3.37556724402435
-3.474225e-05,3.360892578905387
-3.473225e-05,3.371898577744608
-3.472225e-05,3.364561245185123
-3.471225e-05,3.371898577744608
-3.470225e-05,3.357223912625634
-3.469225e-05,3.349886580066152
-3.468225e-05,3.349886580066152
-3.467225e-05,3.353555246345895
-3.466225e-05,3.364561245185116
-3.465225e-05,3.349886580066152
-3.464225e-05,3.379235910304093
-3.463225e-05,3.324205916107954
-3.462225e-05,3.349886580066145
-3.461225e-05,3.335211914947188
-3.460225e-05,3.342549247506667
-3.459225e-05,3.331543248667439
-3.458225e-05,3.338880581226924
-3.457225e-05,3.331543248667443
-3.456225e-05,3.324205916107954
-3.455225e-05,3.316868583548469
-3.454225e-05,3.316868583548469
-3.453225e-05,3.32053724982821
-3.452225e-05,3.309531250988984
-3.451225e-05,3.309531250988984
-3.450225e-05,3.305862584709241
-3.449225e-05,3.302193918429499
-3.448225e-05,3.302193918429499
-3.447225e-05,3.298525252149756
-3.446225e-05,3.294856585870013
-3.445225e-05,3.287519253310525
-3.444225e-05,3.280181920751046
-3.443225e-05,3.287519253310528
-3.442225e-05,3.294856585870013
