TP2/Mediciones/115/Vcsnubber-Vref115V.csv

#Digilent WaveForms Oscilloscope Acquisition
#Device Name: Discovery2
#Serial Number: SN:210321B0E03A
#Date Time: 2021-06-21 14:16:46.013
#Sample rate: 5e+07Hz
#Samples: 8192
#Trigger: Source: Channel 1 Type: Edge Condition: Rising Level: 23.35 V Hyst.: Auto HoldOff: 100 ns
#Channel 1: Range: 5 V/div Offset: -2.85 V Attenuation: 1 X
#Power Supplies: ON
#Positive Supply: ON
#Voltage: 1.15 V
#Negative Supply: OFF
#Voltage: -1 V

-8.191652173913043e-05,7.231398031024447
-8.189652173913043e-05,22.70950106525844
-8.187652173913043e-05,22.69849506641921
-8.185652173913044e-05,22.68748906757999
-8.183652173913044e-05,22.66547706990153
-8.181652173913043e-05,22.66914573618127
-8.179652173913043e-05,22.63979640594333
-8.177652173913044e-05,22.62512174082437
-8.175652173913044e-05,22.62145307454462
-8.173652173913043e-05,22.61411574198513
-8.171652173913043e-05,22.58109774546745
-8.169652173913043e-05,22.5774290791877
-8.167652173913044e-05,22.56275441406874
-8.165652173913043e-05,22.53707375011054
-8.163652173913043e-05,22.51873041871183
-8.161652173913043e-05,22.51139308615234
-8.159652173913044e-05,22.49671842103338
-8.157652173913043e-05,22.47103775707517
-8.155652173913043e-05,22.46370042451569
-8.153652173913043e-05,22.45269442567645
-8.151652173913044e-05,22.41967642915879
-8.149652173913044e-05,21.84369582323919
-8.147652173913043e-05,21.89138848487584
-8.145652173913043e-05,22.63979640594333
-8.143652173913044e-05,22.43435109427784
-8.141652173913044e-05,22.37565243380187
-8.139652173913043e-05,22.47103775707517
-8.137652173913043e-05,22.42334509543852
-8.135652173913043e-05,22.37565243380186
-8.133652173913044e-05,22.34997176984367
-8.131652173913043e-05,22.2839357768083
-8.129652173913043e-05,22.23257444889191
-8.127652173913043e-05,22.20689378493368
-8.125652173913044e-05,22.14819512445785
-8.123652173913043e-05,22.09683379654143
-8.121652173913043e-05,22.09316513026169
-8.119652173913043e-05,22.04914113490475
-8.117652173913044e-05,21.98310514186944
-8.115652173913044e-05,21.96109314419095
-8.113652173913043e-05,21.92073781511379
-8.111652173913043e-05,21.85837048835816
-8.109652173913044e-05,21.82902115812023
-8.107652173913044e-05,21.78132849648357
-8.105652173913043e-05,21.72996716856717
-8.103652173913043e-05,21.6639311755318
-8.101652173913043e-05,21.63091317901409
-8.099652173913044e-05,21.56120851969901
-8.097652173913043e-05,21.50617852550287
-8.095652173913043e-05,21.47316052898519
-8.093652173913043e-05,21.41446186850927
-8.091652173913044e-05,21.33375121035497
-8.089652173913043e-05,21.2933958812778
-8.087652173913043e-05,21.23836588708166
-8.085652173913043e-05,21.16866122776653
-8.083652173913044e-05,21.12096856612992
-8.081652173913044e-05,21.05860123937428
-8.079652173913043e-05,21.00357124517814
-8.077652173913043e-05,20.92652925330354
-8.075652173913044e-05,20.86416192654795
-8.073652173913044e-05,20.79812593351255
-8.071652173913043e-05,20.73208994047718
-8.069652173913043e-05,20.66238528116208
-8.067652173913043e-05,20.60001795440643
-8.065652173913044e-05,20.53398196137109
-8.063652173913043e-05,20.47161463461546
-8.061652173913043e-05,20.38356664390164
-8.059652173913043e-05,20.33220531598521
-8.057652173913044e-05,20.26616932294988
-8.055652173913043e-05,20.18545866479554
-8.053652173913043e-05,20.12676000431966
-8.051652173913043e-05,20.04971801244502
-8.049652173913044e-05,19.95800135545154
-8.047652173913043e-05,19.89930269497562
-8.045652173913043e-05,19.83326670194025
-8.043652173913043e-05,19.75622471006566
-8.041652173913044e-05,19.68652005075058
-8.039652173913044e-05,19.61314672515569
-8.037652173913043e-05,19.5617853972393
-8.035652173913043e-05,19.47740607280522
-8.033652173913044e-05,19.4040327472104
-8.031652173913044e-05,19.34533408673449
-8.029652173913043e-05,19.25361742974092
-8.027652173913043e-05,19.18391277042581
-8.025652173913043e-05,19.12154544367015
-8.023652173913044e-05,19.03349745295636
-8.021652173913043e-05,18.967461459921
-8.019652173913043e-05,18.8904194680464
-8.017652173913043e-05,18.80970880989204
-8.015652173913044e-05,18.74000415057699
-8.013652173913043e-05,18.66296215870236
-8.011652173913043e-05,18.59325749938726
-8.009652173913043e-05,18.51621550751264
-8.007652173913044e-05,18.46118551331655
-8.005652173913044e-05,18.38781218772167
-8.003652173913043e-05,18.30343286328759
-8.001652173913043e-05,18.23739687025222
-7.999652173913044e-05,18.16035487837766
-7.997652173913044e-05,18.09431888534226
-7.995652173913043e-05,18.01727689346767
-7.993652173913043e-05,17.94023490159307
-7.991652173913043e-05,17.86686157599819
-7.989652173913044e-05,17.79348825040337
-7.987652173913043e-05,17.72378359108826
-7.985652173913043e-05,17.65041026549341
-7.983652173913043e-05,17.57703693989853
-7.981652173913044e-05,17.52200694570244
-7.979652173913043e-05,17.44863362010757
-7.977652173913043e-05,17.3825976270722
-7.975652173913043e-05,17.31289296775705
-7.973652173913044e-05,17.22851364332305
-7.971652173913044e-05,17.16614631656739
-7.969652173913043e-05,15.84542645586006
-7.967652173913043e-05,16.72957502927802
-7.965652173913044e-05,16.92768300838403
-7.963652173913044e-05,16.93868900722335
-7.961652173913043e-05,16.83229768511081
-7.959652173913043e-05,16.86531568162849
-7.957652173913043e-05,16.828629018831
-7.955652173913044e-05,16.67454503508188
-7.953652173913043e-05,16.59750304320729
-7.951652173913043e-05,16.49478038737449
-7.949652173913043e-05,16.34069640362525
-7.947652173913044e-05,16.21229308383437
-7.945652173913043e-05,16.10223309544203
-7.943652173913043e-05,15.92246844773465
-7.941652173913043e-05,15.80873979306257
-7.939652173913044e-05,15.6803364732717
-7.937652173913044e-05,15.46755382904657
-7.935652173913043e-05,15.24376518598227
-7.933652173913043e-05,15.10068720107231
-7.931652173913044e-05,14.90991655452578
-7.929652173913044e-05,14.71180857541959
-7.927652173913043e-05,14.5834052556286
-7.925652173913043e-05,14.43298993815916
-7.923652173913043e-05,14.26789995557067
-7.921652173913044e-05,14.11014730554181
-7.919652173913043e-05,13.97807531947108
-7.917652173913043e-05,13.82399133572189
-7.915652173913043e-05,13.66990735197264
-7.913652173913044e-05,13.53783536590202
-7.911652173913043e-05,13.394757380992
-7.909652173913043e-05,13.2480107298023
-7.907652173913043e-05,13.13428207513021
-7.905652173913044e-05,12.9838667576609
-7.903652173913044e-05,12.8517947715901
-7.901652173913043e-05,12.71605411923962
-7.899652173913043e-05,12.59498813200812
-7.897652173913044e-05,12.44824148081848
-7.895652173913044e-05,12.33451282614639
-7.893652173913043e-05,12.21344683891489
-7.891652173913043e-05,12.07770618656441
-7.889652173913043e-05,11.9603088656126
-7.887652173913044e-05,11.85024887722037
-7.885652173913043e-05,11.70350222603067
-7.883652173913043e-05,11.58977357135865
-7.881652173913043e-05,11.48338224924606
-7.879652173913044e-05,11.37699092713358
-7.877652173913043e-05,11.25225627362233
-7.875652173913043e-05,11.11284695499211
-7.873652173913043e-05,11.02113029799849
-7.871652173913044e-05,10.90373297704684
-7.869652173913044e-05,10.80101032121399
-7.867652173913043e-05,10.67994433398249
-7.865652173913043e-05,10.57355301186995
-7.863652173913044e-05,10.4708303560372
-7.861652173913044e-05,10.35710170136514
-7.859652173913043e-05,10.25437904553234
-7.857652173913043e-05,10.15165638969955
-7.855652173913043e-05,10.04526506758697
-7.853652173913044e-05,9.949879744313709
-7.851652173913043e-05,9.839819755921431
-7.849652173913043e-05,9.744434432648124
-7.847652173913043e-05,9.656386441934254
-7.845652173913044e-05,9.549995119821766
-7.843652173913043e-05,9.465615795387686
-7.841652173913043e-05,9.359224473275152
-7.839652173913043e-05,9.26017048372206
-7.837652173913044e-05,9.168453826728578
-7.835652173913043e-05,9.073068503455229
-7.833652173913043e-05,8.985020512741407
-7.831652173913043e-05,8.893303855747842
-7.829652173913044e-05,8.808924531313801
-7.827652173913044e-05,8.72087654059994
-7.825652173913043e-05,8.618153884767148
-7.823652173913043e-05,8.555786558011524
-7.821652173913044e-05,8.460401234738258
-7.819652173913044e-05,8.372353244024394
-7.817652173913043e-05,8.306317250989027
-7.815652173913043e-05,8.218269260275205
-7.813652173913043e-05,8.122883937001857
-7.811652173913044e-05,8.034835946288077
-7.809652173913043e-05,7.957793954413482
-7.807652173913043e-05,7.88442062881863
-7.805652173913043e-05,7.807378636943997
-7.803652173913044e-05,7.722999312509994
-7.801652173913043e-05,7.649625986915103
-7.799652173913043e-05,7.572583995040508
-7.797652173913043e-05,7.49187333688614
-7.795652173913044e-05,7.422168677571095
-7.793652173913044e-05,7.348795351976211
-7.791652173913043e-05,7.271753360101616
-7.789652173913043e-05,7.209386033345993
-7.787652173913044e-05,7.121338042632209
-7.785652173913044e-05,7.055302049596804
-7.783652173913043e-05,6.985597390281695
-7.781652173913043e-05,6.904886732127357
-7.779652173913043e-05,6.846188071651442
-7.777652173913044e-05,6.772814746056624
-7.775652173913043e-05,6.717784751860485
-7.773652173913043e-05,6.640742759985891
-7.771652173913043e-05,6.582044099509975
-7.769652173913044e-05,6.508670773915192
-7.767652173913043e-05,6.442634780879791
-7.765652173913043e-05,6.380267454124167
-7.763652173913043e-05,6.306894128529292
-7.761652173913044e-05,6.255532800612942
-7.759652173913044e-05,6.20050280641678
-7.757652173913043e-05,6.127129480821928
-7.755652173913043e-05,6.068430820346046
-7.753652173913044e-05,6.013400826149932
-7.751652173913044e-05,5.951033499394283
-7.749652173913043e-05,5.899672171477887
-7.747652173913043e-05,5.844642177281749
-7.745652173913043e-05,5.77860618424635
-7.743652173913044e-05,5.708901524931273
-7.741652173913043e-05,5.653871530735134
-7.739652173913043e-05,5.60617886909848
-7.737652173913043e-05,5.543811542342831
-7.735652173913044e-05,5.488781548146742
-7.733652173913043e-05,5.437420220230321
-7.731652173913043e-05,5.378721559754439
-7.729652173913043e-05,5.323691565558278
-7.727652173913044e-05,5.272330237641928
-7.725652173913044e-05,5.217300243445765
-7.723652173913043e-05,5.162270249249627
-7.721652173913043e-05,5.121914920172458
-7.719652173913044e-05,5.074222258535825
-7.717652173913044e-05,5.01185493178018
-7.715652173913043e-05,4.98250560154224
-7.713652173913043e-05,4.91280094222713
-7.711652173913043e-05,4.876114279429681
-7.709652173913044e-05,4.824752951513307
-7.707652173913043e-05,4.777060289876654
-7.705652173913043e-05,4.722030295680515
-7.703652173913043e-05,4.674337634043841
-7.701652173913044e-05,4.630313638686971
-7.699652173913043e-05,4.578952310770554
-7.697652173913043e-05,4.545934314252871
-7.695652173913043e-05,4.494572986336458
-7.693652173913044e-05,4.457886323539065
-7.691652173913044e-05,4.406524995622652
-7.689652173913043e-05,4.373506999104968
-7.687652173913043e-05,4.31847700490883
-7.685652173913044e-05,4.102025694404116
-7.683652173913044e-05,3.357286439616271
-7.681652173913043e-05,4.20474835023681
-7.679652173913043e-05,4.483566987497246
-7.677652173913043e-05,4.076345030445846
-7.675652173913044e-05,4.1350436909217
-7.673652173913043e-05,4.083682363005304
-7.671652173913043e-05,4.072676364166076
-7.669652173913043e-05,3.97362237461299
-7.667652173913044e-05,3.892911716458689
-7.665652173913043e-05,3.889243050178947
-7.663652173913043e-05,3.834213055982808
-7.661652173913043e-05,3.771845729227187
-7.659652173913044e-05,3.779183061786665
-7.657652173913044e-05,3.720484401310788
-7.655652173913043e-05,3.658117074555164
-7.653652173913043e-05,3.654448408275421
-7.651652173913044e-05,3.625099078037493
-7.649652173913044e-05,3.562731751281856
-7.647652173913043e-05,3.522376422204688
-7.645652173913043e-05,3.515039089645202
-7.643652173913044e-05,3.46734642800857
-7.641652173913044e-05,3.423322432651638
-7.639652173913043e-05,3.404979101252925
-7.637652173913043e-05,3.371961104735241
-7.635652173913043e-05,3.327937109378327
-7.633652173913044e-05,3.320599776818845
-7.631652173913043e-05,3.294919112860647
-7.629652173913043e-05,3.272907115182191
-7.627652173913043e-05,3.272907115182195
-7.625652173913044e-05,3.280244447741673
-7.623652173913043e-05,3.324268443098588
-7.621652173913043e-05,3.485689759407262
-7.619652173913043e-05,3.764508396667699
-7.617652173913044e-05,4.069007697886195
-7.615652173913044e-05,4.311139672349345
-7.613652173913043e-05,4.872445613149962
-7.611652173913043e-05,5.176944914368597
-7.609652173913044e-05,5.686889527252585
-7.607652173913044e-05,5.998726161030937
-7.605652173913043e-05,6.490327442516445
-7.603652173913043e-05,6.849856737931219
-7.601652173913043e-05,7.323114688018166
-7.599652173913044e-05,7.660631985754332
-7.597652173913043e-05,8.155901933519582
-7.595652173913043e-05,8.497087897535643
-7.593652173913043e-05,8.977683180182067
-7.591652173913044e-05,9.296857146519383
-7.589652173913043e-05,9.803133093124005
-7.587652173913043e-05,10.14431905714007
-7.585652173913043e-05,10.60657100838782
-7.583652173913044e-05,11.01012429915914
-7.581652173913044e-05,11.38432825969306
-7.579652173913043e-05,11.87592954117857
-7.577652173913043e-05,12.22078417147437
-7.575652173913044e-05,12.6536867924838
-7.573652173913044e-05,13.08292074721388
-7.571652173913043e-05,13.4461187089084
-7.569652173913043e-05,13.893695995037
-7.567652173913043e-05,14.32292994976704
-7.565652173913044e-05,14.6861279114614
-7.563652173913043e-05,15.11903053247102
-7.561652173913043e-05,15.55193315348065
-7.559652173913043e-05,15.90779378261587
-7.557652173913044e-05,16.3223530722264
-7.555652173913043e-05,16.75158702695648
-7.553652173913043e-05,17.1331283200497
-7.551652173913043e-05,17.53668161082158
-7.549652173913044e-05,17.94757223415237
-7.547652173913044e-05,18.32911352724579
-7.545652173913043e-05,18.72899815173773
-7.543652173913043e-05,19.14722610762838
-7.541652173913044e-05,19.53610473328092
-7.539652173913044e-05,19.91030869381484
-7.537652173913043e-05,20.30652465202704
-7.535652173913043e-05,20.6990719439595
-7.533652173913043e-05,21.06960723821368
-7.531652173913044e-05,21.45114853130673
-7.529652173913043e-05,21.80700916044177
-7.527652173913043e-05,22.14452645817808
-7.525652173913043e-05,22.48204375591454
-7.523652173913044e-05,22.79021172341264
-7.521652173913043e-05,23.06903036067322
-7.519652173913043e-05,23.32950566653494
-7.517652173913043e-05,23.55696297587907
-7.515652173913044e-05,23.74773362242551
-7.513652173913044e-05,23.9201609375735
-7.511652173913043e-05,24.06323892248346
-7.509652173913043e-05,24.16963024459599
-7.507652173913044e-05,24.23566623763133
-7.505652173913044e-05,24.27602156670853
-7.503652173913043e-05,24.32004556206544
-7.501652173913043e-05,24.3420575597439
-7.499652173913043e-05,23.89081160733546
-7.497652173913044e-05,23.68169762939023
-7.495652173913043e-05,24.16596157831625
-7.493652173913043e-05,24.12560624923908
-7.491652173913043e-05,24.30903956322623
-7.489652173913044e-05,24.34572622602362
-7.487652173913043e-05,24.2650155678693
-7.485652173913043e-05,24.2906962318275
-7.483652173913043e-05,24.29803356438696
-7.481652173913044e-05,24.23199757135165
-7.479652173913044e-05,24.2393349039111
-7.477652173913043e-05,24.26868423414905
-7.475652173913043e-05,24.19531090855419
-7.473652173913044e-05,24.22466023879212
-7.471652173913044e-05,24.28702756554776
-7.469652173913043e-05,24.24300357019085
-7.467652173913043e-05,24.16963024459599
-7.465652173913043e-05,24.16596157831623
-7.463652173913044e-05,24.12193758295934
-7.461652173913043e-05,24.04856425736449
-7.459652173913043e-05,24.04856425736449
-7.457652173913043e-05,24.0338895922455
-7.455652173913044e-05,23.98986559688861
-7.453652173913043e-05,23.98619693060887
-7.451652173913043e-05,23.98252826432912
-7.449652173913043e-05,23.94951026781142
-7.447652173913044e-05,23.92016093757351
-7.445652173913044e-05,23.93116693641273
-7.443652173913043e-05,23.91649227129376
-7.441652173913043e-05,23.88347427477607
-7.439652173913044e-05,23.87613694221659
-7.437652173913044e-05,23.86146227709762
-7.435652173913043e-05,23.84678761197864
-7.433652173913043e-05,23.82844428057993
-7.431652173913044e-05,23.82110694802045
-7.429652173913044e-05,23.80276361662174
-7.427652173913043e-05,23.77708295266354
-7.425652173913043e-05,23.77341428638379
-7.423652173913043e-05,23.76240828754456
-7.421652173913044e-05,23.75507095498508
-7.419652173913043e-05,23.74406495614585
-7.417652173913043e-05,23.71104695962817
-7.415652173913043e-05,23.70004096078894
-7.413652173913044e-05,23.69270362822946
-7.411652173913043e-05,23.68903496194972
-7.409652173913043e-05,23.66335429799152
-7.407652173913043e-05,23.65601696543203
-7.405652173913044e-05,23.65234829915229
-7.403652173913044e-05,23.62666763519409
-7.401652173913043e-05,23.62299896891435
-7.399652173913043e-05,23.58998097239666
-7.397652173913044e-05,23.58998097239666
-7.395652173913044e-05,23.57897497355744
-7.393652173913043e-05,23.57163764099795
-7.391652173913043e-05,23.55696297587898
-7.389652173913043e-05,23.55329430959923
-7.387652173913044e-05,23.53128231192078
-7.385652173913043e-05,23.52761364564104
-7.383652173913043e-05,23.50193298168284
-7.381652173913043e-05,23.48725831656387
-7.379652173913044e-05,23.47992098400439
-7.377652173913043e-05,23.47992098400439
-7.375652173913043e-05,23.45424032004619
-7.373652173913043e-05,23.44323432120696
-7.371652173913044e-05,23.43589698864748
-7.369652173913044e-05,23.40654765840954
-7.367652173913043e-05,23.39554165957031
-7.365652173913043e-05,23.38453566073108
-7.363652173913044e-05,23.37352966189185
-7.361652173913044e-05,23.35518633049314
-7.359652173913043e-05,23.3515176642134
-7.357652173913043e-05,23.34418033165391
-7.355652173913043e-05,23.32950566653494
-7.353652173913044e-05,23.32950566653494
-7.351652173913043e-05,23.30382500257674
-7.349652173913043e-05,23.29281900373751
-7.347652173913043e-05,23.28181300489828
-7.345652173913044e-05,23.26713833977932
-7.343652173913043e-05,23.25613234094009
-7.341652173913043e-05,23.24145767582112
-7.339652173913043e-05,23.23778900954137
-7.337652173913044e-05,23.22678301070215
-7.335652173913044e-05,23.21210834558318
-7.333652173913043e-05,23.20477101302369
-7.331652173913043e-05,23.19743368046421
-7.329652173913044e-05,23.18275901534524
-7.327652173913044e-05,23.16074701766678
-7.325652173913043e-05,23.14607235254781
-7.323652173913043e-05,23.13139768742884
-7.321652173913043e-05,23.12406035486935
-7.319652173913044e-05,23.1020483571909
-7.317652173913043e-05,23.11672302230987
-7.315652173913043e-05,23.09471102463142
-7.313652173913043e-05,23.09471102463141
-7.311652173913044e-05,23.07636769323271
-7.309652173913043e-05,23.0763676932327
-7.307652173913043e-05,23.06536169439347
-7.305652173913043e-05,23.04701836299476
-7.303652173913044e-05,23.03601236415554
-7.301652173913044e-05,23.0250063653163
-7.299652173913043e-05,23.01400036647708
-7.297652173913043e-05,22.98465103623914
-7.295652173913044e-05,22.9993257013581
-7.293652173913044e-05,22.97731370367965
-7.291652173913043e-05,22.9553017060012
-7.289652173913043e-05,22.93695837460248
-7.287652173913043e-05,22.94062704088222
-7.285652173913044e-05,22.91861504320377
-7.283652173913043e-05,22.91494637692403
-7.281652173913043e-05,22.91127771064428
-7.279652173913043e-05,22.8782597141266
-7.277652173913044e-05,22.87092238156712
-7.275652173913043e-05,22.86725371528738
-7.273652173913043e-05,22.85991638272789
-7.271652173913043e-05,22.83790438504944
-7.269652173913044e-05,22.84524171760891
-7.267652173913044e-05,22.81956105365072
-7.265652173913043e-05,22.81589238737098
-7.263652173913043e-05,22.80121772225201
-7.261652173913044e-05,22.79021172341279
-7.259652173913044e-05,22.78287439085329
-7.257652173913043e-05,22.76086239317484
-7.255652173913043e-05,22.75352506061535
-7.253652173913043e-05,22.73518172921663
-7.251652173913044e-05,22.71683839781793
-7.249652173913043e-05,22.7058323989787
-7.247652173913043e-05,22.69115773385973
-7.245652173913043e-05,22.67648306874076
-7.243652173913044e-05,22.67281440246102
-7.241652173913043e-05,22.65813973734205
-7.239652173913043e-05,22.63979640594333
-7.237652173913043e-05,22.62512174082436
