TP2/Mediciones/Pin9-Vref2V.csv

#Digilent WaveForms Oscilloscope Acquisition
#Device Name: Discovery2
#Serial Number: SN:210321B0E03A
#Date Time: 2021-06-20 16:46:00.776
#Sample rate: 1e+08Hz
#Samples: 8192
#Trigger: Source: Channel 1 Type: Edge Condition: Rising Level: 6.5 V Hyst.: Auto HoldOff: 100 ns
#Channel 1: Range: 5 V/div Offset: -10 V Attenuation: 1 X
#Wavegen Channel 1: Running
#Mode: Simple
#Type: DC
#Offset: 2 V

Time (s),Channel 1 (V)
-4.04596052631579e-05,6.282897317202143
-4.04496052631579e-05,6.290234649761627
-4.04396052631579e-05,6.31224664744008
-4.04296052631579e-05,6.304909314880602
-4.04196052631579e-05,6.301240648600857
-4.04096052631579e-05,6.275559984642658
-4.03996052631579e-05,6.2792286509224
-4.03896052631579e-05,6.308577981160328
-4.03796052631579e-05,6.286565983481886
-4.03696052631579e-05,6.275559984642658
-4.03596052631579e-05,6.282897317202143
-4.034960526315789e-05,6.271891318362926
-4.03396052631579e-05,6.297571982321113
-4.03296052631579e-05,6.271891318362915
-4.03196052631579e-05,6.301240648600857
-4.030960526315789e-05,6.286565983481889
-4.02996052631579e-05,6.293903316041368
-4.02896052631579e-05,6.282897317202143
-4.02796052631579e-05,6.282897317202143
-4.02696052631579e-05,6.290234649761626
-4.02596052631579e-05,6.286565983481887
-4.02496052631579e-05,6.304909314880598
-4.02396052631579e-05,6.312246647440084
-4.02296052631579e-05,6.293903316041371
-4.02196052631579e-05,6.279228650922407
-4.02096052631579e-05,6.301240648600857
-4.01996052631579e-05,6.301240648600857
-4.01896052631579e-05,6.293903316041371
-4.017960526315789e-05,6.2792286509224
-4.01696052631579e-05,6.2792286509224
-4.01596052631579e-05,6.282897317202143
-4.01496052631579e-05,6.293903316041371
-4.013960526315789e-05,6.304909314880591
-4.01296052631579e-05,6.290234649761635
-4.01196052631579e-05,6.275559984642658
-4.01096052631579e-05,6.301240648600857
-4.00996052631579e-05,6.290234649761627
-4.00896052631579e-05,6.290234649761627
-4.00796052631579e-05,6.308577981160341
-4.00696052631579e-05,6.308577981160341
-4.00596052631579e-05,6.326921312559055
-4.00496052631579e-05,6.286565983481904
-4.00396052631579e-05,6.290234649761627
-4.00296052631579e-05,6.293903316041371
-4.00196052631579e-05,6.301240648600857
-4.000960526315789e-05,6.290234649761633
-3.99996052631579e-05,6.301240648600857
-3.99896052631579e-05,6.275559984642658
-3.99796052631579e-05,6.297571982321113
-3.996960526315789e-05,6.286565983481886
-3.99596052631579e-05,6.286565983481886
-3.99496052631579e-05,6.2792286509224
-3.99396052631579e-05,6.304909314880598
-3.99296052631579e-05,6.286565983481887
-3.99196052631579e-05,6.290234649761626
-3.99096052631579e-05,6.290234649761627
-3.98996052631579e-05,6.286565983481886
-3.98896052631579e-05,6.297571982321113
-3.98796052631579e-05,6.293903316041373
-3.98696052631579e-05,6.282897317202143
-3.98596052631579e-05,6.282897317202143
-3.98496052631579e-05,6.308577981160341
-3.983960526315789e-05,6.286565983481886
-3.98296052631579e-05,6.286565983481886
-3.98196052631579e-05,6.293903316041371
-3.98096052631579e-05,6.282897317202143
-3.979960526315789e-05,6.286565983481893
-3.97896052631579e-05,6.301240648600857
-3.97796052631579e-05,6.308577981160341
-3.97696052631579e-05,6.282897317202143
-3.97596052631579e-05,6.290234649761631
-3.97496052631579e-05,6.297571982321109
-3.97396052631579e-05,6.286565983481886
-3.97296052631579e-05,6.290234649761627
-3.97196052631579e-05,6.297571982321113
-3.97096052631579e-05,6.308577981160336
-3.96996052631579e-05,6.297571982321113
-3.96896052631579e-05,6.290234649761627
-3.96796052631579e-05,6.297571982321113
-3.96696052631579e-05,6.279228650922408
-3.96596052631579e-05,6.2792286509224
-3.96496052631579e-05,6.308577981160341
-3.96396052631579e-05,6.293903316041371
-3.962960526315789e-05,6.290234649761635
-3.96196052631579e-05,6.304909314880598
-3.96096052631579e-05,6.308577981160341
-3.95996052631579e-05,6.290234649761627
-3.95896052631579e-05,6.297571982321106
-3.95796052631579e-05,6.28289731720215
-3.95696052631579e-05,6.286565983481886
-3.95596052631579e-05,6.2792286509224
-3.95496052631579e-05,6.286565983481884
-3.95396052631579e-05,6.282897317202145
-3.95296052631579e-05,6.286565983481886
-3.95196052631579e-05,6.297571982321113
-3.95096052631579e-05,6.290234649761627
-3.94996052631579e-05,6.308577981160333
-3.94896052631579e-05,6.286565983481886
-3.94796052631579e-05,6.282897317202143
-3.94696052631579e-05,6.293903316041371
-3.945960526315789e-05,6.286565983481889
-3.94496052631579e-05,6.293903316041371
-3.94396052631579e-05,6.293903316041371
-3.94296052631579e-05,6.286565983481886
-3.94196052631579e-05,6.286565983481882
-3.94096052631579e-05,6.279228650922404
-3.93996052631579e-05,6.271891318362915
-3.93896052631579e-05,6.2792286509224
-3.93796052631579e-05,6.304909314880595
-3.93696052631579e-05,6.297571982321116
-3.93596052631579e-05,6.2792286509224
-3.93496052631579e-05,6.297571982321113
-3.93396052631579e-05,6.2792286509224
-3.93296052631579e-05,6.290234649761622
-3.93196052631579e-05,6.275559984642658
-3.93096052631579e-05,6.286565983481886
-3.92996052631579e-05,6.290234649761627
-3.928960526315789e-05,6.282897317202135
-3.92796052631579e-05,6.264553985803429
-3.92696052631579e-05,6.286565983481886
-3.92596052631579e-05,6.286565983481886
-3.924960526315789e-05,6.286565983481889
-3.92396052631579e-05,6.293903316041368
-3.92296052631579e-05,6.271891318362915
-3.92196052631579e-05,6.2792286509224
-3.92096052631579e-05,6.282897317202141
-3.91996052631579e-05,6.279228650922402
-3.91896052631579e-05,6.2792286509224
-3.91796052631579e-05,6.264553985803429
-3.91696052631579e-05,6.275559984642658
-3.91596052631579e-05,6.282897317202139
-3.91496052631579e-05,6.286565983481886
-3.91396052631579e-05,6.290234649761627
-3.91296052631579e-05,6.2792286509224
-3.911960526315789e-05,6.26822265208318
-3.91096052631579e-05,6.282897317202143
-3.90996052631579e-05,6.268222652083173
-3.90896052631579e-05,6.282897317202143
-3.907960526315789e-05,6.271891318362918
-3.90696052631579e-05,6.279228650922397
-3.90596052631579e-05,6.297571982321113
-3.90496052631579e-05,6.282897317202143
-3.90396052631579e-05,6.264553985803431
-3.90296052631579e-05,6.268222652083171
-3.90196052631579e-05,6.282897317202143
-3.90096052631579e-05,6.2792286509224
-3.89996052631579e-05,6.282897317202143
-3.89896052631579e-05,6.286565983481884
-3.89796052631579e-05,6.286565983481886
-3.89696052631579e-05,6.2792286509224
-3.89596052631579e-05,6.286565983481886
-3.894960526315789e-05,6.290234649761631
-3.89396052631579e-05,6.297571982321113
-3.89296052631579e-05,6.290234649761627
-3.89196052631579e-05,6.264553985803429
-3.890960526315789e-05,6.297571982321111
-3.88996052631579e-05,6.293903316041371
-3.88896052631579e-05,6.271891318362915
-3.88796052631579e-05,6.2792286509224
-3.88696052631579e-05,6.282897317202141
-3.88596052631579e-05,6.279228650922402
-3.88496052631579e-05,6.290234649761627
-3.88396052631579e-05,6.290234649761627
-3.88296052631579e-05,6.268222652083173
-3.88196052631579e-05,6.275559984642654
-3.88096052631579e-05,6.286565983481886
-3.87996052631579e-05,6.268222652083173
-3.87896052631579e-05,6.282897317202143
-3.877960526315789e-05,6.279228650922397
-3.87696052631579e-05,6.271891318362915
-3.87596052631579e-05,6.275559984642658
-3.87496052631579e-05,6.2792286509224
-3.873960526315789e-05,6.279228650922407
-3.87296052631579e-05,6.293903316041371
-3.87196052631579e-05,6.286565983481886
-3.87096052631579e-05,6.271891318362915
-3.86996052631579e-05,6.282897317202131
-3.86896052631579e-05,6.257216653243956
-3.86796052631579e-05,6.268222652083173
-3.86696052631579e-05,6.286565983481886
-3.86596052631579e-05,6.268222652083173
-3.86496052631579e-05,6.290234649761618
-3.86396052631579e-05,6.271891318362915
-3.86296052631579e-05,6.282897317202143
-3.86196052631579e-05,6.2792286509224
-3.86096052631579e-05,6.290234649761622
-3.85996052631579e-05,6.2792286509224
-3.85896052631579e-05,6.293903316041371
-3.85796052631579e-05,6.293903316041371
-3.856960526315789e-05,6.282897317202143
-3.85596052631579e-05,6.282897317202143
-3.85496052631579e-05,6.290234649761627
-3.85396052631579e-05,6.286565983481886
-3.85296052631579e-05,6.282897317202139
-3.85196052631579e-05,6.275559984642661
-3.85096052631579e-05,6.264553985803429
-3.84996052631579e-05,6.264553985803429
-3.84896052631579e-05,6.279228650922402
-3.84796052631579e-05,6.282897317202141
-3.84696052631579e-05,6.290234649761627
-3.84596052631579e-05,6.2792286509224
-3.84496052631579e-05,6.290234649761627
-3.84396052631579e-05,6.275559984642665
-3.84296052631579e-05,6.271891318362915
-3.84196052631579e-05,6.271891318362915
-3.84096052631579e-05,6.282897317202143
-3.839960526315789e-05,6.27189131836292
-3.83896052631579e-05,6.282897317202143
-3.83796052631579e-05,6.290234649761627
-3.83696052631579e-05,6.260885319523688
-3.83596052631579e-05,6.297571982321106
-3.83496052631579e-05,6.28289731720215
-3.83396052631579e-05,6.286565983481886
-3.83296052631579e-05,6.290234649761627
-3.83196052631579e-05,6.271891318362918
-3.83096052631579e-05,6.279228650922397
-3.82996052631579e-05,6.271891318362915
-3.82896052631579e-05,6.271891318362915
-3.82796052631579e-05,6.2792286509224
-3.82696052631579e-05,6.290234649761622
-3.82596052631579e-05,6.2792286509224
-3.82496052631579e-05,6.286565983481886
-3.82396052631579e-05,6.290234649761627
-3.822960526315789e-05,6.290234649761622
-3.82196052631579e-05,6.2792286509224
-3.82096052631579e-05,6.282897317202143
-3.81996052631579e-05,6.2792286509224
-3.818960526315789e-05,6.268222652083175
-3.81796052631579e-05,6.271891318362913
-3.81696052631579e-05,6.260885319523688
-3.81596052631579e-05,6.2792286509224
-3.81496052631579e-05,6.260885319523701
-3.81396052631579e-05,6.290234649761614
-3.81296052631579e-05,6.275559984642658
-3.81196052631579e-05,6.268222652083173
-3.81096052631579e-05,6.290234649761627
-3.80996052631579e-05,6.279228650922406
-3.80896052631579e-05,6.268222652083173
-3.80796052631579e-05,6.2792286509224
-3.80696052631579e-05,6.260885319523688
-3.805960526315789e-05,6.279228650922397
-3.80496052631579e-05,6.271891318362915
-3.80396052631579e-05,6.275559984642658
-3.80296052631579e-05,6.260885319523688
-3.801960526315789e-05,6.260885319523697
-3.80096052631579e-05,6.282897317202133
-3.79996052631579e-05,6.2792286509224
-3.79896052631579e-05,6.257216653243945
-3.79796052631579e-05,6.290234649761616
-3.79696052631579e-05,6.264553985803441
-3.79596052631579e-05,6.2792286509224
-3.79496052631579e-05,6.282897317202143
-3.79396052631579e-05,6.268222652083173
-3.79296052631579e-05,6.264553985803431
-3.79196052631579e-05,6.264553985803429
-3.79096052631579e-05,6.275559984642658
-3.78996052631579e-05,6.286565983481886
-3.788960526315789e-05,6.249879320684465
-3.78796052631579e-05,6.260885319523688
-3.78696052631579e-05,6.260885319523688
-3.78596052631579e-05,6.268222652083173
-3.784960526315789e-05,6.253547986964206
-3.78396052631579e-05,6.260885319523688
-3.78296052631579e-05,6.2792286509224
-3.78196052631579e-05,6.260885319523688
-3.78096052631579e-05,6.282897317202138
-3.77996052631579e-05,6.27189131836292
-3.77896052631579e-05,6.275559984642658
-3.77796052631579e-05,6.268222652083173
-3.77696052631579e-05,6.257216653243945
-3.77596052631579e-05,6.27555998464265
-3.77496052631579e-05,6.268222652083173
-3.77396052631579e-05,6.2792286509224
-3.77296052631579e-05,6.268222652083173
-3.77196052631579e-05,6.260885319523691
-3.77096052631579e-05,6.253547986964202
-3.76996052631579e-05,6.271891318362915
-3.76896052631579e-05,6.275559984642658
-3.767960526315789e-05,6.264553985803422
-3.76696052631579e-05,6.249879320684459
-3.76596052631579e-05,6.253547986964202
-3.76496052631579e-05,6.268222652083173
-3.76396052631579e-05,6.260885319523691
-3.76296052631579e-05,6.268222652083169
-3.76196052631579e-05,6.282897317202143
-3.76096052631579e-05,6.275559984642658
-3.75996052631579e-05,6.260885319523688
-3.75896052631579e-05,6.268222652083169
-3.75796052631579e-05,6.260885319523688
-3.75696052631579e-05,6.271891318362915
-3.75596052631579e-05,6.253547986964202
-3.75496052631579e-05,6.271891318362907
-3.75396052631579e-05,6.260885319523688
-3.75296052631579e-05,6.268222652083173
-3.75196052631579e-05,6.253547986964202
-3.750960526315789e-05,6.268222652083173
-3.74996052631579e-05,6.268222652083173
-3.74896052631579e-05,6.268222652083173
-3.74796052631579e-05,6.271891318362915
-3.74696052631579e-05,6.275559984642661
-3.74596052631579e-05,6.282897317202139
-3.74496052631579e-05,6.257216653243945
-3.74396052631579e-05,6.264553985803429
-3.74296052631579e-05,6.2535479869642
-3.74196052631579e-05,6.249879320684461
-3.74096052631579e-05,6.271891318362915
-3.73996052631579e-05,6.268222652083173
-3.73896052631579e-05,6.260885319523688
-3.73796052631579e-05,6.260885319523688
-3.73696052631579e-05,6.260885319523688
-3.73596052631579e-05,6.260885319523688
-3.73496052631579e-05,6.260885319523688
-3.733960526315789e-05,6.253547986964204
-3.73296052631579e-05,6.257216653243945
-3.73196052631579e-05,6.268222652083173
-3.73096052631579e-05,6.260885319523688
-3.729960526315789e-05,6.264553985803431
-3.72896052631579e-05,6.268222652083171
-3.72796052631579e-05,6.268222652083173
-3.72696052631579e-05,6.257216653243945
-3.72596052631579e-05,6.268222652083166
-3.72496052631579e-05,6.253547986964209
-3.72396052631579e-05,6.257216653243945
-3.72296052631579e-05,6.264553985803429
-3.72196052631579e-05,6.275559984642658
-3.72096052631579e-05,6.257216653243953
-3.71996052631579e-05,6.257216653243945
-3.71896052631579e-05,6.264553985803429
-3.71796052631579e-05,6.249879320684459
-3.716960526315789e-05,6.253547986964209
-3.71596052631579e-05,6.268222652083173
-3.71496052631579e-05,6.264553985803429
-3.71396052631579e-05,6.275559984642658
-3.712960526315789e-05,6.253547986964209
-3.71196052631579e-05,6.268222652083166
-3.71096052631579e-05,6.253547986964202
-3.70996052631579e-05,6.249879320684459
-3.70896052631579e-05,6.27922865092239
-3.70796052631579e-05,6.257216653243955
-3.70696052631579e-05,6.246210654404717
-3.70596052631579e-05,6.249879320684459
-3.70496052631579e-05,6.275559984642658
-3.70396052631579e-05,6.260885319523695
-3.70296052631579e-05,6.253547986964202
-3.70196052631579e-05,6.253547986964202
-3.70096052631579e-05,6.264553985803429
-3.699960526315789e-05,6.271891318362911
-3.69896052631579e-05,6.264553985803429
-3.69796052631579e-05,6.271891318362915
-3.69696052631579e-05,6.286565983481886
-3.695960526315789e-05,6.279228650922395
-3.69496052631579e-05,6.268222652083178
-3.69396052631579e-05,6.253547986964202
-3.69296052631579e-05,6.257216653243945
-3.69196052631579e-05,6.264553985803435
-3.69096052631579e-05,6.275559984642652
-3.68996052631579e-05,6.297571982321113
-3.68896052631579e-05,6.536035290504381
-3.68796052631579e-05,6.704793939372541
-3.68696052631579e-05,6.712131271932023
-3.68596052631579e-05,6.686450607973828
-3.68496052631579e-05,5.75460937291921
-3.68396052631579e-05,5.351056082147525
-3.682960526315789e-05,5.695910712443495
-3.68196052631579e-05,6.062777340417588
-3.68096052631579e-05,6.359939309076737
-3.67996052631579e-05,6.154493997411152
-3.678960526315789e-05,6.099464003215047
-3.67796052631579e-05,6.172837328809865
-3.67696052631579e-05,6.117807334613726
-3.67596052631579e-05,5.989404014822735
-3.67496052631579e-05,5.894018691549453
-3.67396052631579e-05,5.949048685745542
-3.67296052631579e-05,6.004078679941706
-3.67196052631579e-05,6.026090677620162
-3.67096052631579e-05,6.103132669494756
-3.66996052631579e-05,6.147156664851646
-3.66896052631579e-05,6.114138668333984
-3.66796052631579e-05,6.084789338096042
-3.66696052631579e-05,6.084789338096042
-3.66596052631579e-05,6.147156664851638
-3.66496052631579e-05,6.216861324166777
-3.66396052631579e-05,6.227867323006004
-3.66296052631579e-05,6.198517992768063
-3.661960526315789e-05,6.187511993928848
-3.66096052631579e-05,6.216861324166777
-3.65996052631579e-05,6.242541988124975
-3.65896052631579e-05,6.242541988124975
-3.65796052631579e-05,6.1618313299706
-3.65696052631579e-05,6.081120671816337
-3.65596052631579e-05,6.106801335774499
-3.65496052631579e-05,6.205855325327549
-3.65396052631579e-05,6.246210654404717
-3.65296052631579e-05,6.180174661369381
-3.65196052631579e-05,6.125144667173211
-3.65096052631579e-05,6.154493997411152
-3.64996052631579e-05,6.231535989285747
-3.64896052631579e-05,6.198517992768078
-3.64796052631579e-05,6.136150666012439
-3.64696052631579e-05,6.128813333452954
-3.64596052631579e-05,6.176505995089608
-3.644960526315789e-05,6.235204655565497
-3.64396052631579e-05,6.253547986964202
-3.64296052631579e-05,6.209523991607291
-3.64196052631579e-05,6.198517992768063
-3.64096052631579e-05,6.209523991607308
-3.63996052631579e-05,6.2462106544047
-3.63896052631579e-05,6.268222652083173
-3.63796052631579e-05,6.242541988124975
-3.63696052631579e-05,6.23153598928576
-3.63596052631579e-05,6.260885319523674
-3.63496052631579e-05,6.275559984642658
-3.63396052631579e-05,6.282897317202143
-3.63296052631579e-05,6.257216653243945
-3.63196052631579e-05,6.227867323006017
-3.63096052631579e-05,6.264553985803429
-3.62996052631579e-05,6.271891318362915
-3.62896052631579e-05,6.271891318362915
-3.627960526315789e-05,6.264553985803435
-3.62696052631579e-05,6.275559984642658
-3.62596052631579e-05,6.264553985803429
-3.62496052631579e-05,6.282897317202143
-3.623960526315789e-05,6.286565983481889
-3.62296052631579e-05,6.293903316041368
-3.62196052631579e-05,6.330589978838796
-3.62096052631579e-05,6.352601976517253
-3.61996052631579e-05,6.29023464976162
-3.61896052631579e-05,6.275559984642665
-3.61796052631579e-05,6.286565983481886
-3.61696052631579e-05,6.290234649761627
-3.61596052631579e-05,6.275559984642658
-3.61496052631579e-05,6.253547986964212
-3.61396052631579e-05,6.242541988124975
-3.61296052631579e-05,6.249879320684459
-3.61196052631579e-05,6.264553985803429
-3.610960526315789e-05,6.268222652083163
-3.60996052631579e-05,6.246210654404717
-3.60896052631579e-05,6.2792286509224
-3.60796052631579e-05,6.286565983481886
-3.606960526315789e-05,6.279228650922402
-3.60596052631579e-05,6.282897317202141
-3.60496052631579e-05,6.271891318362915
-3.60396052631579e-05,6.286565983481886
-3.60296052631579e-05,6.268222652083166
-3.60196052631579e-05,6.253547986964209
-3.60096052631579e-05,6.249879320684459
-3.59996052631579e-05,6.253547986964202
-3.59896052631579e-05,6.257216653243945
-3.59796052631579e-05,6.260885319523686
-3.59696052631579e-05,6.264553985803429
-3.59596052631579e-05,6.271891318362915
-3.59496052631579e-05,6.2792286509224
-3.593960526315789e-05,6.268222652083173
-3.59296052631579e-05,6.268222652083173
-3.59196052631579e-05,6.264553985803429
-3.59096052631579e-05,6.246210654404717
-3.589960526315789e-05,6.246210654404717
-3.58896052631579e-05,6.246210654404717
-3.58796052631579e-05,6.260885319523688
-3.58696052631579e-05,6.242541988124975
-3.58596052631579e-05,6.275559984642646
-3.58496052631579e-05,6.249879320684471
-3.58396052631579e-05,6.275559984642658
-3.58296052631579e-05,6.271891318362915
-3.58196052631579e-05,6.260885319523688
-3.58096052631579e-05,6.260885319523688
-3.57996052631579e-05,6.242541988124975
-3.57896052631579e-05,6.286565983481886
-3.57796052631579e-05,6.789173263806621
-3.576960526315789e-05,5.90135602410898
-3.57596052631579e-05,6.048102675298617
-3.57496052631579e-05,6.734143269610481
-3.57396052631579e-05,5.732597375240754
-3.572960526315789e-05,5.692242046163598
-3.57196052631579e-05,5.717922710121784
-3.57096052631579e-05,6.213192657887033
-3.56996052631579e-05,6.073783339256815
-3.56896052631579e-05,5.582182057771447
-3.56796052631579e-05,5.886681358989804
-3.56696052631579e-05,6.46266196490953
-3.56596052631579e-05,6.378282640475451
-3.56496052631579e-05,6.264553985803429
-3.56396052631579e-05,6.121476000893534
-3.56296052631579e-05,6.161831329970637
-3.56196052631579e-05,6.19484932648832
-3.56096052631579e-05,6.301240648600857
-3.55996052631579e-05,6.026090677620287
-3.55896052631579e-05,6.099464003215013
-3.55796052631579e-05,6.414969303272876
-3.55696052631579e-05,6.03709667645939
