TP2/Mediciones/Vcsnubber-Vref145V.csv

#Digilent WaveForms Oscilloscope Acquisition
#Device Name: Discovery2
#Serial Number: SN:210321B0E03A
#Date Time: 2021-06-21 11:59:24.415
#Sample rate: 5e+07Hz
#Samples: 8192
#Trigger: Source: Channel 1 Type: Edge Condition: Rising Level: 11.5 V Hyst.: Auto HoldOff: 100 ns
#Channel 1: Range: 5 V/div Offset: -1.5 V Attenuation: 1 X
#Power Supplies: ON
#Positive Supply: ON
#Voltage: 1.45 V
#Negative Supply: OFF
#Voltage: -500 mV

Time (s),Channel 1 (V)
-8.491578313253012e-05,25.87634047436942
-8.489578313253012e-05,26.03409312439835
-8.487578313253011e-05,26.0304244581186
-8.485578313253012e-05,26.0120811267199
-8.483578313253012e-05,25.99006912904144
-8.481578313253012e-05,25.97906313020221
-8.479578313253011e-05,25.9607197988035
-8.477578313253012e-05,25.94971379996428
-8.475578313253012e-05,25.91669580344659
-8.473578313253012e-05,25.9093584708871
-8.471578313253012e-05,25.89468380576813
-8.469578313253011e-05,25.88734647320864
-8.467578313253012e-05,25.86533447553019
-8.465578313253012e-05,25.85065981041122
-8.463578313253012e-05,25.82497914645302
-8.461578313253011e-05,25.81764181389353
-8.459578313253012e-05,25.81030448133406
-8.457578313253012e-05,25.7882924836556
-8.455578313253012e-05,25.76628048597714
-8.453578313253011e-05,25.75527448713791
-8.451578313253012e-05,25.74793715457843
-8.449578313253012e-05,25.73326248945946
-8.447578313253012e-05,25.71858782434049
-8.445578313253011e-05,25.69290716038229
-8.443578313253012e-05,25.67823249526333
-8.441578313253012e-05,25.66722649642409
-8.439578313253012e-05,25.65255183130512
-8.437578313253012e-05,25.63787716618615
-8.435578313253011e-05,25.61953383478744
-8.433578313253012e-05,25.60852783594821
-8.431578313253012e-05,25.58651583826975
-8.429578313253012e-05,25.57917850571027
-8.427578313253011e-05,25.56817250687104
-8.425578313253012e-05,25.55349784175208
-8.423578313253012e-05,25.54616050919259
-8.421578313253012e-05,25.52047984523439
-8.419578313253011e-05,25.51314251267489
-8.417578313253012e-05,25.48746184871672
-8.415578313253012e-05,25.49846784755593
-8.413578313253012e-05,25.47278718359773
-8.411578313253011e-05,25.45077518591928
-8.409578313253012e-05,25.4434378533598
-8.407578313253012e-05,25.42876318824083
-8.405578313253012e-05,25.41041985684211
-8.403578313253012e-05,25.39574519172314
-8.401578313253011e-05,25.37006452776494
-8.399578313253012e-05,25.37006452776494
-8.397578313253012e-05,25.35538986264597
-8.395578313253012e-05,25.34438386380674
-8.393578313253011e-05,25.32237186612829
-8.391578313253012e-05,25.31136586728906
-8.389578313253012e-05,25.31136586728906
-8.387578313253012e-05,25.29669120217009
-8.385578313253011e-05,25.27101053821189
-8.383578313253012e-05,25.25633587309293
-8.381578313253012e-05,25.2453298742537
-8.379578313253012e-05,25.23065520913472
-8.377578313253011e-05,25.21598054401575
-8.375578313253012e-05,25.19396854633731
-8.373578313253012e-05,25.18663121377781
-8.371578313253012e-05,25.17929388121833
-8.369578313253011e-05,25.15728188353987
-8.367578313253011e-05,25.14627588470064
-8.365578313253012e-05,25.13160121958168
-8.363578313253012e-05,25.10958922190322
-8.361578313253012e-05,25.10592055562348
-8.359578313253011e-05,25.08390855794502
-8.357578313253012e-05,25.08757722422476
-8.355578313253012e-05,25.06189656026656
-8.353578313253012e-05,25.04355322886785
-8.351578313253011e-05,25.04355322886784
-8.349578313253012e-05,25.02154123118941
-8.347578313253012e-05,25.00319789979068
-8.345578313253012e-05,24.9958605672312
-8.343578313253011e-05,24.98118590211223
-8.341578313253012e-05,24.95917390443378
-8.339578313253012e-05,24.9444992393148
-8.337578313253012e-05,24.92248724163635
-8.335578313253011e-05,24.92615590791609
-8.333578313253013e-05,24.90781257651738
-8.331578313253012e-05,24.88946924511866
-8.329578313253012e-05,24.88580057883892
-8.327578313253012e-05,24.86011991488072
-8.325578313253011e-05,24.84544524976174
-8.323578313253012e-05,24.8234332520833
-8.321578313253012e-05,24.81242725324407
-8.319578313253012e-05,24.80875858696433
-8.317578313253011e-05,24.78674658928586
-8.315578313253012e-05,24.77207192416691
-8.313578313253012e-05,24.75739725904793
-8.311578313253012e-05,24.75739725904793
-8.309578313253011e-05,24.7207105962505
-8.307578313253012e-05,24.70970459741128
-8.305578313253012e-05,24.69502993229231
-8.303578313253012e-05,24.66934926833411
-8.301578313253011e-05,24.66568060205437
-8.299578313253013e-05,24.64366860437592
-8.297578313253012e-05,24.61798794041771
-8.295578313253012e-05,24.59230727645951
-8.293578313253012e-05,24.58496994390003
-8.291578313253011e-05,24.57029527878104
-8.289578313253012e-05,24.54094594854311
-8.287578313253012e-05,24.52993994970389
-8.285578313253012e-05,24.51159661830518
-8.283578313253011e-05,24.48958462062647
-8.281578313253012e-05,23.9319473461061
-8.279578313253012e-05,23.89159201702868
-8.277578313253012e-05,24.66201193577462
-8.275578313253011e-05,24.50059061946592
-8.273578313253012e-05,24.44922929154958
-8.271578313253012e-05,24.50425928574569
-8.269578313253012e-05,24.47124128922801
-8.267578313253011e-05,24.43455462643058
-8.265578313253012e-05,24.39786796363317
-8.263578313253012e-05,24.30248264035985
-8.261578313253012e-05,24.29147664152062
-8.259578313253012e-05,24.24745264616371
-8.257578313253011e-05,24.16674198800936
-8.255578313253012e-05,24.13739265777143
-8.253578313253012e-05,24.11538066009298
-8.251578313253012e-05,24.04934466705761
-8.249578313253011e-05,24.00532067170069
-8.247578313253012e-05,23.98697734030199
-8.245578313253012e-05,23.9282786798261
-8.243578313253012e-05,23.87324868562996
-8.241578313253011e-05,23.82922469027302
-8.239578313253012e-05,23.75585136467823
-8.237578313253012e-05,23.69715270420232
-8.235578313253012e-05,23.64946004256567
-8.233578313253011e-05,23.58709271581004
-8.231578313253012e-05,23.53206272161393
-8.229578313253012e-05,23.47336406113802
-8.227578313253012e-05,23.39632206926343
-8.225578313253012e-05,23.33028607622806
-8.223578313253011e-05,23.27158741575215
-8.221578313253012e-05,23.19821409015733
-8.219578313253012e-05,23.13217809712196
-8.217578313253012e-05,23.05880477152711
-8.215578313253011e-05,22.97809411337274
-8.213578313253012e-05,22.90838945405769
-8.211578313253012e-05,22.83501612846281
-8.209578313253012e-05,22.75430547030847
-8.207578313253011e-05,22.68093214471359
-8.205578313253012e-05,22.61856481795803
-8.203578313253012e-05,22.53051682724418
-8.201578313253012e-05,22.45714350164932
-8.199578313253011e-05,22.37643284349499
-8.197578313253012e-05,22.29205351906095
-8.195578313253012e-05,22.21501152718631
-8.193578313253012e-05,22.14163820159146
-8.191578313253012e-05,22.05359021087764
-8.189578313253011e-05,21.96921088644352
-8.187578313253012e-05,21.89216889456896
-8.185578313253012e-05,21.80412090385514
-8.183578313253012e-05,21.73074757826029
-8.181578313253011e-05,21.65003692010592
-8.179578313253012e-05,21.56198892939213
-8.177578313253012e-05,21.45926627355934
-8.175578313253012e-05,21.38589294796449
-8.173578313253011e-05,21.30518228981011
-8.171578313253012e-05,21.21713429909637
-8.169578313253012e-05,21.12541764210276
-8.167578313253012e-05,21.04837565022817
-8.165578313253011e-05,20.87594833508027
-8.163578313253012e-05,19.77167978487825
-8.161578313253012e-05,20.56778036758189
-8.159578313253012e-05,20.63381636061726
-8.157578313253011e-05,20.66683435713494
-8.155578313253011e-05,20.54209970362369
-8.153578313253012e-05,20.53109370478446
-8.151578313253012e-05,20.44671438035038
-8.149578313253012e-05,20.27061839892274
-8.147578313253011e-05,20.16789574308989
-8.145578313253012e-05,20.05416708841793
-8.143578313253012e-05,19.81203511395492
-8.141578313253012e-05,19.6726257953247
-8.139578313253011e-05,19.52954781041465
-8.137578313253012e-05,19.3387771638682
-8.135578313253012e-05,19.1736871812797
-8.133578313253012e-05,18.96824186961412
-8.131578313253011e-05,18.73711589399034
-8.129578313253012e-05,18.48030925440847
-8.127578313253012e-05,18.30788193926045
-8.125578313253012e-05,18.06574996479744
-8.123578313253011e-05,17.85296732057237
-8.121578313253013e-05,17.68420867170429
-8.119578313253012e-05,17.47509469375888
-8.117578313253012e-05,17.29899871233124
-8.115578313253012e-05,17.1229027309036
-8.113578313253011e-05,16.94680674947586
-8.111578313253012e-05,16.75970476920908
-8.109578313253012e-05,16.59461478662066
-8.107578313253012e-05,16.41851880519302
-8.105578313253011e-05,16.22774815864634
-8.103578313253012e-05,16.07733284117703
-8.101578313253012e-05,15.9085741923088
-8.099578313253012e-05,15.72514087832167
-8.097578313253011e-05,15.57472556085215
-8.095578313253012e-05,15.41330424454362
-8.093578313253012e-05,15.2372082631159
-8.091578313253012e-05,15.0904616119262
-8.089578313253011e-05,14.92904029561753
-8.087578313253013e-05,14.78229364442789
-8.085578313253012e-05,14.62087232811915
-8.083578313253012e-05,14.48146300948893
-8.081578313253012e-05,14.32004169318025
-8.079578313253011e-05,14.18430104082972
-8.077578313253012e-05,14.04489172219956
-8.075578313253012e-05,13.90548240356934
-8.073578313253012e-05,13.76240441865938
-8.071578313253011e-05,13.61932643374936
-8.069578313253012e-05,13.48358578139901
-8.067578313253012e-05,13.35151379532821
-8.065578313253012e-05,13.21210447669799
-8.063578313253011e-05,13.07636382434745
-8.061578313253012e-05,12.92961717315788
-8.059578313253012e-05,12.81221985220605
-8.057578313253012e-05,12.67647919985557
-8.055578313253011e-05,12.55908187890381
-8.053578313253012e-05,12.41600389399392
-8.051578313253012e-05,12.29860657304209
-8.049578313253012e-05,12.18120925209032
-8.047578313253012e-05,12.0417999334601
-8.045578313253011e-05,11.93907727762725
-8.043578313253012e-05,11.80700529155658
-8.041578313253012e-05,11.68227063804533
-8.039578313253012e-05,11.56854198337331
-8.037578313253011e-05,11.45481332870123
-8.035578313253012e-05,11.3300786751901
-8.033578313253012e-05,11.24203068447622
-8.031578313253012e-05,11.12096469724471
-8.029578313253011e-05,11.00723604257264
-8.027578313253012e-05,10.89717605418047
-8.025578313253012e-05,10.79445339834762
-8.023578313253012e-05,10.68439340995535
-8.021578313253011e-05,10.57433342156307
-8.019578313253012e-05,10.47161076573032
-8.017578313253012e-05,10.361550777338
-8.015578313253012e-05,10.24415345638624
-8.013578313253012e-05,10.1634427982319
-8.011578313253011e-05,10.06072014239906
-8.009578313253012e-05,9.965334819125799
-8.007578313253012e-05,9.858943497013263
-8.005578313253012e-05,9.752552174900728
-8.003578313253011e-05,9.66450418418686
-8.001578313253012e-05,9.56178152835416
-7.999578313253012e-05,9.477402203920034
-7.997578313253012e-05,9.371010881807498
-7.995578313253011e-05,9.275625558534148
-7.993578313253012e-05,9.180240235260927
-7.991578313253012e-05,9.110535575945775
-7.989578313253012e-05,9.007812920112983
-7.987578313253011e-05,8.919764929399159
-7.985578313253012e-05,8.831716938685378
-7.983578313253012e-05,8.747337614251258
-7.981578313253012e-05,8.666626956096922
-7.979578313253012e-05,8.571241632823615
-7.977578313253011e-05,8.497868307228719
-7.975578313253012e-05,8.402482983955455
-7.973578313253012e-05,8.321772325801117
-7.971578313253012e-05,8.241061667646781
-7.969578313253011e-05,8.156682343212662
-7.967578313253012e-05,8.072303018778621
-7.965578313253012e-05,7.991592360624285
-7.963578313253012e-05,7.907213036190205
-7.961578313253011e-05,7.8411770431548
-7.959578313253012e-05,7.756797718720796
-7.957578313253012e-05,7.687093059405649
-7.955578313253012e-05,7.613719733810797
-7.953578313253011e-05,7.529340409376717
-7.951578313253012e-05,7.4559670837819
-7.949578313253012e-05,7.378925091907272
-7.947578313253012e-05,7.32022643143139
-7.945578313253011e-05,7.254190438396023
-7.943578313253013e-05,7.169811113961981
-7.941578313253012e-05,7.092769122087349
-7.939578313253012e-05,7.026733129051983
-7.937578313253012e-05,6.957028469736873
-7.935578313253011e-05,6.905667141820443
-7.933578313253012e-05,6.832293816225626
-7.931578313253012e-05,6.758920490630773
-7.929578313253012e-05,6.69655316387515
-7.927578313253011e-05,6.623179838280267
-7.925578313253012e-05,6.55714384524496
-7.923578313253012e-05,6.491107852209565
-7.921578313253012e-05,6.439746524293168
-7.919578313253011e-05,6.366373198698316
-7.917578313253012e-05,6.315011870781943
-7.915578313253012e-05,6.259981876585782
-7.913578313253012e-05,6.190277217270671
-7.911578313253011e-05,6.113235225396076
-7.909578313253013e-05,6.072879896318928
-7.907578313253012e-05,5.999506570724057
-7.905578313253012e-05,5.94814524280766
-7.903578313253012e-05,5.896783914891264
-7.901578313253011e-05,5.838085254415354
-7.899578313253012e-05,5.775717927659759
-7.897578313253012e-05,5.73536259858259
-7.895578313253012e-05,5.672995271826967
-7.893578313253011e-05,5.599621946232094
-7.891578313253012e-05,5.555597950875224
-7.889578313253012e-05,5.496899290399321
-7.887578313253012e-05,5.445537962482925
-7.885578313253011e-05,5.397845300846241
-7.883578313253012e-05,5.331809307810936
-7.881578313253012e-05,5.273110647335024
-7.879578313253012e-05,5.236423984537597
-7.877578313253011e-05,5.174056657781973
-7.875578313253012e-05,5.130032662425083
-7.873578313253012e-05,5.086008667068151
-7.871578313253012e-05,5.023641340312528
-7.869578313253012e-05,4.986954677515101
-7.867578313253011e-05,4.935593349598674
-7.865578313253012e-05,4.869557356563338
-7.863578313253012e-05,4.832870693765912
-7.861578313253012e-05,4.777840699569774
-7.859578313253011e-05,4.741154036772327
-7.857578313253012e-05,4.697130041415456
-7.855578313253012e-05,4.649437379778783
-7.853578313253012e-05,4.6164193832611
-7.851578313253011e-05,4.546714723945972
-7.849578313253012e-05,4.506359394868841
-7.847578313253012e-05,4.477010064630881
-7.845578313253012e-05,4.414642737875257
-7.843578313253011e-05,4.385293407637317
-7.841578313253012e-05,4.330263413441202
-7.839578313253012e-05,4.293576750643751
-7.837578313253012e-05,4.253221421566582
-7.835578313253012e-05,4.209197426209672
-7.833578313253011e-05,4.157836098293264
-7.831578313253012e-05,4.132155434335077
-7.829578313253012e-05,4.095468771537652
-7.827578313253012e-05,4.033101444782027
-7.825578313253011e-05,4.007420780823811
-7.823578313253012e-05,3.967065451746679
-7.821578313253012e-05,3.912035457550522
-7.819578313253012e-05,3.897360792431551
-7.817578313253011e-05,3.84966813079488
-7.815578313253012e-05,3.809312801717748
-7.813578313253012e-05,3.768957472640561
-7.811578313253012e-05,3.732270809843135
-7.809578313253011e-05,3.695584147045709
-7.807578313253012e-05,3.673572149367264
-7.805578313253012e-05,3.629548154010342
-7.803578313253012e-05,3.596530157492659
-7.801578313253012e-05,3.559843494695233
-7.799578313253011e-05,3.526825498177533
-7.797578313253012e-05,3.490138835380124
-7.795578313253012e-05,3.240669528357627
-7.793578313253012e-05,2.55096026776602
-7.791578313253011e-05,3.442446173743594
-7.789578313253012e-05,3.713927478444298
-7.787578313253012e-05,3.303036855113252
-7.785578313253012e-05,3.350729516749905
-7.783578313253011e-05,3.350729516749879
-7.781578313253012e-05,3.29203085627405
-7.779578313253012e-05,3.181970867881746
-7.777578313253012e-05,3.15995887020329
-7.775578313253011e-05,3.167296202762776
-7.773578313253012e-05,3.086585544608476
-7.771578313253012e-05,3.053567548090755
-7.769578313253012e-05,3.093922877167924
-7.767578313253012e-05,2.994868887614874
-7.765578313253011e-05,2.950844892257973
-7.763578313253012e-05,2.972856889936418
-7.761578313253012e-05,2.925164228299765
-7.759578313253012e-05,2.862796901544141
-7.757578313253011e-05,2.873802900383355
-7.755578313253012e-05,2.844453570145427
-7.753578313253012e-05,2.804098241068259
-7.751578313253012e-05,2.782086243389803
-7.749578313253011e-05,2.752736913151845
-7.747578313253012e-05,2.712381584074712
-7.745578313253012e-05,2.705044251515209
-7.743578313253012e-05,2.690369586396239
-7.741578313253011e-05,2.686700920116496
-7.739578313253012e-05,2.672026254997533
-7.737578313253012e-05,2.683032253836754
-7.735578313253012e-05,2.771080244550576
-7.733578313253011e-05,2.925164228299765
-7.731578313253013e-05,3.22232619695878
-7.729578313253012e-05,3.607536156331887
-7.727578313253012e-05,3.959728119187176
-7.725578313253012e-05,4.443992068113198
-7.723578313253011e-05,5.019972674032976
-7.721578313253012e-05,5.441869296203183
-7.719578313253012e-05,6.039861899801226
-7.717578313253012e-05,6.432409191733683
-7.715578313253011e-05,7.063419791849587
-7.713578313253012e-05,7.455967083781688
-7.711578313253012e-05,8.046622354820423
-7.709578313253012e-05,8.457512978151593
-7.707578313253011e-05,9.033493584071181
-7.705578313253012e-05,9.488408202759055
-7.703578313253012e-05,10.00569014820297
-7.701578313253012e-05,10.53030942620616
-7.699578313253011e-05,10.98889271117398
-7.697578313253013e-05,11.57587931593253
-7.695578313253012e-05,11.98676993926397
-7.693578313253012e-05,12.53706988122535
-7.691578313253012e-05,13.04334582782983
-7.689578313253011e-05,13.49826044651816
-7.687578313253012e-05,14.04122305591982
-7.685578313253012e-05,14.53282433740532
-7.683578313253012e-05,14.99874495493263
-7.681578313253011e-05,15.53070156549554
-7.679578313253012e-05,16.02964017954008
-7.677578313253012e-05,16.49189213078787
-7.675578313253012e-05,17.0201800750708
-7.673578313253011e-05,17.37237203792588
-7.671578313253012e-05,16.90278275411925
-7.669578313253012e-05,18.23817727994534
-7.667578313253012e-05,18.90220587657875
-7.665578313253011e-05,19.52221047785525
-7.663578313253012e-05,19.97712509654313
-7.661578313253012e-05,20.53843103734395
-7.659578313253012e-05,21.01535765371048
-7.657578313253012e-05,21.4299169433214
-7.655578313253011e-05,21.94353022248558
-7.653578313253012e-05,22.43513150397087
-7.651578313253012e-05,22.83134746218307
-7.649578313253012e-05,23.32661740994832
-7.647578313253011e-05,23.83656202283273
-7.645578313253012e-05,24.254789978723
-7.643578313253012e-05,24.69502993229231
-7.641578313253012e-05,25.08023989166528
-7.639578313253011e-05,25.37740186032456
-7.637578313253012e-05,25.67456382898344
-7.635578313253012e-05,25.96438846508324
-7.633578313253012e-05,26.17350244302857
-7.631578313253011e-05,26.37161042213467
-7.629578313253012e-05,26.55504373612172
-7.627578313253012e-05,26.67610972335331
-7.625578313253012e-05,26.7788323791861
-7.623578313253012e-05,26.84486837222147
-7.621578313253011e-05,26.85954303734046
-7.619578313253012e-05,26.91824169781632
-7.617578313253012e-05,26.92191036409606
-7.615578313253012e-05,26.89622970013786
-7.613578313253011e-05,26.87421770245939
-7.611578313253012e-05,26.84853703850122
-7.609578313253012e-05,26.82652504082275
-7.607578313253012e-05,26.80818170942404
-7.605578313253011e-05,26.7971757105848
-7.603578313253012e-05,26.77149504662662
-7.601578313253012e-05,26.7531517152279
-7.599578313253012e-05,26.73480838382919
-7.597578313253011e-05,26.70545905359124
-7.595578313253012e-05,26.68711572219254
-7.593578313253012e-05,26.66877239079382
-7.591578313253012e-05,26.65409772567485
-7.589578313253012e-05,26.62474839543691
-7.587578313253011e-05,26.60640506403819
-7.585578313253012e-05,26.58439306635974
-7.583578313253012e-05,26.56238106868128
-7.581578313253012e-05,26.54403773728257
-7.579578313253011e-05,26.51835707332437
-7.577578313253012e-05,26.5036824082054
-7.575578313253012e-05,26.47433307796746
-7.573578313253012e-05,26.45598974656875
-7.571578313253011e-05,26.44498374772951
-7.569578313253012e-05,26.42297175005108
-7.567578313253012e-05,26.39729108609287
-7.565578313253012e-05,26.39362241981313
-7.563578313253011e-05,26.37161042213467
-7.561578313253012e-05,26.34959842445623
-7.559578313253012e-05,26.32758642677776
-7.557578313253012e-05,26.32024909421827
-7.555578313253011e-05,26.29823709653982
-7.553578313253011e-05,26.26521910002214
-7.551578313253012e-05,26.26155043374239
-7.549578313253012e-05,26.23953843606394
-7.547578313253012e-05,26.22119510466522
-7.545578313253011e-05,26.2028517732665
-7.543578313253012e-05,26.18817710814754
-7.541578313253012e-05,26.17350244302857
-7.539578313253012e-05,26.14415311279063
