TP2/Mediciones/Vds-Vref2V.csv

#Digilent WaveForms Oscilloscope Acquisition
#Device Name: Discovery2
#Serial Number: SN:210321B0E03A
#Date Time: 2021-06-20 16:44:48.609
#Sample rate: 1e+08Hz
#Samples: 8192
#Trigger: Source: Channel 1 Type: Edge Condition: Rising Level: 3 V Hyst.: Auto HoldOff: 100 ns
#Channel 1: Range: 5 V/div Offset: -10 V Attenuation: 1 X
#Wavegen Channel 1: Running
#Mode: Simple
#Type: DC
#Offset: 2 V

Time (s),Channel 1 (V)
-4.045941176470588e-05,-0.0602266804728
-4.044941176470588e-05,0.1819052939902122
-4.043941176470588e-05,0.05350197419919984
-4.042941176470588e-05,0.005809312562588806
-4.041941176470588e-05,0.1672306288712413
-4.040941176470588e-05,-0.04555201535382913
-4.039941176470588e-05,0.115869300954845
-4.038941176470588e-05,0.09018863699665861
-4.037941176470588e-05,-0.03087735023485827
-4.036941176470588e-05,0.1708992951509849
-4.035941176470588e-05,-0.01253401883614558
-4.034941176470588e-05,0.08285130443717817
-4.033941176470588e-05,0.1195379672345886
-4.032941176470588e-05,-0.02720868395511644
-4.031941176470588e-05,0.1415499649130432
-4.030941176470588e-05,0.02048397768153965
-4.029941176470588e-05,0.02415264396127814
-4.028941176470588e-05,0.1268752997940723
-4.027941176470588e-05,-0.02354001767537284
-4.026941176470588e-05,0.1085319683953296
-4.025941176470588e-05,0.04249597536002431
-4.024941176470588e-05,0.002140646282825287
-4.023941176470588e-05,0.1268752997940723
-4.022941176470588e-05,-0.008865352556403749
-4.021941176470588e-05,0.07551397187763768
-4.020941176470588e-05,0.05717064047896336
-4.019941176470588e-05,-0.01620268511588741
-4.018941176470588e-05,0.09752596955613235
-4.017941176470588e-05,0.00580931256258213
-4.016941176470588e-05,0.03882730908025067
-4.015941176470588e-05,0.07551397187767606
-4.014941176470588e-05,-0.01987135139563101
-4.013941176470588e-05,0.08285130443713312
-4.012941176470588e-05,0.02048397768156634
-4.011941176470588e-05,0.01681531140179438
-4.010941176470588e-05,0.09385730327639052
-4.009941176470588e-05,0.00214064628285198
-4.008941176470588e-05,0.06083930675868027
-4.007941176470588e-05,0.0461646416397361
-4.006941176470588e-05,-0.005196686276660145
-4.005941176470588e-05,0.07551397187767606
-4.004941176470588e-05,-0.001528019996883276
-4.003941176470588e-05,0.04249597535999428
-4.002941176470588e-05,0.07918263815741966
-4.001941176470588e-05,0.002140646282825287
-4.000941176470588e-05,0.08285130443713146
-3.999941176470588e-05,0.01681531140179438
-3.998941176470588e-05,0.02415264396127981
-3.997941176470588e-05,0.06083930675870697
-3.996941176470588e-05,0.005809312562602149
-3.995941176470588e-05,0.08285130443716149
-3.994941176470588e-05,0.05350197419922154
-3.993941176470588e-05,0.01314664512205255
-3.992941176470588e-05,0.06450797303842043
-3.991941176470588e-05,0.002140646282853646
-3.990941176470588e-05,0.04249597535999428
-3.989941176470588e-05,0.04983330791947793
-3.988941176470588e-05,-0.005196686276660145
-3.987941176470588e-05,0.057170640478935
-3.986941176470588e-05,0.002140646282825287
-3.985941176470588e-05,0.02782131024102341
-3.984941176470588e-05,0.05350197419922154
-3.983941176470588e-05,0.00580931256259214
-3.982941176470588e-05,0.06083930675870697
-3.981941176470588e-05,0.03882730908025067
-3.980941176470588e-05,0.005809312562567115
-3.979941176470588e-05,0.05350197419920318
-3.978941176470588e-05,0.01314664512205255
-3.977941176470588e-05,0.0461646416397361
-3.976941176470588e-05,0.03515864280050884
-3.975941176470588e-05,0.02048397768155466
-3.974941176470588e-05,0.05717064047894668
-3.973941176470588e-05,0.01314664512205255
-3.972941176470588e-05,0.03882730908025067
-3.971941176470588e-05,0.03882730908025067
-3.970941176470588e-05,0.01681531140180438
-3.969941176470588e-05,0.04249597535999428
-3.968941176470588e-05,0.02048397768153798
-3.967941176470588e-05,0.03148997652076524
-3.966941176470589e-05,0.04616464163972943
-3.965941176470588e-05,0.005809312562567115
-3.964941176470588e-05,0.02782131024102341
-3.963941176470588e-05,0.02782131024102341
-3.962941176470588e-05,0.01314664512205922
-3.961941176470588e-05,0.02782131024102341
-3.960941176470588e-05,0.02415264396127981
-3.959941176470588e-05,0.03148997652076524
-3.958941176470588e-05,0.02415264396127647
-3.957941176470588e-05,0.01681531140179771
-3.956941176470588e-05,0.03882730908025067
-3.955941176470588e-05,0.01681531140179438
-3.954941176470588e-05,0.03515864280051385
-3.953941176470588e-05,0.0461646416397311
-3.952941176470588e-05,0.02415264396127981
-3.951941176470588e-05,0.0461646416397361
-3.950941176470588e-05,0.01681531140179438
-3.949941176470588e-05,0.02782131024101841
-3.948941176470588e-05,0.03515864280050884
-3.947941176470588e-05,0.01681531140179438
-3.946941176470588e-05,0.04249597535999428
-3.945941176470588e-05,0.02415264396127647
-3.944941176470588e-05,0.01681531140179438
-3.943941176470588e-05,0.03148997652076524
-3.942941176470588e-05,0.02048397768153798
-3.941941176470588e-05,0.03148997652076024
-3.940941176470588e-05,0.02048397768154298
-3.939941176470588e-05,0.02415264396127981
-3.938941176470588e-05,0.02782131024102341
-3.937941176470588e-05,0.02048397768153464
-3.936941176470588e-05,0.01314664512205588
-3.935941176470588e-05,0.02415264396127981
-3.934941176470588e-05,0.02782131024102341
-3.933941176470588e-05,0.02415264396127981
-3.932941176470588e-05,0.02782131024102174
-3.931941176470588e-05,0.02415264396127981
-3.930941176470588e-05,0.02782131024102341
-3.929941176470588e-05,0.01314664512205255
-3.928941176470588e-05,0.03515864280050551
-3.927941176470588e-05,0.02782131024102341
-3.926941176470588e-05,0.02782131024102341
-3.925941176470588e-05,0.03515864280050884
-3.924941176470588e-05,0.04983330791947126
-3.923941176470588e-05,0.03515864280051552
-3.922941176470588e-05,0.03148997652076524
-3.921941176470588e-05,0.02415264396127981
-3.920941176470588e-05,0.02048397768153631
-3.919941176470588e-05,0.01681531140179604
-3.918941176470588e-05,0.02048397768153798
-3.917941176470588e-05,0.01681531140179438
-3.916941176470588e-05,0.02415264396127981
-3.915941176470588e-05,0.01314664512205755
-3.914941176470588e-05,0.02782131024102341
-3.913941176470588e-05,0.03148997652076524
-3.912941176470588e-05,0.05717064047896336
-3.911941176470588e-05,0.0314899765207669
-3.910941176470588e-05,0.03515864280050884
-3.909941176470588e-05,0.03882730908025067
-3.908941176470588e-05,0.03882730908025067
-3.907941176470588e-05,0.03515864280051218
-3.906941176470588e-05,0.04249597535999094
-3.905941176470588e-05,0.04249597535999428
-3.904941176470588e-05,0.03515864280050884
-3.903941176470588e-05,0.02415264396128648
-3.902941176470588e-05,0.038827309080244
-3.901941176470588e-05,0.0461646416397361
-3.900941176470588e-05,0.03515864280050884
-3.899941176470588e-05,0.03515864280050884
-3.898941176470588e-05,0.0314899765207669
-3.897941176470588e-05,0.02415264396127981
-3.896941176470588e-05,0.03515864280050884
-3.895941176470588e-05,0.02415264396127981
-3.894941176470588e-05,0.03515864280050217
-3.893941176470588e-05,0.02048397768153798
-3.892941176470588e-05,0.02048397768153798
-3.891941176470588e-05,0.06083930675870697
-3.890941176470588e-05,0.02782131024102007
-3.889941176470588e-05,0.02048397768153798
-3.888941176470588e-05,0.03148997652076524
-3.887941176470588e-05,0.03148997652076524
-3.886941176470588e-05,0.0314899765207619
-3.885941176470588e-05,0.02415264396128314
-3.884941176470588e-05,0.02782131024102341
-3.883941176470588e-05,0.02782131024102341
-3.882941176470588e-05,0.03882730908025067
-3.881941176470588e-05,0.03515864280051051
-3.880941176470588e-05,0.02415264396127981
-3.879941176470588e-05,0.03148997652076524
-3.878941176470588e-05,0.03882730908025067
-3.877941176470588e-05,0.03882730908025067
-3.876941176470588e-05,0.03882730908025067
-3.875941176470588e-05,0.03515864280050884
-3.874941176470588e-05,0.03148997652076524
-3.873941176470588e-05,0.04249597535998927
-3.872941176470588e-05,0.03148997652076524
-3.871941176470588e-05,0.03882730908025067
-3.870941176470588e-05,0.02782131024102341
-3.869941176470588e-05,0.02048397768154299
-3.868941176470588e-05,0.03148997652076024
-3.867941176470588e-05,0.03515864280050884
-3.866941176470588e-05,0.04983330791947793
-3.865941176470588e-05,0.04249597535999428
-3.864941176470588e-05,0.02782131024103009
-3.863941176470588e-05,0.02782131024102341
-3.862941176470588e-05,0.03515864280050884
-3.861941176470588e-05,0.03882730908025067
-3.860941176470588e-05,0.03515864280051051
-3.859941176470588e-05,0.0461646416397361
-3.858941176470588e-05,0.03148997652076524
-3.857941176470588e-05,0.03882730908025067
-3.856941176470588e-05,0.03882730908024733
-3.855941176470588e-05,0.03148997652076524
-3.854941176470588e-05,0.03515864280050884
-3.853941176470588e-05,0.05717064047896336
-3.852941176470588e-05,0.03148997652077024
-3.851941176470588e-05,0.04249597535998927
-3.850941176470588e-05,0.03515864280050884
-3.849941176470588e-05,0.03515864280050884
-3.848941176470588e-05,0.0424959753599876
-3.847941176470588e-05,0.02782131024103009
-3.846941176470588e-05,0.04249597535999428
-3.845941176470588e-05,0.02415264396127981
-3.844941176470588e-05,0.03882730908025067
-3.843941176470588e-05,0.03882730908025067
-3.842941176470588e-05,0.0461646416397361
-3.841941176470588e-05,0.03515864280050884
-3.840941176470588e-05,0.03882730908025067
-3.839941176470588e-05,0.01681531140179604
-3.838941176470588e-05,0.02048397768153798
-3.837941176470588e-05,0.03882730908025067
-3.836941176470588e-05,0.03515864280050884
-3.835941176470588e-05,0.02048397768154966
-3.834941176470588e-05,0.04616464163972443
-3.833941176470588e-05,0.02782131024102341
-3.832941176470588e-05,0.02415264396127981
-3.831941176470588e-05,0.02415264396128648
-3.830941176470588e-05,0.038827309080244
-3.829941176470588e-05,0.04249597535999428
-3.828941176470588e-05,0.02048397768153798
-3.827941176470588e-05,0.03882730908025067
-3.826941176470588e-05,0.03148997652076858
-3.825941176470588e-05,0.01314664512205255
-3.824941176470588e-05,0.04249597535999428
-3.823941176470588e-05,0.03882730908025067
-3.822941176470588e-05,0.04249597535999094
-3.821941176470588e-05,0.03515864280050884
-3.820941176470588e-05,0.03882730908025067
-3.819941176470588e-05,0.03882730908025067
-3.818941176470588e-05,0.02415264396128481
-3.817941176470588e-05,0.03515864280050384
-3.816941176470588e-05,0.03148997652076524
-3.815941176470588e-05,0.03148997652076524
-3.814941176470588e-05,0.03148997652076357
-3.813941176470588e-05,0.02782131024102508
-3.812941176470588e-05,0.02415264396127981
-3.811941176470588e-05,0.02415264396127981
-3.810941176470588e-05,0.03148997652076524
-3.809941176470588e-05,0.03515864280050718
-3.808941176470588e-05,0.03882730908025067
-3.807941176470588e-05,0.03882730908025067
-3.806941176470588e-05,0.02782131024102341
-3.805941176470588e-05,0.02415264396127981
-3.804941176470588e-05,0.02415264396127981
-3.803941176470588e-05,0.01681531140179438
-3.802941176470588e-05,0.02415264396127981
-3.801941176470588e-05,0.03515864280050884
-3.800941176470588e-05,0.03515864280050884
-3.799941176470588e-05,0.02415264396127981
-3.798941176470588e-05,0.03882730908025067
-3.797941176470588e-05,0.03882730908025067
-3.796941176470588e-05,0.03882730908025067
-3.795941176470588e-05,0.01681531140179438
-3.794941176470588e-05,0.01681531140179438
-3.793941176470588e-05,0.03148997652076524
-3.792941176470588e-05,0.02782131024102508
-3.791941176470588e-05,0.03882730908025067
-3.790941176470588e-05,0.02048397768153798
-3.789941176470588e-05,0.03148997652076524
-3.788941176470588e-05,0.03148997652076524
-3.787941176470588e-05,0.03148997652076524
-3.786941176470588e-05,0.03148997652076524
-3.785941176470588e-05,0.04249597535999428
-3.784941176470588e-05,0.03515864280051218
-3.783941176470588e-05,0.04249597535999428
-3.782941176470588e-05,0.03515864280050884
-3.781941176470588e-05,0.02048397768153798
-3.780941176470588e-05,0.03515864280049883
-3.779941176470588e-05,0.01314664512206256
-3.778941176470588e-05,0.02782131024102341
-3.777941176470588e-05,0.02415264396127981
-3.776941176470588e-05,0.01314664512205255
-3.775941176470588e-05,0.02782131024101674
-3.774941176470588e-05,0.03515864280050884
-3.773941176470588e-05,0.02415264396127981
-3.772941176470588e-05,0.03515864280050884
-3.771941176470589e-05,0.02048397768154465
-3.770941176470588e-05,0.01314664512205255
-3.769941176470588e-05,0.02415264396127981
-3.768941176470588e-05,0.03515864280050884
-3.767941176470588e-05,0.03515864280050384
-3.766941176470588e-05,0.02415264396127981
-3.765941176470588e-05,0.02782131024102341
-3.764941176470588e-05,0.02782131024102341
-3.763941176470588e-05,0.0314899765207619
-3.762941176470588e-05,0.02415264396128314
-3.761941176470588e-05,0.01681531140179438
-3.760941176470588e-05,0.02048397768153798
-3.759941176470588e-05,0.03148997652076524
-3.758941176470588e-05,0.02048397768154298
-3.757941176470588e-05,0.02415264396127981
-3.756941176470588e-05,0.009477978842310719
-3.755941176470588e-05,0.005809312562567115
-3.754941176470588e-05,0.03148997652075356
-3.753941176470588e-05,0.02048397768153798
-3.752941176470588e-05,0.02415264396127981
-3.751941176470588e-05,0.01681531140179438
-3.750941176470588e-05,0.03515864280049883
-3.749941176470588e-05,0.01314664512205255
-3.748941176470588e-05,0.0461646416397361
-3.747941176470588e-05,0.03515864280050884
-3.746941176470588e-05,0.02415264396128314
-3.745941176470588e-05,0.0314899765207619
-3.744941176470588e-05,0.01681531140179438
-3.743941176470588e-05,0.02048397768153798
-3.742941176470588e-05,0.02048397768154632
-3.741941176470588e-05,0.03882730908024233
-3.740941176470588e-05,0.03148997652076524
-3.739941176470588e-05,0.02782131024102341
-3.738941176470588e-05,0.03148997652076524
-3.737941176470588e-05,0.03515864280050718
-3.736941176470588e-05,0.01681531140179438
-3.735941176470588e-05,0.02048397768153798
-3.734941176470588e-05,0.03148997652076524
-3.733941176470588e-05,0.03148997652076357
-3.732941176470588e-05,0.02782131024102341
-3.731941176470588e-05,0.01681531140179438
-3.730941176470588e-05,0.03148997652076524
-3.729941176470588e-05,0.01681531140179438
-3.728941176470588e-05,0.01681531140179438
-3.727941176470588e-05,0.01681531140179438
-3.726941176470588e-05,0.009477978842310719
-3.725941176470588e-05,0.03515864280050551
-3.724941176470588e-05,0.02782131024102675
-3.723941176470588e-05,0.02782131024102341
-3.722941176470588e-05,0.02782131024102341
-3.721941176470588e-05,0.02415264396127981
-3.720941176470588e-05,0.0314899765207619
-3.719941176470588e-05,0.01681531140179438
-3.718941176470588e-05,0.02048397768153798
-3.717941176470588e-05,-0.001528019996918317
-3.716941176470588e-05,0.02415264396127314
-3.715941176470588e-05,0.009477978842310719
-3.714941176470588e-05,0.01314664512205255
-3.713941176470588e-05,0.03148997652076524
-3.712941176470588e-05,0.02415264396128314
-3.711941176470588e-05,0.0314899765207619
-3.710941176470588e-05,0.009477978842310719
-3.709941176470588e-05,0.04249597535999428
-3.708941176470588e-05,0.02415264396127147
-3.707941176470588e-05,0.005809312562575455
-3.706941176470588e-05,0.01681531140179438
-3.705941176470588e-05,0.03515864280050884
-3.704941176470588e-05,0.02415264396127981
-3.703941176470588e-05,0.02782131024102174
-3.702941176470588e-05,0.01314664512205255
-3.701941176470588e-05,0.02782131024102341
-3.700941176470588e-05,0.03148997652076524
-3.699941176470588e-05,0.01681531140180105
-3.698941176470588e-05,0.03148997652076524
-3.697941176470588e-05,0.01681531140179438
-3.696941176470588e-05,0.02415264396127981
-3.695941176470588e-05,0.03515864280050718
-3.694941176470588e-05,0.0314899765207669
-3.693941176470588e-05,0.009477978842310719
-3.692941176470588e-05,0.02415264396127981
-3.691941176470588e-05,0.02415264396127314
-3.690941176470588e-05,0.009477978842317393
-3.689941176470588e-05,0.01681531140179438
-3.688941176470588e-05,0.005809312562567115
-3.687941176470588e-05,0.02782131024102341
-3.686941176470588e-05,0.02415264396128148
-3.685941176470588e-05,0.02415264396127981
-3.684941176470588e-05,0.02415264396127981
-3.683941176470588e-05,0.002140646282825287
-3.682941176470588e-05,0.01314664512205255
-3.681941176470588e-05,0.01314664512205255
-3.680941176470588e-05,0.02048397768153798
-3.679941176470588e-05,0.02782131024102341
-3.678941176470588e-05,0.01314664512205255
-3.677941176470588e-05,0.01314664512205255
-3.676941176470588e-05,0.01314664512205255
-3.675941176470588e-05,0.002140646282825287
-3.674941176470588e-05,0.005809312562577125
-3.673941176470588e-05,0.0278213102410134
-3.672941176470588e-05,0.01681531140179438
-3.671941176470588e-05,0.03515864280050884
-3.670941176470588e-05,0.02415264396127981
-3.669941176470588e-05,0.01314664512205755
-3.668941176470588e-05,0.02048397768153798
-3.667941176470588e-05,0.01314664512205255
-3.666941176470588e-05,0.02415264396127981
-3.665941176470589e-05,0.01314664512205755
-3.664941176470588e-05,0.009477978842310719
-3.663941176470588e-05,0.02048397768153798
-3.662941176470588e-05,0.02415264396127981
-3.661941176470588e-05,0.02048397768153798
-3.660941176470588e-05,0.02048397768153798
-3.659941176470588e-05,0.03515864280050884
-3.658941176470588e-05,0.005809312562567115
-3.657941176470588e-05,0.01681531140178603
-3.656941176470588e-05,-0.001528019996909977
-3.655941176470588e-05,0.01681531140179438
-3.654941176470588e-05,0.02048397768153798
-3.653941176470588e-05,0.01314664512205255
-3.652941176470588e-05,0.0241526439612748
-3.651941176470588e-05,-0.001528019996918317
-3.650941176470588e-05,-0.001528019996918317
-3.649941176470588e-05,0.01681531140179438
-3.648941176470588e-05,0.01314664512205422
-3.647941176470588e-05,0.01681531140179438
-3.646941176470588e-05,0.002140646282825287
-3.645941176470588e-05,0.002140646282825287
-3.644941176470588e-05,0.02048397768152964
-3.643941176470588e-05,0.002140646282825287
-3.642941176470588e-05,0.02048397768153798
-3.641941176470588e-05,0.009477978842310719
-3.640941176470588e-05,0.01681531140178937
-3.639941176470588e-05,0.00580931256257212
-3.638941176470588e-05,0.002140646282825287
-3.637941176470588e-05,0.01681531140179438
-3.636941176470588e-05,0.01681531140180105
-3.635941176470588e-05,0.03148997652075856
-3.634941176470588e-05,0.02048397768153798
-3.633941176470588e-05,0.002140646282825287
-3.632941176470588e-05,-0.08957601071073995
-3.631941176470588e-05,0.04616464163967438
-3.630941176470588e-05,0.1525559637522704
-3.629941176470588e-05,-0.04188334907408553
-3.628941176470588e-05,-0.07490134559176909
-3.627941176470588e-05,0.00214064628288201
-3.626941176470588e-05,0.1268752997940723
-3.625941176470588e-05,0.08285130443716149
-3.624941176470588e-05,-0.07123267931202726
-3.623941176470588e-05,0.07184530559786249
-3.622941176470588e-05,-0.08590734443092637
-3.621941176470588e-05,-0.06756401303228365
-3.620941176470588e-05,0.1488872974725286
-3.619941176470588e-05,-0.01987135139560432
-3.618941176470588e-05,0.03882730908022398
-3.617941176470588e-05,-0.0382146827943437
-3.616941176470588e-05,-0.06389534675254183
-3.615941176470588e-05,0.156224630032014
-3.614941176470588e-05,-0.07490134559166398
-3.613941176470588e-05,-0.03454601651460187
-3.612941176470588e-05,0.07551397187767606
-3.611941176470588e-05,-0.0382146827943437
-3.610941176470588e-05,0.08651997071686339
-3.609941176470588e-05,-0.005196686276660145
-3.608941176470588e-05,-0.02720868395511644
-3.607941176470588e-05,0.1122006346751032
-3.606941176470588e-05,-0.06389534675251847
-3.605941176470588e-05,-0.01253401883616893
-3.604941176470588e-05,0.05350197419922154
-3.603941176470588e-05,-0.02354001767537284
-3.602941176470588e-05,0.1122006346750515
-3.601941176470588e-05,-0.001528019996866595
-3.600941176470588e-05,0.01314664512205255
-3.599941176470588e-05,0.07551397187767606
-3.598941176470588e-05,-0.0382146827943437
-3.597941176470588e-05,0.09018863699658852
-3.596941176470588e-05,0.05717064047896336
-3.595941176470588e-05,0.06083930675870697
-3.594941176470588e-05,0.2295979556268648
-3.593941176470588e-05,0.3286519451800423
-3.592941176470588e-05,0.607470582440353
