TP2/Mediciones/Vds-Vref145V.csv

#Digilent WaveForms Oscilloscope Acquisition
#Device Name: Discovery2
#Serial Number: SN:210321B0E03A
#Date Time: 2021-06-21 11:59:50.529
#Sample rate: 5e+07Hz
#Samples: 8192
#Trigger: Source: Channel 1 Type: Edge Condition: Rising Level: 11.5 V Hyst.: Auto HoldOff: 100 ns
#Channel 1: Range: 5 V/div Offset: -1.5 V Attenuation: 1 X
#Power Supplies: ON
#Positive Supply: ON
#Voltage: 1.45 V
#Negative Supply: OFF
#Voltage: -500 mV

Time (s),Channel 1 (V)
-8.490407079646018e-05,24.7463912602087
-8.488407079646017e-05,24.84177658348201
-8.486407079646017e-05,24.83810791720226
-8.484407079646018e-05,24.8234332520833
-8.482407079646018e-05,24.8234332520833
-8.480407079646018e-05,24.81976458580355
-8.478407079646017e-05,24.81242725324407
-8.476407079646018e-05,24.80508992068459
-8.474407079646018e-05,24.80508992068458
-8.472407079646018e-05,24.78674658928587
-8.470407079646017e-05,24.77574059044664
-8.468407079646017e-05,24.7720719241669
-8.466407079646018e-05,24.76106592532767
-8.464407079646018e-05,24.75739725904793
-8.462407079646017e-05,24.75372859276819
-8.460407079646017e-05,24.73171659508973
-8.458407079646018e-05,24.73538526136947
-8.456407079646018e-05,24.71337326369102
-8.454407079646017e-05,24.70603593113153
-8.452407079646017e-05,24.69869859857204
-8.450407079646018e-05,24.68402393345308
-8.448407079646018e-05,24.68769259973282
-8.446407079646018e-05,24.66568060205437
-8.444407079646017e-05,24.65467460321514
-8.442407079646018e-05,24.65467460321514
-8.440407079646018e-05,24.63266260553668
-8.438407079646018e-05,24.62165660669745
-8.436407079646017e-05,24.61065060785823
-8.434407079646017e-05,24.60698194157848
-8.432407079646018e-05,24.599644609019
-8.430407079646018e-05,24.57029527878106
-8.428407079646017e-05,24.56662661250131
-8.426407079646017e-05,24.56662661250131
-8.424407079646018e-05,24.55562061366209
-8.422407079646018e-05,24.54094594854311
-8.420407079646017e-05,24.5226026171444
-8.418407079646017e-05,24.5226026171444
-8.416407079646018e-05,24.51526528458492
-8.414407079646018e-05,24.49325328690646
-8.412407079646018e-05,24.47124128922801
-8.410407079646017e-05,24.45656662410904
-8.408407079646018e-05,24.45289795782929
-8.406407079646018e-05,24.43822329271032
-8.404407079646018e-05,24.42354862759136
-8.402407079646017e-05,24.41987996131161
-8.400407079646017e-05,24.42354862759135
-8.398407079646018e-05,24.40887396247238
-8.396407079646018e-05,24.37952463223444
-8.394407079646017e-05,24.35751263455599
-8.392407079646017e-05,24.3501753019965
-8.390407079646018e-05,24.34283796943702
-8.388407079646018e-05,24.3244946380383
-8.386407079646017e-05,24.31348863919908
-8.384407079646017e-05,24.30981997291932
-8.382407079646018e-05,24.28413930896114
-8.380407079646018e-05,24.27313331012191
-8.378407079646018e-05,24.26579597756242
-8.376407079646017e-05,24.23644664732448
-8.374407079646018e-05,24.229109314765
-8.372407079646018e-05,24.21810331592577
-8.370407079646018e-05,24.19975998452706
-8.368407079646017e-05,24.18875398568783
-8.366407079646017e-05,24.16674198800937
-8.364407079646018e-05,24.14839865661066
-8.362407079646018e-05,24.13739265777143
-8.360407079646017e-05,24.1263866589322
-8.358407079646017e-05,24.11171199381323
-8.356407079646018e-05,24.09336866241452
-8.354407079646018e-05,24.07869399729555
-8.352407079646017e-05,24.06768799845632
-8.350407079646017e-05,24.04567600077786
-8.348407079646018e-05,24.02366400309942
-8.346407079646018e-05,24.01999533681967
-8.344407079646018e-05,24.0053206717007
-8.342407079646017e-05,23.9796400077425
-8.340407079646018e-05,23.96129667634379
-8.338407079646018e-05,23.93928467866533
-8.336407079646018e-05,23.91360401470713
-8.334407079646017e-05,23.89892934958816
-8.332407079646018e-05,23.88792335074894
-8.330407079646018e-05,23.86591135307048
-8.328407079646018e-05,23.84389935539203
-8.326407079646017e-05,23.81455002515408
-8.324407079646017e-05,23.80354402631484
-8.322407079646018e-05,23.77419469607691
-8.320407079646018e-05,23.74851403211872
-8.318407079646017e-05,23.71916470188077
-8.316407079646017e-05,23.68247803908334
-8.314407079646018e-05,23.65679737512516
-8.312407079646018e-05,23.60543604720876
-8.310407079646017e-05,23.5834240495303
-8.308407079646017e-05,23.5504060530126
-8.306407079646018e-05,23.51005072393547
-8.304407079646018e-05,23.48070139369751
-8.302407079646018e-05,23.44768339717982
-8.300407079646017e-05,23.41833406694188
-8.298407079646018e-05,23.37064140530525
-8.296407079646018e-05,23.35596674018626
-8.294407079646018e-05,23.3082740785496
-8.292407079646017e-05,23.26791874947244
-8.290407079646017e-05,23.23490075295474
-8.288407079646018e-05,23.19821409015733
-8.286407079646018e-05,23.15052142852067
-8.284407079646017e-05,23.12484076456247
-8.282407079646017e-05,23.06247343780683
-8.280407079646018e-05,23.02578677500944
-8.278407079646018e-05,22.97809411337277
-8.276407079646017e-05,22.93040145173612
-8.274407079646017e-05,21.99489155040194
-8.272407079646018e-05,22.39844484117326
-8.270407079646018e-05,23.07347943664608
-8.268407079646018e-05,22.81300413078436
-8.266407079646017e-05,22.69193814355285
-8.264407079646018e-05,22.68093214471363
-8.262407079646018e-05,22.63690814935671
-8.260407079646018e-05,22.47548683304804
-8.258407079646017e-05,22.3434148469773
-8.256407079646017e-05,22.16365019926981
-8.254407079646018e-05,21.93986155620562
-8.252407079646018e-05,21.54364559799342
-8.250407079646017e-05,21.0593816490674
-8.248407079646017e-05,20.6741716896943
-8.246407079646018e-05,20.39535305243411
-8.244407079646018e-05,20.19357640704814
-8.242407079646017e-05,19.98446242910282
-8.240407079646017e-05,19.75700511975867
-8.238407079646018e-05,19.52954781041484
-8.236407079646018e-05,19.30575916735044
-8.234407079646018e-05,19.08930785684563
-8.232407079646017e-05,18.86918788006107
-8.230407079646018e-05,18.63806190443739
-8.228407079646018e-05,18.44729125789067
-8.226407079646018e-05,18.25285194506431
-8.224407079646017e-05,18.05841263223796
-8.222407079646017e-05,17.85296732057229
-8.220407079646018e-05,17.66953400658524
-8.218407079646018e-05,17.47876336003863
-8.216407079646017e-05,17.2953300460515
-8.214407079646017e-05,17.10089073322506
-8.212407079646018e-05,16.92479475179758
-8.210407079646018e-05,16.74136143781037
-8.208407079646017e-05,16.57260278894221
-8.206407079646017e-05,16.39650680751449
-8.204407079646018e-05,16.23141682492622
-8.202407079646018e-05,16.06265817605799
-8.200407079646018e-05,15.90490552602905
-8.198407079646017e-05,15.7361468771609
-8.196407079646018e-05,15.58573155969152
-8.194407079646018e-05,15.43898490850175
-8.192407079646018e-05,15.27756359219307
-8.190407079646017e-05,15.11981094216414
-8.188407079646017e-05,14.97673295725411
-8.186407079646018e-05,14.82631763978473
-8.184407079646018e-05,14.694245653714
-8.182407079646017e-05,14.55850500136352
-8.180407079646017e-05,14.41909568273324
-8.178407079646018e-05,14.28702369666257
-8.176407079646018e-05,14.14394571175261
-8.174407079646017e-05,14.02287972452111
-8.172407079646017e-05,13.89447640473006
-8.170407079646018e-05,13.77341041749866
-8.168407079646018e-05,13.65601309654685
-8.166407079646018e-05,13.53494710931534
-8.164407079646017e-05,13.41754978836358
-8.162407079646018e-05,13.30015246741187
-8.160407079646018e-05,13.19742981157902
-8.158407079646018e-05,13.00299049875266
-8.156407079646017e-05,11.69327663688456
-8.154407079646017e-05,12.74985252545039
-8.152407079646018e-05,12.67281053357583
-8.150407079646018e-05,12.70582853009351
-8.148407079646017e-05,12.76085852428965
-8.146407079646017e-05,12.79387652080694
-8.144407079646018e-05,11.92440261250834
-8.142407079646018e-05,7.808159046637154
-8.140407079646017e-05,4.964942679836646
-8.138407079646017e-05,3.614873488890963
-8.136407079646018e-05,2.716050250354845
-8.134407079646018e-05,1.868588339733898
-8.132407079646018e-05,1.101837087267696
-8.130407079646017e-05,0.4561518220330003
-8.128407079646018e-05,0.1479838545347628
-8.126407079646018e-05,0.070941862660028
-8.124407079646018e-05,0.01591186846388926
-8.122407079646017e-05,-0.0317807931727645
-8.120407079646018e-05,-0.06479878969043282
-8.118407079646018e-05,-0.1051541187676164
-8.116407079646018e-05,-0.1381721152852997
-8.114407079646017e-05,-0.1491781141245274
-8.112407079646017e-05,-0.1418407815650506
-8.110407079646018e-05,-0.1601841129637553
-8.108407079646018e-05,-0.1638527792434978
-8.106407079646017e-05,-0.171190111802983
-8.104407079646017e-05,-0.1858647769219551
-8.102407079646018e-05,-0.1895334432016943
-8.100407079646018e-05,-0.1932021094814385
-8.098407079646017e-05,-0.1968707757611812
-8.096407079646017e-05,-0.2188827734396335
-8.094407079646018e-05,-0.2115454408801549
-8.092407079646018e-05,-0.2115454408801516
-8.090407079646018e-05,-0.2225514397193793
-8.088407079646017e-05,-0.2225514397193793
-8.086407079646018e-05,-0.2262201059991201
-8.084407079646018e-05,-0.2298887722788645
-8.082407079646018e-05,-0.2298887722788645
-8.080407079646017e-05,-0.2298887722788645
-8.078407079646017e-05,-0.2372261048383481
-8.076407079646018e-05,-0.233557438558607
-8.074407079646018e-05,-0.2482321036775774
-8.072407079646017e-05,-0.2519007699573201
-8.070407079646017e-05,-0.2482321036775774
-8.068407079646018e-05,-0.2482321036775774
-8.066407079646018e-05,-0.2482321036775774
-8.064407079646017e-05,-0.2445634373978349
-8.062407079646017e-05,-0.2629067687965478
-8.060407079646018e-05,-0.2629067687965478
-8.058407079646018e-05,-0.2592381025168051
-8.056407079646018e-05,-0.2519007699573201
-8.054407079646017e-05,-0.2629067687965478
-8.052407079646018e-05,-0.2519007699573251
-8.050407079646018e-05,-0.2629067687965478
-8.048407079646018e-05,-0.2519007699573201
-8.046407079646017e-05,-0.2629067687965478
-8.044407079646017e-05,-0.2629067687965445
-8.042407079646018e-05,-0.2555694362370626
-8.040407079646018e-05,-0.2519007699573201
-8.038407079646017e-05,-0.2629067687965478
-8.036407079646017e-05,-0.2592381025168068
-8.034407079646018e-05,-0.2629067687965462
-8.032407079646018e-05,-0.2555694362370626
-8.030407079646017e-05,-0.2592381025168051
-8.028407079646017e-05,-0.2592381025168051
-8.026407079646018e-05,-0.2592381025168051
-8.024407079646018e-05,-0.2555694362370626
-8.022407079646018e-05,-0.2629067687965478
-8.020407079646017e-05,-0.2629067687965478
-8.018407079646018e-05,-0.2592381025168068
-8.016407079646018e-05,-0.2592381025168051
-8.014407079646018e-05,-0.2555694362370626
-8.012407079646017e-05,-0.2592381025168051
-8.010407079646017e-05,-0.255569436237061
-8.008407079646018e-05,-0.2519007699573201
-8.006407079646018e-05,-0.2629067687965478
-8.004407079646017e-05,-0.2592381025168051
-8.002407079646017e-05,-0.2702441013560247
-8.000407079646018e-05,-0.2519007699573285
-7.998407079646018e-05,-0.2592381025168051
-7.996407079646017e-05,-0.2629067687965478
-7.994407079646017e-05,-0.2629067687965445
-7.992407079646018e-05,-0.255569436237066
-7.990407079646018e-05,-0.2445634373978349
-7.988407079646018e-05,-0.2555694362370626
-7.986407079646017e-05,-0.2592381025168051
-7.984407079646018e-05,-0.2482321036775824
-7.982407079646018e-05,-0.2519007699573201
-7.980407079646018e-05,-0.2445634373978349
-7.978407079646017e-05,-0.2482321036775774
-7.976407079646017e-05,-0.255569436237061
-7.974407079646018e-05,-0.2519007699573201
-7.972407079646018e-05,-0.2519007699573201
-7.970407079646017e-05,-0.2445634373978349
-7.968407079646017e-05,-0.2372261048383547
-7.966407079646018e-05,-0.2482321036775774
-7.964407079646018e-05,-0.2372261048383497
-7.962407079646017e-05,-0.2408947711180922
-7.960407079646017e-05,-0.2445634373978299
-7.958407079646018e-05,-0.233557438558612
-7.956407079646018e-05,-0.2372261048383497
-7.954407079646018e-05,-0.233557438558607
-7.952407079646017e-05,-0.2372261048383497
-7.950407079646018e-05,-0.2372261048383497
-7.948407079646018e-05,-0.2262201059991218
-7.946407079646018e-05,-0.2482321036775774
-7.944407079646017e-05,-0.2225514397193793
-7.942407079646018e-05,-0.2298887722788612
-7.940407079646018e-05,-0.2262201059991218
-7.938407079646018e-05,-0.2445634373978349
-7.936407079646017e-05,-0.2445634373978349
-7.934407079646017e-05,-0.2372261048383497
-7.932407079646018e-05,-0.2372261048383497
-7.930407079646018e-05,-0.2262201059991218
-7.928407079646017e-05,-0.2188827734396368
-7.926407079646017e-05,-0.2262201059991218
-7.924407079646018e-05,-0.2262201059991218
-7.922407079646018e-05,-0.2298887722788645
-7.920407079646018e-05,-0.2188827734396368
-7.918407079646017e-05,-0.2262201059991218
-7.916407079646018e-05,-0.2262201059991218
-7.914407079646018e-05,-0.2298887722788645
-7.912407079646018e-05,-0.233557438558607
-7.910407079646017e-05,-0.2298887722788645
-7.908407079646018e-05,-0.2152141071599007
-7.906407079646018e-05,-0.2152141071598941
-7.904407079646018e-05,-0.2152141071598941
-7.902407079646017e-05,-0.2225514397193793
-7.900407079646017e-05,-0.2188827734396351
-7.898407079646018e-05,-0.2152141071598941
-7.896407079646018e-05,-0.2225514397193793
-7.894407079646017e-05,-0.2152141071598941
-7.892407079646017e-05,-0.2152141071598958
-7.890407079646018e-05,-0.2188827734396351
-7.888407079646018e-05,-0.2042081083206664
-7.886407079646017e-05,-0.2078767746004089
-7.884407079646017e-05,-0.2152141071598958
-7.882407079646018e-05,-0.2188827734396351
-7.880407079646018e-05,-0.2042081083206664
-7.878407079646018e-05,-0.2262201059991218
-7.876407079646017e-05,-0.2152141071598941
-7.874407079646018e-05,-0.2188827734396351
-7.872407079646018e-05,-0.2152141071598941
-7.870407079646018e-05,-0.2152141071598941
-7.868407079646017e-05,-0.2188827734396368
-7.866407079646017e-05,-0.2115454408801533
-7.864407079646018e-05,-0.2152141071598941
-7.862407079646018e-05,-0.2042081083206664
-7.860407079646017e-05,-0.2042081083206664
-7.858407079646017e-05,-0.2115454408801549
-7.856407079646018e-05,-0.2188827734396335
-7.854407079646018e-05,-0.2115454408801516
-7.852407079646017e-05,-0.2188827734396368
-7.850407079646017e-05,-0.2188827734396335
-7.848407079646018e-05,-0.2115454408801549
-7.846407079646018e-05,-0.2115454408801516
-7.844407079646018e-05,-0.2152141071598941
-7.842407079646017e-05,-0.1968707757611812
-7.840407079646018e-05,-0.200539442040922
-7.838407079646018e-05,-0.1932021094814385
-7.836407079646018e-05,-0.189533443201696
-7.834407079646017e-05,-0.2005394420409237
-7.832407079646017e-05,-0.2005394420409253
-7.830407079646018e-05,-0.2042081083206664
-7.828407079646018e-05,-0.2078767746004089
-7.826407079646017e-05,-0.1968707757611812
-7.824407079646017e-05,-0.1968707757611778
-7.822407079646018e-05,-0.1895334432016993
-7.820407079646018e-05,-0.1932021094814385
-7.818407079646017e-05,-0.1968707757611812
-7.816407079646017e-05,-0.1821961106422174
-7.814407079646018e-05,-0.1968707757611745
-7.812407079646018e-05,-0.1932021094814385
-7.810407079646018e-05,-0.2005394420409237
-7.808407079646017e-05,-0.2042081083206664
-7.806407079646018e-05,-0.2115454408801483
-7.804407079646018e-05,-0.2005394420409237
-7.802407079646018e-05,-0.1785274443624683
-7.800407079646017e-05,-0.1785274443624683
-7.798407079646017e-05,-0.2005394420409237
-7.796407079646018e-05,-0.2005394420409237
-7.794407079646018e-05,-0.1932021094814385
-7.792407079646017e-05,-0.1932021094814385
-7.790407079646017e-05,-0.2005394420413107
-7.788407079646018e-05,-1.051670018940818
-7.786407079646018e-05,-0.6114300653720939
-7.784407079646017e-05,0.1810018510523059
-7.782407079646017e-05,-0.03911812573229809
-7.780407079646018e-05,-0.1455094478447365
-7.778407079646018e-05,-0.09781678620813117
-7.776407079646018e-05,-0.09047945364864596
-7.774407079646017e-05,-0.134503449005557
-7.772407079646018e-05,-0.134503449005557
-7.770407079646018e-05,-0.1675214455232403
-7.768407079646018e-05,-0.1565154466840126
-7.766407079646017e-05,-0.1455094478447849
-7.764407079646017e-05,-0.1565154466840093
-7.762407079646018e-05,-0.1491781141245274
-7.760407079646018e-05,-0.1418407815650422
-7.758407079646017e-05,-0.1528467804042701
-7.756407079646017e-05,-0.1455094478447916
-7.754407079646018e-05,-0.1601841129637553
-7.752407079646018e-05,-0.1418407815650422
-7.750407079646017e-05,-0.1308347827258145
-7.748407079646017e-05,-0.1161601176068191
-7.746407079646018e-05,-0.06113012341073036
-7.744407079646018e-05,0.1589898533738503
-7.742407079646018e-05,0.503844483669654
-7.740407079646017e-05,0.9000604418818539
-7.738407079646018e-05,1.307282398933096
-7.736407079646018e-05,1.762197017621363
-7.734407079646018e-05,2.213442970029702
-7.732407079646017e-05,2.697706918955724
-7.730407079646018e-05,3.104928876006966
-7.728407079646018e-05,3.402090844666302
-7.726407079646018e-05,3.746945474962105
-7.724407079646017e-05,4.179848095971732
-7.722407079646017e-05,4.517365393708099
-7.720407079646018e-05,4.627425382100327
-7.718407079646018e-05,5.4088512996855
-7.716407079646017e-05,5.728025266023105
-7.714407079646017e-05,6.35536719985928
-7.712407079646018e-05,6.777263822029294
-7.710407079646018e-05,7.323895097711132
-7.708407079646018e-05,7.811827712916898
-7.706407079646017e-05,8.325440992080861
-7.704407079646018e-05,8.813373607286403
-7.702407079646018e-05,9.371010881807498
-7.700407079646018e-05,9.781901505138668
-7.698407079646017e-05,10.39823744013542
-7.696407079646018e-05,10.77611006694874
-7.694407079646018e-05,11.39978333450515
-7.692407079646018e-05,11.80700529155658
-7.690407079646017e-05,12.36097389979771
-7.688407079646017e-05,12.86358118012265
-7.686407079646018e-05,13.31849579881053
-7.684407079646018e-05,13.87246440705166
-7.682407079646017e-05,14.35672835597768
-7.680407079646017e-05,14.82998630606472
-7.678407079646018e-05,15.36928024918639
-7.676407079646018e-05,15.8572128643924
-7.674407079646017e-05,16.32313348191971
-7.672407079646017e-05,16.82940942852442
-7.670407079646018e-05,17.33568537512843
-7.668407079646018e-05,17.81994932405469
-7.666407079646018e-05,17.79059999381675
-7.664407079646017e-05,17.75391333101932
-7.662407079646018e-05,19.07096452544631
-7.660407079646018e-05,19.80836644767517
-7.658407079646018e-05,20.39535305243399
-7.656407079646017e-05,20.82458700716387
-7.654407079646017e-05,21.28317029213195
-7.652407079646018e-05,21.84080756665257
-7.650407079646018e-05,22.33974618069756
-7.648407079646017e-05,22.76164280286796
-7.646407079646017e-05,23.18353942503857
-7.644407079646018e-05,23.66046604140468
-7.642407079646018e-05,24.13739265777143
-7.640407079646017e-05,24.60331327529874
-7.638407079646017e-05,25.03988456258829
-7.636407079646018e-05,25.44343785335961
-7.634407079646018e-05,25.77728648481637
-7.632407079646018e-05,26.07811711975526
-7.630407079646017e-05,26.33492375933724
-7.628407079646018e-05,26.55137506984196
-7.626407079646018e-05,26.74948304894816
-7.624407079646018e-05,26.94392236177451
-7.622407079646017e-05,27.10534367808319
-7.620407079646017e-05,27.22274099903498
-7.618407079646018e-05,27.2961143246298
-7.616407079646018e-05,27.30345165718929
-7.614407079646017e-05,26.99528368969091
-7.612407079646017e-05,25.42509452196073
-7.610407079646018e-05,24.65467460321549
-7.608407079646018e-05,25.3920765254434
-7.606407079646017e-05,25.48379318243696
-7.604407079646017e-05,24.84177658348198
-7.602407079646018e-05,24.79041525556564
-7.600407079646018e-05,25.13893855214116
-7.598407079646018e-05,25.04355322886785
-7.596407079646017e-05,24.80142125440484
-7.594407079646018e-05,24.8784632462794
-7.592407079646018e-05,24.99952923351094
-7.590407079646018e-05,24.91514990907686
-7.588407079646017e-05,24.84544524976175
-7.586407079646017e-05,24.90414391023764
-7.584407079646018e-05,24.92982457419583
-7.582407079646018e-05,24.89313791139841
-7.580407079646017e-05,24.86378858116046
-7.578407079646017e-05,24.90047524395789
-7.576407079646018e-05,24.90414391023763
-7.574407079646018e-05,24.87846324627943
-7.572407079646017e-05,24.89680657767815
-7.570407079646017e-05,24.90414391023764
-7.568407079646018e-05,24.91514990907686
-7.566407079646018e-05,24.88946924511866
-7.564407079646018e-05,24.90047524395789
-7.562407079646017e-05,24.9188185753566
-7.560407079646018e-05,24.9188185753566
-7.558407079646018e-05,24.89680657767815
-7.556407079646018e-05,24.90781257651738
