TP2/Mediciones/Vgate-Vref2V.csv

#Digilent WaveForms Oscilloscope Acquisition
#Device Name: Discovery2
#Serial Number: SN:210321B0E03A
#Date Time: 2021-06-20 16:47:59.984
#Sample rate: 1e+08Hz
#Samples: 8192
#Trigger: Source: Channel 1 Type: Edge Condition: Rising Level: 1.9 V Hyst.: Auto HoldOff: 100 ns
#Channel 1: Range: 5 V/div Offset: 0 V Attenuation: 1 X
#Wavegen Channel 1: Running
#Mode: Simple
#Type: DC
#Offset: 2 V

Time (s),Channel 1 (V)
-3.995398692810458e-05,-0.09132239033239926
-3.994398692810458e-05,-0.08765372405265667
-3.993398692810457e-05,-0.09132239033240093
-3.992398692810458e-05,-0.09499105661214019
-3.991398692810458e-05,-0.09499105661214186
-3.990398692810458e-05,-0.09132239033239926
-3.989398692810457e-05,-0.09132239033239926
-3.988398692810458e-05,-0.105997055451363
-3.987398692810458e-05,-0.08765372405265667
-3.986398692810458e-05,-0.08765372405265667
-3.985398692810457e-05,-0.09132239033239926
-3.984398692810457e-05,-0.09499105661213852
-3.983398692810458e-05,-0.08765372405265667
-3.982398692810458e-05,-0.102328389171627
-3.981398692810458e-05,-0.08398505777291407
-3.980398692810457e-05,-0.09499105661213852
-3.979398692810458e-05,-0.08765372405266
-3.978398692810458e-05,-0.08398505777291407
-3.977398692810458e-05,-0.1133343880108548
-3.976398692810457e-05,-0.09865972289188611
-3.975398692810458e-05,-0.1023283891716254
-3.974398692810458e-05,-0.09865972289188445
-3.973398692810458e-05,-0.09499105661214186
-3.972398692810457e-05,-0.09865972289188445
-3.971398692810458e-05,-0.09865972289188445
-3.970398692810458e-05,-0.102328389171627
-3.969398692810458e-05,-0.12067172057034
-3.968398692810457e-05,-0.0693103926539437
-3.967398692810457e-05,-0.09499105661213518
-3.966398692810458e-05,-0.08031639149317148
-3.965398692810458e-05,-0.1096657217311122
-3.964398692810457e-05,-0.09865972289188445
-3.963398692810457e-05,-0.08398505777292074
-3.962398692810458e-05,-0.09865972289187777
-3.961398692810458e-05,-0.1096657217311122
-3.960398692810458e-05,-0.09132239033239926
-3.959398692810457e-05,-0.1059970554513563
-3.958398692810458e-05,-0.07664772521344224
-3.957398692810458e-05,-0.09132239033239926
-3.956398692810458e-05,-0.08765372405265667
-3.955398692810457e-05,-0.102328389171627
-3.954398692810458e-05,-0.09865972289188611
-3.953398692810458e-05,-0.09499105661214186
-3.952398692810458e-05,-0.09132239033239926
-3.951398692810457e-05,-0.09132239033239926
-3.950398692810457e-05,-0.07664772521343723
-3.949398692810458e-05,-0.09499105661214186
-3.948398692810458e-05,-0.09499105661214186
-3.947398692810457e-05,-0.09499105661214186
-3.946398692810457e-05,-0.08765372405266
-3.945398692810458e-05,-0.09499105661214186
-3.944398692810458e-05,-0.102328389171627
-3.943398692810458e-05,-0.08031639149317148
-3.942398692810457e-05,-0.07664772521344224
-3.941398692810458e-05,-0.1059970554513563
-3.940398692810458e-05,-0.07664772521342889
-3.939398692810458e-05,-0.1096657217311122
-3.938398692810457e-05,-0.07664772521342889
-3.937398692810458e-05,-0.09132239033239259
-3.936398692810458e-05,-0.09499105661214186
-3.935398692810458e-05,-0.08031639149317148
-3.934398692810457e-05,-0.09499105661214186
-3.933398692810457e-05,-0.0766477252134339
-3.932398692810458e-05,-0.08765372405265667
-3.931398692810458e-05,-0.09499105661214186
-3.930398692810457e-05,-0.08398505777291407
-3.929398692810457e-05,-0.0949910566121502
-3.928398692810458e-05,-0.1133343880108548
-3.927398692810458e-05,-0.08765372405265667
-3.926398692810458e-05,-0.09499105661214186
-3.925398692810457e-05,-0.09132239033239593
-3.924398692810458e-05,-0.0839850577729174
-3.923398692810458e-05,-0.08031639149317148
-3.922398692810458e-05,-0.08398505777291407
-3.921398692810457e-05,-0.09499105661214186
-3.920398692810458e-05,-0.1059970554513646
-3.919398692810458e-05,-0.09132239033239926
-3.918398692810458e-05,-0.08765372405265667
-3.917398692810457e-05,-0.08398505777291407
-3.916398692810458e-05,-0.09132239033239593
-3.915398692810458e-05,-0.08398505777291407
-3.914398692810458e-05,-0.08765372405265667
-3.913398692810457e-05,-0.08765372405265667
-3.912398692810457e-05,-0.08765372405266
-3.911398692810458e-05,-0.09499105661214186
-3.910398692810458e-05,-0.09132239033239926
-3.909398692810458e-05,-0.08765372405265667
-3.908398692810457e-05,-0.08031639149317982
-3.907398692810458e-05,-0.09865972289187611
-3.906398692810458e-05,-0.07297905893368629
-3.905398692810458e-05,-0.08765372405265667
-3.904398692810457e-05,-0.07664772521342722
-3.903398692810458e-05,-0.07297905893368796
-3.902398692810458e-05,-0.08398505777291407
-3.901398692810458e-05,-0.08031639149317148
-3.900398692810457e-05,-0.07297905893368629
-3.899398692810458e-05,-0.09499105661213185
-3.898398692810458e-05,-0.08765372405265667
-3.897398692810458e-05,-0.07297905893368629
-3.896398692810457e-05,-0.07664772521342889
-3.895398692810457e-05,-0.08398505777291573
-3.894398692810458e-05,-0.08765372405265667
-3.893398692810458e-05,-0.08398505777291407
-3.892398692810458e-05,-0.07664772521342889
-3.891398692810457e-05,-0.0839850577729174
-3.890398692810458e-05,-0.09132239033239593
-3.889398692810458e-05,-0.08398505777291407
-3.888398692810458e-05,-0.08765372405265667
-3.887398692810457e-05,-0.08765372405265834
-3.886398692810458e-05,-0.0913223903323976
-3.885398692810458e-05,-0.08398505777291407
-3.884398692810458e-05,-0.08031639149317148
-3.883398692810457e-05,-0.0693103926539437
-3.882398692810458e-05,-0.08031639149316647
-3.881398692810458e-05,-0.07664772521342889
-3.880398692810458e-05,-0.06564172637420111
-3.879398692810457e-05,-0.1096657217311122
-3.878398692810457e-05,-0.0839850577729124
-3.877398692810458e-05,-0.08031639149317148
-3.876398692810458e-05,-0.08765372405265667
-3.875398692810457e-05,-0.1059970554513696
-3.874398692810457e-05,-0.08031639149317148
-3.873398692810458e-05,-0.08031639149317148
-3.872398692810458e-05,-0.08765372405265667
-3.871398692810458e-05,-0.08765372405265667
-3.870398692810457e-05,-0.08398505777291407
-3.869398692810458e-05,-0.08398505777291407
-3.868398692810458e-05,-0.08398505777291407
-3.867398692810458e-05,-0.06197306009445852
-3.866398692810457e-05,-0.06564172637420111
-3.865398692810458e-05,-0.08398505777290573
-3.864398692810458e-05,-0.08398505777291407
-3.863398692810458e-05,-0.08031639149317148
-3.862398692810457e-05,-0.08765372405265667
-3.861398692810457e-05,-0.06564172637420612
-3.860398692810458e-05,-0.07664772521342889
-3.859398692810458e-05,-0.07664772521342889
-3.858398692810457e-05,-0.08765372405265667
-3.857398692810457e-05,-0.08765372405265501
-3.856398692810458e-05,-0.08398505777291573
-3.855398692810458e-05,-0.08031639149317148
-3.854398692810458e-05,-0.09499105661214186
-3.853398692810457e-05,-0.08031639149317649
-3.852398692810458e-05,-0.09132239033239425
-3.851398692810458e-05,-0.08765372405265667
-3.850398692810458e-05,-0.09865972289188445
-3.849398692810457e-05,-0.08765372405265667
-3.848398692810458e-05,-0.0913223903323976
-3.847398692810458e-05,-0.07664772521342889
-3.846398692810458e-05,-0.08031639149317148
-3.845398692810457e-05,-0.06564172637420111
-3.844398692810457e-05,-0.08398505777291074
-3.843398692810458e-05,-0.07664772521342889
-3.842398692810458e-05,-0.09499105661214186
-3.841398692810457e-05,-0.08398505777291407
-3.840398692810457e-05,-0.06931039265394871
-3.839398692810458e-05,-0.08031639149317148
-3.838398692810458e-05,-0.08765372405265667
-3.837398692810458e-05,-0.09132239033239926
-3.836398692810457e-05,-0.08031639149317481
-3.835398692810458e-05,-0.08765372405265334
-3.834398692810458e-05,-0.09865972289188445
-3.833398692810458e-05,-0.102328389171627
-3.832398692810457e-05,-0.07664772521342889
-3.831398692810458e-05,-0.08031639149316981
-3.830398692810458e-05,-0.07297905893368629
-3.829398692810458e-05,-0.09499105661214186
-3.828398692810457e-05,-0.07297905893368629
-3.827398692810457e-05,-0.08765372405265667
-3.826398692810458e-05,-0.08765372405265667
-3.825398692810458e-05,-0.08765372405265667
-3.824398692810457e-05,-0.07664772521342889
-3.823398692810457e-05,-0.1023283891716204
-3.822398692810458e-05,-0.08765372405265667
-3.821398692810458e-05,-0.08031639149317148
-3.820398692810458e-05,-0.09499105661214186
-3.819398692810457e-05,-0.06931039265395038
-3.818398692810458e-05,-0.08398505777290739
-3.817398692810458e-05,-0.09499105661214186
-3.816398692810458e-05,-0.08398505777291407
-3.815398692810457e-05,-0.0693103926539437
-3.814398692810458e-05,-0.08765372405264833
-3.813398692810458e-05,-0.09132239033239926
-3.812398692810458e-05,-0.09499105661214186
-3.811398692810457e-05,-0.09865972289188445
-3.810398692810458e-05,-0.09499105661214352
-3.809398692810458e-05,-0.08031639149317148
-3.808398692810458e-05,-0.08398505777291407
-3.807398692810457e-05,-0.07664772521342889
-3.806398692810457e-05,-0.07664772521342221
-3.805398692810458e-05,-0.06197306009445852
-3.804398692810458e-05,-0.09132239033239926
-3.803398692810458e-05,-0.1059970554513696
-3.802398692810457e-05,-0.08398505777291908
-3.801398692810458e-05,-0.09499105661213685
-3.800398692810458e-05,-0.09132239033239926
-3.799398692810458e-05,-0.07664772521342889
-3.798398692810457e-05,-0.08031639149317649
-3.797398692810458e-05,-0.09132239033239425
-3.796398692810458e-05,-0.09499105661214186
-3.795398692810458e-05,-0.06197306009445852
-3.794398692810457e-05,-0.08031639149317148
-3.793398692810458e-05,-0.0839850577729124
-3.792398692810458e-05,-0.08765372405265667
-3.791398692810458e-05,-0.08398505777291407
-3.790398692810457e-05,-0.09499105661214186
-3.789398692810457e-05,-0.06931039265395705
-3.788398692810458e-05,-0.09865972289188445
-3.787398692810458e-05,-0.08031639149317148
-3.786398692810458e-05,-0.08398505777291407
-3.785398692810457e-05,-0.0949910566121285
-3.784398692810458e-05,-0.06564172637421446
-3.783398692810458e-05,-0.08031639149317148
-3.782398692810458e-05,-0.09865972289188445
-3.781398692810457e-05,-0.08031639149316815
-3.780398692810458e-05,-0.07297905893368963
-3.779398692810458e-05,-0.08765372405265667
-3.778398692810458e-05,-0.08398505777291407
-3.777398692810457e-05,-0.0693103926539437
-3.776398692810458e-05,-0.08765372405264833
-3.775398692810458e-05,-0.07664772521342889
-3.774398692810458e-05,-0.07664772521342889
-3.773398692810457e-05,-0.09865972289188445
-3.772398692810457e-05,-0.08398505777291407
-3.771398692810458e-05,-0.08398505777291407
-3.770398692810458e-05,-0.07297905893368629
-3.769398692810457e-05,-0.09865972289188445
-3.768398692810457e-05,-0.07664772521342388
-3.767398692810458e-05,-0.06564172637420612
-3.766398692810458e-05,-0.07664772521342889
-3.765398692810458e-05,-0.0693103926539437
-3.764398692810457e-05,-0.07297905893367795
-3.763398692810458e-05,-0.05463572753498168
-3.762398692810458e-05,-0.09499105661214186
-3.761398692810458e-05,-0.08031639149317148
-3.760398692810457e-05,-0.08031639149317148
-3.759398692810458e-05,-0.07664772521343055
-3.758398692810458e-05,-0.07297905893368629
-3.757398692810458e-05,-0.07664772521342889
-3.756398692810457e-05,-0.07664772521342889
-3.755398692810457e-05,-0.09132239033240093
-3.754398692810458e-05,-0.09499105661214186
-3.753398692810458e-05,-0.08398505777291407
-3.752398692810457e-05,-0.06564172637420111
-3.751398692810457e-05,-0.08765372405265166
-3.750398692810458e-05,-0.0766477252134339
-3.749398692810458e-05,-0.08398505777291407
-3.748398692810458e-05,-0.06564172637420111
-3.747398692810457e-05,-0.08031639149317148
-3.746398692810458e-05,-0.08031639149317148
-3.745398692810458e-05,-0.08031639149317148
-3.744398692810458e-05,-0.0693103926539437
-3.743398692810457e-05,-0.07297905893368629
-3.742398692810458e-05,-0.08031639149316815
-3.741398692810458e-05,-0.08765372405265667
-3.740398692810458e-05,-0.07297905893368629
-3.739398692810457e-05,-0.07664772521342889
-3.738398692810457e-05,-0.08765372405265334
-3.737398692810458e-05,-0.08031639149317148
-3.736398692810458e-05,-0.08398505777291407
-3.735398692810457e-05,-0.07297905893368629
-3.734398692810457e-05,-0.07664772521342889
-3.733398692810458e-05,-0.07664772521342889
-3.732398692810458e-05,-0.07664772521342889
-3.731398692810458e-05,-0.07297905893368629
-3.730398692810457e-05,-0.07664772521343222
-3.729398692810458e-05,-0.08398505777291074
-3.728398692810458e-05,-0.0693103926539437
-3.727398692810458e-05,-0.0693103926539437
-3.726398692810457e-05,-0.0693103926539437
-3.725398692810458e-05,-0.07297905893368463
-3.724398692810458e-05,-0.09865972289188445
-3.723398692810458e-05,-0.08398505777291407
-3.722398692810457e-05,-0.05830439381471593
-3.721398692810458e-05,-0.08398505777290238
-3.720398692810458e-05,-0.08765372405265667
-3.719398692810458e-05,-0.08031639149317148
-3.718398692810457e-05,-0.07664772521342889
-3.717398692810457e-05,-0.08031639149316147
-3.716398692810458e-05,-0.05830439381471593
-3.715398692810458e-05,-0.08031639149317148
-3.714398692810458e-05,-0.05830439381471593
-3.713398692810457e-05,-0.07297905893369297
-3.712398692810458e-05,-0.08765372405265
-3.711398692810458e-05,-0.06564172637420111
-3.710398692810458e-05,-0.0693103926539437
-3.709398692810457e-05,-0.06564172637420111
-3.708398692810458e-05,-0.05463572753497834
-3.707398692810458e-05,-0.08398505777291407
-3.706398692810458e-05,-0.07297905893368629
-3.705398692810457e-05,-0.07297905893368629
-3.704398692810458e-05,-0.06564172637420444
-3.703398692810458e-05,-0.0693103926539437
-3.702398692810458e-05,-0.06564172637420111
-3.701398692810457e-05,-0.07664772521342889
-3.700398692810457e-05,-0.0766477252134339
-3.699398692810458e-05,-0.08765372405265667
-3.698398692810458e-05,-0.06564172637420111
-3.697398692810458e-05,-0.06564172637420111
-3.696398692810457e-05,-0.06564172637420612
-3.695398692810458e-05,-0.07664772521342388
-3.694398692810458e-05,-0.06564172637420111
-3.693398692810458e-05,-0.07297905893368629
-3.692398692810457e-05,-0.05096706125524409
-3.691398692810458e-05,-0.08031639149315813
-3.690398692810458e-05,-0.04729839497548816
-3.689398692810458e-05,-0.04362972869574556
-3.688398692810457e-05,0.05175559457756183
-3.687398692810458e-05,-0.02528639729699755
-3.686398692810458e-05,-0.03629239613626038
-3.685398692810458e-05,0.436965553950534
-3.684398692810457e-05,0.1031169224939581
-3.683398692810457e-05,0.000394266661253964
-3.682398692810458e-05,0.1948335794875229
-3.681398692810458e-05,-0.07297905893368629
-3.680398692810458e-05,0.2718755713621174
-3.679398692810457e-05,0.1948335794874562
-3.678398692810458e-05,0.04808692829788597
-3.677398692810458e-05,0.1434722515711266
-3.676398692810458e-05,-0.01794906473754742
-3.675398692810457e-05,0.1691529155292547
-3.674398692810458e-05,0.01506893178020599
-3.673398692810458e-05,-0.01428039845780483
-3.672398692810458e-05,-0.02161773101729001
-3.671398692810457e-05,-0.1646957159272511
-3.670398692810458e-05,0.01140026550031326
-3.669398692810458e-05,-0.09865972289188445
-3.668398692810458e-05,-0.04729839497548816
-3.667398692810457e-05,-0.08765372405265667
-3.666398692810457e-05,-0.2013823787246136
-3.665398692810458e-05,-0.06197306009445852
-3.664398692810458e-05,-0.1536897170880233
-3.663398692810457e-05,-0.09132239033239926
-3.662398692810457e-05,-0.1426837182488056
-3.661398692810458e-05,-0.1646957159272411
-3.660398692810458e-05,-0.06197306009445852
-3.659398692810458e-05,-0.1683643822069937
-3.658398692810457e-05,-0.0436297286957756
-3.657398692810458e-05,-0.1096657217310822
-3.656398692810458e-05,-0.1353463856893104
-3.655398692810458e-05,-0.08031639149317148
-3.654398692810457e-05,-0.1720330484867363
-3.653398692810458e-05,-0.05463572753502673
-3.652398692810458e-05,-0.09865972289188445
-3.651398692810458e-05,-0.1096657217311122
-3.650398692810457e-05,-0.09132239033239926
-3.649398692810457e-05,-0.1316777194095277
-3.648398692810458e-05,-0.04362972869574556
-3.647398692810458e-05,-0.1096657217311122
-3.646398692810457e-05,-0.1059970554513696
-3.645398692810457e-05,-0.09132239033241428
-3.644398692810458e-05,-0.1243403868500676
-3.643398692810458e-05,-0.05830439381471593
-3.642398692810458e-05,-0.102328389171627
-3.641398692810457e-05,-0.06197306009447186
-3.640398692810458e-05,-0.09132239033238591
-3.639398692810458e-05,-0.1170030542905974
-3.638398692810458e-05,-0.06564172637420111
-3.637398692810457e-05,-0.102328389171627
-3.636398692810458e-05,-0.05830439381473595
-3.635398692810458e-05,-0.09132239033239926
-3.634398692810458e-05,-0.1096657217311122
-3.633398692810457e-05,-0.0693103926539437
-3.632398692810457e-05,-0.09499105661213185
-3.631398692810458e-05,-0.07297905893368629
-3.630398692810458e-05,-0.09865972289188445
-3.629398692810457e-05,-0.1059970554513696
-3.628398692810457e-05,-0.06931039265395539
-3.627398692810458e-05,-0.09499105661214186
-3.626398692810458e-05,-0.04362972869574556
-3.625398692810458e-05,-0.08031639149317148
-3.624398692810457e-05,-0.06564172637420444
-3.623398692810458e-05,-0.07297905893368296
-3.622398692810458e-05,-0.09132239033239926
-3.621398692810458e-05,-0.05830439381471593
-3.620398692810457e-05,-0.07297905893368629
-3.619398692810458e-05,-0.07664772521342722
-3.618398692810458e-05,-0.09499105661214186
-3.617398692810458e-05,-0.09132239033239926
-3.616398692810457e-05,-0.04729839497548816
-3.615398692810458e-05,-0.08765372405263833
-3.614398692810458e-05,-0.07664772521342889
-3.613398692810458e-05,-0.07664772521342889
-3.612398692810457e-05,-0.09865972289188445
-3.611398692810457e-05,-0.07297905893370298
-3.610398692810458e-05,-0.1096657217311122
-3.609398692810458e-05,-0.07297905893368629
-3.608398692810458e-05,-0.08031639149317148
-3.607398692810457e-05,-0.09132239033238926
-3.606398692810458e-05,-0.06931039265395371
-3.605398692810458e-05,-0.09132239033239926
-3.604398692810458e-05,-0.08031639149317148
-3.603398692810457e-05,-0.09499105661214186
-3.602398692810458e-05,-0.08765372405266
-3.601398692810458e-05,-0.07664772521342889
-3.600398692810458e-05,-0.08031639149317148
-3.599398692810457e-05,-0.05463572753497334
-3.598398692810458e-05,-0.09499105661212351
-3.597398692810458e-05,-0.08765372405265667
-3.596398692810458e-05,-0.07297905893368629
-3.595398692810457e-05,-0.08765372405265667
-3.594398692810457e-05,-0.08031639149317314
-3.593398692810458e-05,-0.08398505777291407
-3.592398692810458e-05,-0.0693103926539437
-3.591398692810458e-05,-0.08031639149317148
-3.590398692810457e-05,-0.07664772521342722
-3.589398692810458e-05,-0.07297905893368796
-3.588398692810458e-05,-0.09499105661214186
-3.587398692810458e-05,-0.08031639149317148
-3.586398692810457e-05,-0.08765372405265
-3.585398692810458e-05,-0.07297905893369297
-3.584398692810458e-05,-0.0693103926539437
-3.583398692810458e-05,-0.07664772521342889
-3.582398692810457e-05,-0.0693103926539437
-3.581398692810458e-05,-0.07664772521342555
-3.580398692810458e-05,-0.08031639149317148
-3.579398692810458e-05,-0.09132239033239926
-3.578398692810457e-05,-0.08031639149317148
-3.577398692810457e-05,0.08844225737504281
-3.576398692810458e-05,0.2095082446064933
-3.575398692810458e-05,-0.3554663624738659
-3.574398692810458e-05,0.6974408598122581
-3.573398692810457e-05,0.2131769108861441
-3.572398692810458e-05,0.01140026550048509
-3.571398692810458e-05,0.7634768528476248
-3.570398692810458e-05,0.07009892597627479
-3.569398692810457e-05,0.8698681749601398
-3.568398692810458e-05,0.8258441796032687
-3.567398692810458e-05,0.7854888505260802
-3.566398692810458e-05,1.460523445998717
-3.565398692810457e-05,1.295433463410301
-3.564398692810458e-05,2.095202712393822
-3.563398692810458e-05,2.168576037989038
-3.562398692810458e-05,2.564791996201238
-3.561398692810457e-05,3.085742607924685
-3.560398692810457e-05,3.243495257953992
-3.559398692810458e-05,4.0689451708957
-3.558398692810458e-05,3.716753208040411
-3.557398692810457e-05,3.911192520866769
-3.556398692810457e-05,4.17166782672823
-3.555398692810458e-05,3.595687220809168
-3.554398692810458e-05,4.123975165091839
-3.553398692810458e-05,3.797463866194748
-3.552398692810457e-05,3.907523854587095
-3.551398692810458e-05,4.057939172056404
-3.550398692810458e-05,3.731427873159382
-3.549398692810458e-05,4.131312497651324
-3.548398692810457e-05,3.892849189468056
-3.547398692810458e-05,4.083619836014583
