TP2/Mediciones/Vo-Vref145V.csv

#Digilent WaveForms Oscilloscope Acquisition
#Device Name: Discovery2
#Serial Number: SN:210321B0E03A
#Date Time: 2021-06-21 11:57:40.453
#Sample rate: 5e+07Hz
#Samples: 8192
#Trigger: Source: Channel 1 Type: Edge Condition: Rising Level: 3.05 V Hyst.: Auto HoldOff: 100 ns
#Channel 1: Range: 500 mV/div Offset: -1.5 V Attenuation: 1 X
#Power Supplies: ON
#Positive Supply: ON
#Voltage: 1.45 V
#Negative Supply: OFF
#Voltage: -500 mV

Time (s),Channel 1 (V)
-8.490800000000001e-05,3.04884539823419
-8.4888e-05,3.078586091601677
-8.4868e-05,3.076581101037576
-8.484800000000001e-05,3.073907780285445
-8.482800000000001e-05,3.073573615191426
-8.480800000000001e-05,3.071568624627326
-8.4788e-05,3.069229468969209
-8.476800000000001e-05,3.06622198312306
-8.474800000000001e-05,3.064885322746992
-8.472800000000001e-05,3.062212001994858
-8.4708e-05,3.059538681242724
-8.4688e-05,3.058202020866656
-8.466800000000001e-05,3.056531195396574
-8.464800000000001e-05,3.054526204832474
-8.4628e-05,3.052187049174357
-8.4608e-05,3.050516223704272
-8.458800000000001e-05,3.048511233140173
-8.456800000000001e-05,3.044835417105989
-8.4548e-05,3.043832921823939
-8.4528e-05,3.039488775601721
-8.450800000000001e-05,3.039154610507705
-8.448800000000001e-05,3.036481289755571
-8.446800000000001e-05,3.033807969003437
-8.4448e-05,3.031802978439337
-8.442800000000001e-05,3.028461327499171
-8.440800000000001e-05,3.025788006747036
-8.438800000000001e-05,3.023783016182936
-8.4368e-05,3.022112190712852
-8.4348e-05,3.019773035054734
-8.432800000000001e-05,3.016431384114568
-8.430800000000001e-05,3.014426393550468
-8.4288e-05,3.01208723789235
-8.4268e-05,3.008745586952182
-8.424800000000001e-05,3.005403936012017
-8.422800000000001e-05,3.002730615259883
-8.4208e-05,3.001059789789799
-8.4188e-05,2.997049808661597
-8.416800000000001e-05,2.993373992627416
-8.414800000000001e-05,2.990366506781264
-8.4128e-05,2.98769318602913
-8.4108e-05,2.984017369994946
-8.408800000000001e-05,2.981678214336831
-8.406800000000001e-05,2.978336563396662
-8.404800000000001e-05,2.973992417174445
-8.4028e-05,2.969648270952228
-8.4008e-05,2.966974950200093
-8.398800000000001e-05,2.964635794541977
-8.396800000000001e-05,2.957618327567626
-8.3948e-05,2.753443455123412
-8.3928e-05,2.900141931396802
-8.390800000000001e-05,3.012421402986368
-8.388800000000001e-05,2.961962473789843
-8.3868e-05,2.968979940764194
-8.3848e-05,2.970984931328293
-8.382800000000001e-05,2.968979940764195
-8.380800000000001e-05,2.959623318131726
-8.3788e-05,2.950266695499258
-8.3768e-05,2.939573412490723
-8.374800000000001e-05,2.93990757758474
-8.372800000000001e-05,2.933558440798422
-8.370800000000001e-05,2.920191837037754
-8.3688e-05,2.91952350684972
-8.3668e-05,2.918521011567667
-8.364800000000001e-05,2.913842700251436
-8.362800000000001e-05,2.912171874781352
-8.3608e-05,2.911837709687336
-8.3588e-05,2.907827728559134
-8.356800000000001e-05,2.905154407807001
-8.354800000000001e-05,2.905154407807001
-8.3528e-05,2.900476096490767
-8.3508e-05,2.90014193139675
-8.348800000000001e-05,2.898471105926668
-8.346800000000001e-05,2.896466115362567
-8.3448e-05,2.894126959704449
-8.3428e-05,2.893458629516416
-8.340800000000001e-05,2.890451143670267
-8.338800000000001e-05,2.888780318200182
-8.336800000000001e-05,2.888111988012149
-8.3348e-05,2.886441162542065
-8.332800000000001e-05,2.884436171977966
-8.330800000000001e-05,2.883433676695915
-8.328800000000001e-05,2.883099511601898
-8.3268e-05,2.881094521037798
-8.3248e-05,2.87975786066173
-8.322800000000001e-05,2.878087035191647
-8.320800000000001e-05,2.878087035191647
-8.3188e-05,2.87675037481558
-8.3168e-05,2.87574787953353
-8.314800000000001e-05,2.875413714439513
-8.312800000000001e-05,2.874411219157463
-8.3108e-05,2.873074558781396
-8.3088e-05,2.871737898405328
-8.306800000000001e-05,2.86973290784123
-8.304800000000001e-05,2.869732907841229
-8.302800000000001e-05,2.868730412559179
-8.3008e-05,2.867393752183112
-8.298800000000001e-05,2.867393752183112
-8.296800000000001e-05,2.865722926713029
-8.294800000000001e-05,2.865054596524995
-8.2928e-05,2.863383771054911
-8.2908e-05,2.863717936148928
-8.288800000000001e-05,2.862381275772861
-8.286800000000001e-05,2.861712945584828
-8.2848e-05,2.861044615396795
-8.2828e-05,2.861378780490744
-8.280800000000001e-05,2.713343643841474
-8.278800000000001e-05,2.65185726654233
-8.2768e-05,2.847343846542109
-8.2748e-05,2.848346341824166
-8.272800000000001e-05,2.861712945584822
-8.270800000000001e-05,2.862715440866878
-8.268800000000001e-05,2.87675037481558
-8.2668e-05,2.886775327636082
-8.264800000000001e-05,2.864720431430988
-8.262800000000001e-05,2.873074558781396
-8.260800000000001e-05,2.879423695567714
-8.2588e-05,2.867393752183112
-8.2568e-05,2.870067072935253
-8.254800000000001e-05,2.884436171977965
-8.252800000000001e-05,2.889448648388216
-8.2508e-05,2.884770337071981
-8.2488e-05,2.887777822918126
-8.246800000000001e-05,2.875079549345502
-8.244800000000001e-05,2.862047110678845
-8.2428e-05,2.862715440866878
-8.2408e-05,2.855697973892524
-8.238800000000001e-05,2.849014672012196
-8.236800000000001e-05,2.850685497482276
-8.234800000000001e-05,2.851687992764327
-8.2328e-05,2.848346341824159
-8.230800000000001e-05,2.848680506918176
-8.228800000000001e-05,2.85035133238826
-8.226800000000001e-05,2.846007186166042
-8.2248e-05,2.847009681448093
-8.2228e-05,2.846341351260059
-8.220800000000001e-05,2.845673021072026
-8.218800000000001e-05,2.845673021072026
-8.2168e-05,2.846675516354076
-8.2148e-05,2.844336360695958
-8.212800000000001e-05,2.843668030507926
-8.210800000000001e-05,2.844670525789975
-8.2088e-05,2.844002195601942
-8.2068e-05,2.841997205037843
-8.204800000000001e-05,2.844336360695958
-8.202800000000001e-05,2.842999700319892
-8.2008e-05,2.841663039943825
-8.1988e-05,2.841663039943825
-8.196800000000001e-05,2.841328874849808
-8.194800000000001e-05,2.840660544661775
-8.192800000000001e-05,2.841328874849808
-8.1908e-05,2.840994709755791
-8.1888e-05,2.840326379567757
-8.186800000000001e-05,2.839323884285708
-8.184800000000001e-05,2.838655554097675
-8.1828e-05,2.839323884285708
-8.1808e-05,2.837653058815625
-8.178800000000001e-05,2.838989719191691
-8.176800000000001e-05,2.838655554097675
-8.1748e-05,2.836984728627591
-8.1728e-05,2.837318893721608
-8.170800000000001e-05,2.837987223909641
-8.168800000000001e-05,2.837653058815624
-8.1668e-05,2.837318893721608
-8.1648e-05,2.836984728627591
-8.162800000000001e-05,2.836650563533574
-8.160800000000001e-05,2.836984728627591
-8.158800000000001e-05,2.835982233345541
-8.1568e-05,2.835648068251524
-8.1548e-05,2.835648068251524
-8.152800000000001e-05,2.835982233345541
-8.150800000000001e-05,2.834979738063491
-8.1488e-05,2.834979738063491
-8.1468e-05,2.834645572969474
-8.144800000000001e-05,2.834311407875457
-8.142800000000001e-05,2.833643077687424
-8.1408e-05,2.83297474749939
-8.1388e-05,2.83397724278144
-8.136800000000001e-05,2.832640582405374
-8.134800000000001e-05,2.83297474749939
-8.1328e-05,2.83297474749939
-8.1308e-05,2.833643077687424
-8.128800000000001e-05,2.831972252217341
-8.126800000000001e-05,2.831638087123324
-8.124800000000001e-05,2.83096975693529
-8.1228e-05,2.832306417311357
-8.120800000000001e-05,2.831303922029307
-8.118800000000001e-05,2.831638087123324
-8.116800000000001e-05,2.830301426747257
-8.1148e-05,2.830635591841273
-8.1128e-05,2.830635591841273
-8.110800000000001e-05,2.830301426747257
-8.108800000000001e-05,2.829633096559223
-8.1068e-05,2.828296436183156
-8.1048e-05,2.829633096559223
-8.102800000000001e-05,2.82896476637119
-8.100800000000001e-05,2.828630601277173
-8.0988e-05,2.82796227108914
-8.0968e-05,2.82796227108914
-8.094800000000001e-05,2.827628105995123
-8.092800000000001e-05,2.82796227108914
-8.090800000000001e-05,2.82796227108914
-8.0888e-05,2.827628105995123
-8.086800000000001e-05,2.827293940901106
-8.084800000000001e-05,2.827293940901106
-8.082800000000001e-05,2.826959775807089
-8.0808e-05,2.826959775807089
-8.0788e-05,2.825623115431022
-8.076800000000001e-05,2.825957280525039
-8.074800000000001e-05,2.825623115431022
-8.0728e-05,2.825288950337006
-8.0708e-05,2.825957280525039
-8.068800000000001e-05,2.825623115431022
-8.066800000000001e-05,2.825623115431022
-8.0648e-05,2.825623115431022
-8.0628e-05,2.824620620148973
-8.060800000000001e-05,2.824286455054956
-8.058800000000001e-05,2.823618124866922
-8.056800000000001e-05,2.822949794678889
-8.0548e-05,2.823618124866922
-8.052800000000001e-05,2.824286455054955
-8.050800000000001e-05,2.823618124866922
-8.048800000000001e-05,2.823283959772906
-8.0468e-05,2.822615629584872
-8.0448e-05,2.821947299396839
-8.042800000000001e-05,2.822281464490855
-8.040800000000001e-05,2.821613134302822
-8.0388e-05,2.822615629584872
-8.0368e-05,2.821613134302822
-8.034800000000001e-05,2.822281464490855
-8.032800000000001e-05,2.820610639020772
-8.0308e-05,2.821613134302822
-8.0288e-05,2.821947299396838
-8.026800000000001e-05,2.819942308832739
-8.024800000000001e-05,2.821613134302822
-8.022800000000001e-05,2.820276473926755
-8.0208e-05,2.821278969208805
-8.018800000000001e-05,2.819608143738723
-8.016800000000001e-05,2.820276473926755
-8.014800000000001e-05,2.820276473926755
-8.0128e-05,2.820610639020772
-8.0108e-05,2.820610639020771
-8.008800000000001e-05,2.819608143738722
-8.006800000000001e-05,2.818939813550688
-8.0048e-05,2.819273978644705
-8.0028e-05,2.819273978644705
-8.000800000000001e-05,2.818939813550688
-7.998800000000001e-05,2.819273978644705
-7.9968e-05,2.818939813550688
-7.9948e-05,2.817603153174622
-7.992800000000001e-05,2.817937318268638
-7.990800000000001e-05,2.819608143738722
-7.9888e-05,2.818271483362655
-7.9868e-05,2.817268988080605
-7.984800000000001e-05,2.817937318268637
-7.982800000000001e-05,2.817268988080605
-7.980800000000001e-05,2.817268988080605
-7.9788e-05,2.816266492798555
-7.9768e-05,2.816600657892571
-7.974800000000001e-05,2.815598162610521
-7.972800000000001e-05,2.815932327704538
-7.9708e-05,2.815263997516504
-7.9688e-05,2.816266492798554
-7.966800000000001e-05,2.815263997516504
-7.964800000000001e-05,2.814929832422488
-7.9628e-05,2.814261502234454
-7.9608e-05,2.815263997516504
-7.958800000000001e-05,2.814595667328471
-7.956800000000001e-05,2.815263997516504
-7.9548e-05,2.814595667328471
-7.9528e-05,2.814261502234454
-7.950800000000001e-05,2.813927337140437
-7.948800000000001e-05,2.814595667328471
-7.946800000000001e-05,2.813593172046421
-7.9448e-05,2.813593172046421
-7.942800000000001e-05,2.812924841858388
-7.940800000000001e-05,2.813259006952404
-7.938800000000001e-05,2.814261502234454
-7.9368e-05,2.812924841858387
-7.9348e-05,2.812924841858387
-7.932800000000001e-05,2.812590676764371
-7.930800000000001e-05,2.812590676764371
-7.9288e-05,2.812256511670354
-7.9268e-05,2.811254016388304
-7.924800000000001e-05,2.811922346576337
-7.922800000000001e-05,2.811254016388304
-7.9208e-05,2.811254016388304
-7.9188e-05,2.812590676764371
-7.916800000000001e-05,2.810585686200271
-7.914800000000001e-05,2.810919851294287
-7.912800000000001e-05,2.81058568620027
-7.9108e-05,2.795548256969518
-7.908800000000001e-05,2.559293535499807
-7.906800000000001e-05,2.816934822986588
-7.904800000000001e-05,2.895797785174533
-7.9028e-05,2.784520808866966
-7.9008e-05,2.855697973892512
-7.898800000000001e-05,2.823618124866922
-7.896800000000001e-05,2.818605648456671
-7.8948e-05,2.824286455054956
-7.8928e-05,2.815598162610517
-7.890800000000001e-05,2.805907374884041
-7.888800000000001e-05,2.816600657892571
-7.8868e-05,2.814929832422488
-7.8848e-05,2.807578200354123
-7.882800000000001e-05,2.814929832422484
-7.880800000000001e-05,2.813593172046421
-7.878800000000001e-05,2.809917356012237
-7.8768e-05,2.811922346576337
-7.874800000000001e-05,2.812256511670354
-7.872800000000001e-05,2.809249025824204
-7.870800000000001e-05,2.808914860730187
-7.8688e-05,2.811254016388304
-7.8668e-05,2.80858069563617
-7.864800000000001e-05,2.807912365448137
-7.862800000000001e-05,2.80657570507207
-7.8608e-05,2.806241539978053
-7.8588e-05,2.806241539978053
-7.856800000000001e-05,2.80657570507207
-7.854800000000001e-05,2.804904879601986
-7.8528e-05,2.806909870166086
-7.8508e-05,2.806575705072069
-7.848800000000001e-05,2.805239044696003
-7.846800000000001e-05,2.804904879601986
-7.844800000000001e-05,2.806241539978053
-7.8428e-05,2.80757820035412
-7.840800000000001e-05,2.806241539978053
-7.838800000000001e-05,2.805907374884036
-7.836800000000001e-05,2.806909870166086
-7.8348e-05,2.80657570507207
-7.8328e-05,2.806909870166086
-7.830800000000001e-05,2.805907374884036
-7.828800000000001e-05,2.804570714507969
-7.8268e-05,2.80657570507207
-7.8248e-05,2.80457071450797
-7.822800000000001e-05,2.806241539978052
-7.820800000000001e-05,2.804236549413953
-7.8188e-05,2.803902384319936
-7.8168e-05,2.804236549413953
-7.814800000000001e-05,2.803234054131903
-7.812800000000001e-05,2.803568219225919
-7.810800000000001e-05,2.802899889037886
-7.8088e-05,2.802565723943869
-7.806800000000001e-05,2.803568219225919
-7.804800000000001e-05,2.801897393755836
-7.802800000000001e-05,2.802565723943869
-7.8008e-05,2.802565723943869
-7.7988e-05,2.801897393755836
-7.796800000000001e-05,2.801897393755836
-7.794800000000001e-05,2.802565723943869
-7.7928e-05,2.801229063567802
-7.7908e-05,2.800894898473732
-7.788800000000001e-05,2.682934620285938
-7.786800000000001e-05,2.543587776080914
-7.7848e-05,2.802565723943869
-7.7828e-05,2.790201615465245
-7.780800000000001e-05,2.776500846610571
-7.778800000000001e-05,2.834645572969474
-7.7768e-05,2.830301426747257
-7.7748e-05,2.80557320979002
-7.772800000000001e-05,2.822281464490848
-7.770800000000001e-05,2.827628105995123
-7.768800000000001e-05,2.808914860730187
-7.7668e-05,2.822949794678889
-7.7648e-05,2.829633096559222
-7.762800000000001e-05,2.827293940901106
-7.760800000000001e-05,2.852022157858343
-7.7588e-05,2.852690488046377
-7.7568e-05,2.843668030507927
-7.754800000000001e-05,2.847678011636126
-7.752800000000001e-05,2.848680506918176
-7.7508e-05,2.839323884285708
-7.7488e-05,2.84567302107203
-7.746800000000001e-05,2.855363808798506
-7.744800000000001e-05,2.85436131351646
-7.7428e-05,2.868062082371146
-7.7408e-05,2.879757860661731
-7.738800000000001e-05,2.885438667260012
-7.736800000000001e-05,2.896466115362567
-7.734800000000001e-05,2.902815252148884
-7.7328e-05,2.89813694083265
-7.730800000000001e-05,2.913508535157412
-7.728800000000001e-05,2.925872643636038
-7.726800000000001e-05,2.928545964388171
-7.7248e-05,2.937568421926623
-7.7228e-05,2.950266695499261
-7.720800000000001e-05,2.956949997379592
-7.718800000000001e-05,2.964635794541977
-7.7168e-05,2.974660747362478
-7.7148e-05,2.982346544524866
-7.712800000000001e-05,2.989698176593227
-7.710800000000001e-05,2.996381478473565
-7.7088e-05,3.003733110541932
-7.7068e-05,3.01008224732825
-7.704800000000001e-05,3.017768044490631
-7.702800000000001e-05,3.023783016182936
-7.700800000000001e-05,3.029797987875237
-7.6988e-05,3.035478794473521
-7.696800000000001e-05,3.041493766165819
-7.694800000000001e-05,3.046840407670089
-7.692800000000001e-05,3.052187049174357
-7.6908e-05,3.058536185960675
-7.6888e-05,3.062212001994861
-7.686800000000001e-05,3.068226973687159
-7.684800000000001e-05,3.070900294439292
-7.6828e-05,3.07624693594356
-7.6808e-05,3.08159357744783
-7.678800000000001e-05,3.085603558576027
-7.676800000000001e-05,3.088611044422179
-7.6748e-05,3.091284365174312
-7.6728e-05,3.096631006678581
-7.670800000000001e-05,3.099304327430712
-7.668800000000001e-05,3.100975152900797
-7.666800000000001e-05,3.105653464217031
-7.6648e-05,3.106990124593098
-7.662800000000001e-05,3.111000105721297
-7.660800000000001e-05,3.111668435909333
-7.658800000000001e-05,3.114341756661466
-7.6568e-05,3.116346747225566
-7.6548e-05,3.118685902883684
-7.652800000000001e-05,3.120356728353767
-7.650800000000001e-05,3.12202755382385
-7.6488e-05,3.12403254438795
-7.6468e-05,3.124366709481968
-7.644800000000001e-05,3.12603753495205
-7.642800000000001e-05,3.127374195328118
-7.6408e-05,3.129379185892218
-7.6388e-05,3.129713350986236
-7.636800000000001e-05,3.132052506644351
-7.634800000000001e-05,3.131718341550335
-7.632800000000001e-05,3.132720836832386
-7.6308e-05,3.133389167020419
-7.628800000000001e-05,3.132720836832386
-7.626800000000001e-05,3.134725827396486
-7.624800000000001e-05,3.134057497208453
-7.6228e-05,3.134057497208453
-7.6208e-05,3.135728322678535
-7.618800000000001e-05,3.134391662302469
-7.616800000000001e-05,3.134725827396486
-7.6148e-05,3.136062487772552
-7.6128e-05,3.135059992490502
-7.610800000000001e-05,3.134391662302469
-7.608800000000001e-05,3.134057497208453
-7.6068e-05,3.133723332114435
-7.6048e-05,3.132386671738368
-7.602800000000001e-05,3.131718341550335
-7.600800000000001e-05,3.131384176456319
-7.5988e-05,3.131050011362302
-7.5968e-05,3.130381681174268
-7.594800000000001e-05,3.129379185892219
-7.592800000000001e-05,3.129045020798201
-7.590800000000001e-05,3.127708360422135
-7.5888e-05,3.126705865140084
-7.5868e-05,3.126371700046067
-7.584800000000001e-05,3.124366709481968
-7.582800000000001e-05,3.123364214199917
-7.5808e-05,3.122695884011884
-7.5788e-05,3.1210250585418
-7.576800000000001e-05,3.120356728353767
-7.574800000000001e-05,3.119688398165733
-7.5728e-05,3.11801757269565
-7.5708e-05,3.117015077413599
-7.568800000000001e-05,3.114675921755484
-7.566800000000001e-05,3.113339261379416
-7.5648e-05,3.111334270815315
-7.5628e-05,3.109997610439248
-7.560800000000001e-05,3.109329280251215
-7.558800000000001e-05,3.106990124593098
-7.556800000000001e-05,3.105319299123015
-7.5548e-05,3.103314308558915
-7.5528e-05,3.100975152900797
-7.550800000000001e-05,3.099972657618747
-7.548800000000001e-05,3.09963849252473
-7.5468e-05,3.096296841584564
-7.5448e-05,3.095294346302512
-7.542800000000001e-05,3.094291851020463
-7.540800000000001e-05,3.092286860456363
-7.5388e-05,3.090616034986279
-7.5368e-05,3.087942714234145
-7.534800000000001e-05,3.087274384046113
-7.532800000000001e-05,3.084266898199961
-7.5308e-05,3.082930237823895
-7.5288e-05,3.080591082165777
-7.526800000000001e-05,3.079254421789711
-7.524800000000001e-05,3.077583596319627
-7.522800000000001e-05,3.07524444066151
-7.5208e-05,3.072571119909377
-7.518800000000001e-05,3.070566129345277
-7.516800000000001e-05,3.068895303875192
-7.514800000000001e-05,3.067558643499126
-7.5128e-05,3.065553652935026
-7.5108e-05,3.062880332182891
-7.508800000000001e-05,3.061543671806825
-7.506800000000001e-05,3.058536185960675
-7.5048e-05,3.056197030302557
-7.5028e-05,3.054192039738456
-7.500800000000001e-05,3.052521214268374
-7.498800000000001e-05,3.049847893516239
-7.4968e-05,3.047842902952139
-7.4948e-05,3.045837912388038
-7.492800000000001e-05,3.043164591635907
-7.490800000000001e-05,3.041159601071805
-7.488800000000001e-05,3.039154610507705
-7.4868e-05,3.037149619943604
-7.484800000000001e-05,3.033473803909422
-7.482800000000001e-05,3.030800483157287
-7.480800000000001e-05,3.03046631806327
-7.4788e-05,3.026790502029086
-7.4768e-05,3.024117181276951
-7.474800000000001e-05,3.021443860524819
-7.472800000000001e-05,3.019104704866701
-7.4708e-05,3.016431384114568
-7.4688e-05,3.013089733174399
-7.466800000000001e-05,3.010416412422269
-7.464800000000001e-05,3.007743091670133
-7.4628e-05,3.00607226620005
-7.4608e-05,3.002730615259882
-7.458800000000001e-05,3.000391459601766
-7.456800000000001e-05,2.997049808661599
-7.454800000000001e-05,2.993708157721431
-7.4528e-05,2.990366506781264
-7.450800000000001e-05,2.988361516217164
-7.448800000000001e-05,2.98468570018298
-7.446800000000001e-05,2.981009884148796
-7.4448e-05,2.976999903020595
-7.4428e-05,2.973658252080426
-7.440800000000001e-05,2.969982436046244
-7.438800000000001e-05,2.966640785106077
-7.4368e-05,2.963967464353943
-7.4348e-05,2.955947502097447
-7.432800000000001e-05,2.746760153243172
-7.430800000000001e-05,2.908830223841185
-7.4288e-05,3.010416412422267
-7.4268e-05,2.957618327567631
-7.424800000000001e-05,2.970650766234272
-7.422800000000001e-05,2.971653261516328
-7.420800000000001e-05,2.966640785106077
-7.4188e-05,2.958620822849676
-7.416800000000001e-05,2.950266695499262
-7.414800000000001e-05,2.94091007286679
