TP2/Mediciones/Vsec-Vref2V.csv

#Digilent WaveForms Oscilloscope Acquisition
#Device Name: Discovery2
#Serial Number: SN:210321B0E03A
#Date Time: 2021-06-20 16:48:55.674
#Sample rate: 1e+08Hz
#Samples: 8192
#Trigger: Source: Channel 1 Type: Edge Condition: Rising Level: 1.9 V Hyst.: Auto HoldOff: 100 ns
#Channel 1: Range: 5 V/div Offset: 0 V Attenuation: 1 X
#Wavegen Channel 1: Running
#Mode: Simple
#Type: DC
#Offset: 2 V

Time (s),Channel 1 (V)
-3.995538461538462e-05,-3.8296933293901
-3.994538461538462e-05,-3.818687330550873
-3.993538461538462e-05,-3.796675332872419
-3.992538461538462e-05,-3.800343999152158
-3.991538461538462e-05,-3.811349997991388
-3.990538461538462e-05,-3.793006666592674
-3.989538461538462e-05,-3.80034399915216
-3.988538461538462e-05,-3.796675332872419
-3.987538461538462e-05,-3.804012665431902
-3.986538461538462e-05,-3.818687330550873
-3.985538461538462e-05,-3.796675332872417
-3.984538461538461e-05,-3.793006666592671
-3.983538461538462e-05,-3.78566933403319
-3.982538461538462e-05,-3.770994668914219
-3.981538461538462e-05,-3.807681331711645
-3.980538461538461e-05,-3.789338000312937
-3.979538461538462e-05,-3.800343999152155
-3.978538461538462e-05,-3.782000667753447
-3.977538461538462e-05,-3.767326002634476
-3.976538461538462e-05,-3.785669334033186
-3.975538461538462e-05,-3.778332001473708
-3.974538461538462e-05,-3.782000667753447
-3.973538461538462e-05,-3.78566933403319
-3.972538461538462e-05,-3.796675332872417
-3.971538461538462e-05,-3.770994668914231
-3.970538461538462e-05,-3.78566933403319
-3.969538461538462e-05,-3.774663335193962
-3.968538461538462e-05,-3.778332001473704
-3.967538461538461e-05,-3.748982671235769
-3.966538461538462e-05,-3.759988670074991
-3.965538461538462e-05,-3.763657336354734
-3.964538461538462e-05,-3.770994668914219
-3.963538461538461e-05,-3.756320003795257
-3.962538461538462e-05,-3.774663335193953
-3.961538461538462e-05,-3.767326002634476
-3.960538461538462e-05,-3.770994668914219
-3.959538461538461e-05,-3.774663335193953
-3.958538461538462e-05,-3.756320003795257
-3.957538461538462e-05,-3.759988670074991
-3.956538461538462e-05,-3.763657336354734
-3.955538461538462e-05,-3.770994668914219
-3.954538461538462e-05,-3.759988670074996
-3.953538461538462e-05,-3.756320003795249
-3.952538461538462e-05,-3.767326002634476
-3.951538461538462e-05,-3.748982671235764
-3.950538461538461e-05,-3.752651337515494
-3.949538461538462e-05,-3.726970673557308
-3.948538461538462e-05,-3.748982671235764
-3.947538461538462e-05,-3.737976672396536
-3.946538461538461e-05,-3.756320003795245
-3.945538461538462e-05,-3.748982671235764
-3.944538461538462e-05,-3.734308006116793
-3.943538461538462e-05,-3.734308006116793
-3.942538461538461e-05,-3.748982671235755
-3.941538461538462e-05,-3.730639339837059
-3.940538461538462e-05,-3.730639339837051
-3.939538461538462e-05,-3.737976672396536
-3.938538461538462e-05,-3.745314004956021
-3.937538461538462e-05,-3.737976672396539
-3.936538461538462e-05,-3.741645338676278
-3.935538461538462e-05,-3.741645338676278
-3.934538461538462e-05,-3.726970673557308
-3.933538461538461e-05,-3.719633340997825
-3.932538461538462e-05,-3.723302007277566
-3.931538461538462e-05,-3.704958675878852
-3.930538461538462e-05,-3.737976672396536
-3.929538461538461e-05,-3.719633340997825
-3.928538461538462e-05,-3.723302007277566
-3.927538461538462e-05,-3.723302007277566
-3.926538461538462e-05,-3.719633340997823
-3.925538461538461e-05,-3.719633340997816
-3.924538461538462e-05,-3.704958675878859
-3.923538461538462e-05,-3.70129000959911
-3.922538461538462e-05,-3.712296008438337
-3.921538461538462e-05,-3.70129000959911
-3.920538461538462e-05,-3.70129000959911
-3.919538461538462e-05,-3.712296008438337
-3.918538461538462e-05,-3.70129000959911
-3.917538461538462e-05,-3.712296008438337
-3.916538461538462e-05,-3.715964674718078
-3.915538461538462e-05,-3.704958675878852
-3.914538461538462e-05,-3.704958675878852
-3.913538461538462e-05,-3.704958675878852
-3.912538461538461e-05,-3.719633340997806
-3.911538461538462e-05,-3.682946678200397
-3.910538461538462e-05,-3.686615344480139
-3.909538461538462e-05,-3.70129000959911
-3.908538461538461e-05,-3.693952677039621
-3.907538461538462e-05,-3.686615344480143
-3.906538461538462e-05,-3.693952677039625
-3.905538461538462e-05,-3.708627342158595
-3.904538461538462e-05,-3.679278011920663
-3.903538461538462e-05,-3.697621343319359
-3.902538461538462e-05,-3.679278011920654
-3.901538461538462e-05,-3.690284010759882
-3.900538461538462e-05,-3.686615344480139
-3.899538461538462e-05,-3.679278011920658
-3.898538461538462e-05,-3.690284010759882
-3.897538461538462e-05,-3.686615344480139
-3.896538461538462e-05,-3.671940679361169
-3.895538461538461e-05,-3.686615344480133
-3.894538461538462e-05,-3.671940679361169
-3.893538461538462e-05,-3.693952677039625
-3.892538461538462e-05,-3.682946678200397
-3.891538461538461e-05,-3.675609345640908
-3.890538461538462e-05,-3.66827201308143
-3.889538461538462e-05,-3.664603346801684
-3.888538461538462e-05,-3.671940679361169
-3.887538461538462e-05,-3.668272013081435
-3.886538461538462e-05,-3.686615344480131
-3.885538461538462e-05,-3.653597347962456
-3.884538461538462e-05,-3.660934680521941
-3.883538461538462e-05,-3.664603346801684
-3.882538461538462e-05,-3.671940679361165
-3.881538461538462e-05,-3.649928681682713
-3.880538461538462e-05,-3.660934680521941
-3.879538461538462e-05,-3.649928681682713
-3.878538461538461e-05,-3.66460334680168
-3.877538461538462e-05,-3.657266014242199
-3.876538461538462e-05,-3.653597347962456
-3.875538461538462e-05,-3.657266014242199
-3.874538461538461e-05,-3.649928681682712
-3.873538461538462e-05,-3.646260015402973
-3.872538461538462e-05,-3.646260015402971
-3.871538461538462e-05,-3.642591349123228
-3.870538461538462e-05,-3.635254016563747
-3.869538461538462e-05,-3.642591349123225
-3.868538461538462e-05,-3.631585350284
-3.867538461538462e-05,-3.649928681682713
-3.866538461538462e-05,-3.627916684004258
-3.865538461538462e-05,-3.631585350283999
-3.864538461538462e-05,-3.646260015402971
-3.863538461538462e-05,-3.627916684004258
-3.862538461538462e-05,-3.627916684004258
-3.861538461538461e-05,-3.627916684004258
-3.860538461538462e-05,-3.627916684004258
-3.859538461538462e-05,-3.624248017724515
-3.858538461538462e-05,-3.620579351444773
-3.857538461538461e-05,-3.624248017724517
-3.856538461538462e-05,-3.627916684004256
-3.855538461538462e-05,-3.649928681682713
-3.854538461538462e-05,-3.627916684004258
-3.853538461538461e-05,-3.638922682843477
-3.852538461538462e-05,-3.620579351444781
-3.851538461538462e-05,-3.635254016563743
-3.850538461538462e-05,-3.627916684004258
-3.849538461538462e-05,-3.620579351444773
-3.848538461538462e-05,-3.613242018885291
-3.847538461538462e-05,-3.627916684004258
-3.846538461538462e-05,-3.620579351444773
-3.845538461538462e-05,-3.620579351444773
-3.844538461538461e-05,-3.602236020046071
-3.843538461538462e-05,-3.627916684004258
-3.842538461538462e-05,-3.605904686325802
-3.841538461538462e-05,-3.613242018885288
-3.840538461538461e-05,-3.620579351444776
-3.839538461538462e-05,-3.627916684004258
-3.838538461538462e-05,-3.61691068516503
-3.837538461538462e-05,-3.613242018885288
-3.836538461538461e-05,-3.616910685165034
-3.835538461538462e-05,-3.624248017724512
-3.834538461538462e-05,-3.60223602004606
-3.833538461538462e-05,-3.624248017724515
-3.832538461538462e-05,-3.598567353766317
-3.831538461538462e-05,-3.602236020046058
-3.830538461538462e-05,-3.591230021206832
-3.829538461538462e-05,-3.587561354927089
-3.828538461538462e-05,-3.598567353766317
-3.827538461538461e-05,-3.613242018885283
-3.826538461538462e-05,-3.60223602004606
-3.825538461538462e-05,-3.594898687486574
-3.824538461538462e-05,-3.583892688647347
-3.823538461538461e-05,-3.591230021206834
-3.822538461538462e-05,-3.594898687486574
-3.821538461538462e-05,-3.594898687486574
-3.820538461538462e-05,-3.587561354927089
-3.819538461538461e-05,-3.609573352605533
-3.818538461538462e-05,-3.583892688647358
-3.817538461538462e-05,-3.583892688647347
-3.816538461538462e-05,-3.569218023528376
-3.815538461538462e-05,-3.580224022367604
-3.814538461538462e-05,-3.572886689808123
-3.813538461538462e-05,-3.587561354927089
-3.812538461538462e-05,-3.587561354927089
-3.811538461538462e-05,-3.583892688647347
-3.810538461538462e-05,-3.591230021206829
-3.809538461538462e-05,-3.591230021206832
-3.808538461538462e-05,-3.580224022367604
-3.807538461538462e-05,-3.583892688647347
-3.806538461538461e-05,-3.569218023528376
-3.805538461538462e-05,-3.569218023528376
-3.804538461538462e-05,-3.569218023528376
-3.803538461538462e-05,-3.572886689808119
-3.802538461538461e-05,-3.587561354927083
-3.801538461538462e-05,-3.572886689808126
-3.800538461538462e-05,-3.580224022367604
-3.799538461538462e-05,-3.576555356087862
-3.798538461538462e-05,-3.572886689808121
-3.797538461538462e-05,-3.57655535608786
-3.796538461538462e-05,-3.576555356087862
-3.795538461538462e-05,-3.554543358409406
-3.794538461538462e-05,-3.576555356087862
-3.793538461538462e-05,-3.561880690968898
-3.792538461538462e-05,-3.565549357248634
-3.791538461538462e-05,-3.554543358409406
-3.790538461538462e-05,-3.550874692129664
-3.789538461538461e-05,-3.554543358409402
-3.788538461538462e-05,-3.547206025849921
-3.787538461538462e-05,-3.539868693290436
-3.786538461538462e-05,-3.565549357248634
-3.785538461538461e-05,-3.561880690968888
-3.784538461538462e-05,-3.554543358409409
-3.783538461538462e-05,-3.550874692129664
-3.782538461538462e-05,-3.528862694451208
-3.781538461538462e-05,-3.53986869329044
-3.780538461538462e-05,-3.550874692129659
-3.779538461538462e-05,-3.528862694451208
-3.778538461538462e-05,-3.550874692129664
-3.777538461538462e-05,-3.543537359570178
-3.776538461538462e-05,-3.532531360730955
-3.775538461538462e-05,-3.539868693290436
-3.774538461538462e-05,-3.539868693290436
-3.773538461538462e-05,-3.539868693290436
-3.772538461538461e-05,-3.532531360730947
-3.771538461538462e-05,-3.525194028171466
-3.770538461538462e-05,-3.528862694451208
-3.769538461538462e-05,-3.536200027010693
-3.768538461538461e-05,-3.532531360730952
-3.767538461538462e-05,-3.536200027010691
-3.766538461538462e-05,-3.525194028171466
-3.765538461538462e-05,-3.521525361891723
-3.764538461538462e-05,-3.532531360730947
-3.763538461538462e-05,-3.525194028171469
-3.762538461538462e-05,-3.514188029332237
-3.761538461538462e-05,-3.510519363052495
-3.760538461538462e-05,-3.510519363052495
-3.759538461538462e-05,-3.521525361891718
-3.758538461538462e-05,-3.521525361891723
-3.757538461538462e-05,-3.521525361891723
-3.756538461538462e-05,-3.514188029332237
-3.755538461538461e-05,-3.525194028171457
-3.754538461538462e-05,-3.506850696772752
-3.753538461538462e-05,-3.525194028171466
-3.752538461538462e-05,-3.514188029332237
-3.751538461538461e-05,-3.528862694451199
-3.750538461538462e-05,-3.510519363052504
-3.749538461538462e-05,-3.521525361891723
-3.748538461538462e-05,-3.506850696772752
-3.747538461538461e-05,-3.525194028171457
-3.746538461538462e-05,-3.506850696772761
-3.745538461538462e-05,-3.495844697933525
-3.744538461538462e-05,-3.510519363052495
-3.743538461538462e-05,-3.495844697933525
-3.742538461538462e-05,-3.503182030493006
-3.741538461538462e-05,-3.50318203049301
-3.740538461538462e-05,-3.495844697933525
-3.739538461538462e-05,-3.51785669561198
-3.738538461538461e-05,-3.503182030493011
-3.737538461538462e-05,-3.506850696772752
-3.736538461538462e-05,-3.50318203049301
-3.735538461538462e-05,-3.495844697933525
-3.734538461538461e-05,-3.488507365374039
-3.733538461538462e-05,-3.488507365374039
-3.732538461538462e-05,-3.492176031653782
-3.731538461538462e-05,-3.477501366534812
-3.730538461538461e-05,-3.477501366534815
-3.729538461538462e-05,-3.484838699094293
-3.728538461538462e-05,-3.484838699094297
-3.727538461538462e-05,-3.499513364213267
-3.726538461538462e-05,-3.492176031653782
-3.725538461538462e-05,-3.473832700255078
-3.724538461538462e-05,-3.477501366534812
-3.723538461538462e-05,-3.477501366534812
-3.722538461538462e-05,-3.477501366534812
-3.721538461538462e-05,-3.484838699094293
-3.720538461538462e-05,-3.462826701415841
-3.719538461538462e-05,-3.488507365374039
-3.718538461538462e-05,-3.462826701415841
-3.717538461538461e-05,-3.473832700255069
-3.716538461538462e-05,-3.473832700255069
-3.715538461538462e-05,-3.470164033975327
-3.714538461538462e-05,-3.473832700255069
-3.713538461538461e-05,-3.473832700255063
-3.712538461538462e-05,-3.459158035136106
-3.711538461538462e-05,-3.477501366534812
-3.710538461538462e-05,-3.481170032814554
-3.709538461538462e-05,-3.455489368856356
-3.708538461538462e-05,-3.462826701415838
-3.707538461538462e-05,-3.466495367695584
-3.706538461538462e-05,-3.477501366534812
-3.705538461538462e-05,-3.455489368856356
-3.704538461538462e-05,-3.462826701415838
-3.703538461538462e-05,-3.451820702576613
-3.702538461538462e-05,-3.466495367695584
-3.701538461538462e-05,-3.455489368856356
-3.700538461538461e-05,-3.455489368856353
-3.699538461538462e-05,-3.448152036296871
-3.698538461538462e-05,-3.448152036296871
-3.697538461538462e-05,-3.466495367695584
-3.696538461538461e-05,-3.459158035136097
-3.695538461538462e-05,-3.455489368856358
-3.694538461538462e-05,-3.462826701415841
-3.693538461538462e-05,-3.462826701415841
-3.692538461538462e-05,-3.470164033975316
-3.691538461538462e-05,-3.448152036296881
-3.690538461538462e-05,-3.440814703737386
-3.689538461538462e-05,-3.448152036296871
-3.688538461538462e-05,-3.448152036296871
-3.687538461538462e-05,-3.451820702576612
-3.686538461538462e-05,-3.444483370017128
-3.685538461538462e-05,-3.444483370017128
-3.684538461538462e-05,-3.448152036296871
-3.683538461538461e-05,-3.429808704898163
-3.682538461538462e-05,-3.440814703737386
-3.681538461538462e-05,-3.448152036296871
-3.680538461538462e-05,-3.448152036296871
-3.679538461538461e-05,-3.437146037457645
-3.678538461538462e-05,-3.440814703737384
-3.677538461538462e-05,-3.444483370017128
-3.676538461538462e-05,-3.429808704898158
-3.675538461538462e-05,-3.437146037457643
-3.674538461538462e-05,-3.437146037457643
-3.673538461538462e-05,-3.440814703737386
-3.672538461538462e-05,-3.415134039779188
-3.671538461538462e-05,-3.389453375820989
-3.670538461538462e-05,-3.39312204210073
-3.669538461538462e-05,-3.385784709541247
-3.668538461538462e-05,-3.407796707219703
-3.667538461538462e-05,-3.407796707219703
-3.666538461538461e-05,-3.433477371177904
-3.665538461538462e-05,-3.440814703737386
-3.664538461538462e-05,-3.448152036296871
-3.663538461538462e-05,-3.429808704898158
-3.662538461538461e-05,-3.378447376981224
-3.661538461538462e-05,-2.197136834905185
-3.660538461538462e-05,-0.839730311399888
-3.659538461538462e-05,-1.569794901068664
-3.658538461538461e-05,-1.863288203448268
-3.657538461538462e-05,-2.2961908244575
-3.656538461538462e-05,-3.580224022367604
-3.655538461538462e-05,-4.49372192602351
-3.654538461538462e-05,-4.339637942274321
-3.653538461538462e-05,-4.574432584177741
-3.652538461538462e-05,-4.680823906290382
-3.651538461538462e-05,-4.284607948078182
-3.650538461538462e-05,-4.269933282959212
-3.649538461538461e-05,-4.200228623643972
-3.648538461538462e-05,-3.91407265382418
-3.647538461538462e-05,-3.822355996830615
-3.646538461538462e-05,-3.492176031653782
-3.645538461538461e-05,-3.426140038618417
-3.644538461538462e-05,-3.429808704898156
-3.643538461538462e-05,-3.235369392071801
-3.642538461538462e-05,-3.250044057190771
-3.641538461538461e-05,-3.319748716505887
-3.640538461538462e-05,-3.334423381624844
-3.639538461538462e-05,-3.407796707219703
-3.638538461538462e-05,-3.426140038618415
-3.637538461538462e-05,-3.400459374660217
-3.636538461538462e-05,-3.429808704898145
-3.635538461538462e-05,-3.455489368856356
-3.634538461538462e-05,-3.385784709541247
-3.633538461538462e-05,-3.451820702576613
-3.632538461538461e-05,-3.437146037457625
-3.631538461538462e-05,-3.396790708380474
-3.630538461538462e-05,-3.338092047904593
-3.629538461538462e-05,-3.290399386267939
-3.628538461538461e-05,-3.316080050226155
-3.627538461538462e-05,-3.352766713023564
-3.626538461538462e-05,-3.360104045583049
-3.625538461538462e-05,-3.415134039779188
-3.624538461538461e-05,-3.418802706058905
-3.623538461538462e-05,-3.363772711862816
-3.622538461538462e-05,-3.330754715345108
-3.621538461538462e-05,-3.239038058351543
-3.620538461538462e-05,-3.154658733917464
-3.619538461538462e-05,-3.066610743203682
-3.618538461538462e-05,-2.92353275829368
-3.617538461538462e-05,-2.839153433859601
-3.616538461538462e-05,-2.791460772222947
-3.615538461538462e-05,-2.699744115229424
-3.614538461538462e-05,-2.630039455914273
-3.613538461538462e-05,-2.608027458235817
-3.612538461538462e-05,-2.571340795438391
-3.611538461538461e-05,-2.567672129158624
-3.610538461538462e-05,-2.51264213496251
-3.609538461538462e-05,-2.446606141927143
-3.608538461538462e-05,-2.373232816332291
-3.607538461538461e-05,-2.252166829100738
-3.606538461538462e-05,-2.145775506988299
-3.605538461538462e-05,-2.061396182554171
-3.604538461538462e-05,-1.984354190679577
-3.603538461538462e-05,-1.910980865084725
-3.602538461538462e-05,-1.914649531364466
-3.601538461538462e-05,-1.936661529042923
-3.600538461538462e-05,-1.888968867406269
-3.599538461538462e-05,-1.771571546454506
-3.598538461538462e-05,-1.632162227824351
-3.597538461538462e-05,-1.558788902229436
-3.596538461538462e-05,-1.503758908033297
-3.595538461538462e-05,-1.360680923123336
-3.594538461538461e-05,-1.136892280058996
-3.593538461538462e-05,-1.045175623065473
-3.592538461538462e-05,-1.001151627708562
-3.591538461538462e-05,-0.8910916393162844
-3.590538461538461e-05,-0.7590196532455211
-3.589538461538462e-05,-0.6929836602102144
-3.588538461538462e-05,-0.7003209927696696
-3.587538461538462e-05,-0.634284999734303
-3.586538461538462e-05,-0.4912070148243035
-3.585538461538462e-05,-0.4068276903903005
-3.584538461538462e-05,-0.3371230310751529
-3.583538461538462e-05,-0.201382378724677
-3.582538461538462e-05,-0.01428039845780483
-3.581538461538462e-05,0.0517555945775318
-3.580538461538462e-05,0.1618155829698396
-3.579538461538462e-05,0.3085622341595433
-3.578538461538462e-05,0.3819355597543951
-3.577538461538461e-05,0.3819355597544385
-3.576538461538462e-05,0.4773208830277025
-3.575538461538462e-05,0.5983868702592081
-3.574538461538462e-05,0.6057242028186933
-3.573538461538461e-05,0.675428862133896
-3.572538461538462e-05,0.8808741737992942
-3.571538461538462e-05,0.9799281633524377
-3.570538461538462e-05,1.049632822667547
-3.569538461538462e-05,1.277090132011611
-3.568538461538462e-05,1.328451459927961
-3.567538461538462e-05,1.409162118082321
-3.566538461538462e-05,1.508216107635371
-3.565538461538462e-05,1.566914768111252
-3.564538461538462e-05,1.610938763468144
-3.563538461538462e-05,1.724667418140184
-3.562538461538462e-05,1.77602874605658
-3.561538461538462e-05,1.853070737931175
-3.560538461538461e-05,1.992480056561443
-3.559538461538462e-05,2.102540044953671
-3.558538461538462e-05,2.212600033345949
-3.557538461538462e-05,2.37035268337488
-3.556538461538461e-05,2.425382677571067
-3.555538461538462e-05,2.531773999683506
-3.554538461538462e-05,2.597809992718921
-3.553538461538462e-05,2.656508653194802
-3.552538461538461e-05,2.792249305545715
-3.551538461538462e-05,3.7534398708374
-3.550538461538462e-05,4.105631833693126
-3.549538461538462e-05,3.533319894053282
-3.548538461538462e-05,3.691072544082213
-3.547538461538462e-05,3.324205916108121
-3.546538461538462e-05,3.555331891731737
-3.545538461538462e-05,3.104085939323399
-3.544538461538462e-05,3.26183858935233
-3.543538461538461e-05,3.236157925393987
-3.542538461538462e-05,2.916983959056526
-3.541538461538462e-05,3.181127931197993
-3.540538461538462e-05,2.935327290455239
-3.539538461538461e-05,3.11509193816256
-3.538538461538462e-05,2.968345286972923
-3.537538461538462e-05,3.027043947448804
-3.536538461538462e-05,3.030712613728547
-3.535538461538461e-05,2.990357284651408
-3.534538461538462e-05,3.056393277686714
-3.533538461538462e-05,2.986688618371636
-3.532538461538462e-05,3.137103935841082
-3.531538461538462e-05,3.019706614889319
-3.530538461538462e-05,3.096748606763878
-3.529538461538462e-05,3.056393277686745
